 1.0008158     0.0026968
 0.9937051     0.0031828
 0.9811858     0.0040836
 0.9665851     0.0052118
 0.9503400     0.0065634
 0.9329171     0.0081113
 0.9148349     0.0098284
 0.8963657     0.0116982
 0.8776705     0.0136955
 0.8588875     0.0158171
 0.8400048     0.0180614
 0.8210615     0.0204113
 0.8021119     0.0228798
 0.7830568     0.0254552
 0.7640337     0.0281307
 0.7449417     0.0309184
 0.7258044     0.0338033
 0.7066577     0.0367814
 0.6874649     0.0398582
 0.6682150     0.0430337
 0.6489238     0.0462855
 0.6295894     0.0496341
 0.6101862     0.0530485
 0.5907294     0.0565434
 0.5712140     0.0600955
 0.5516819     0.0636878
 0.5322358     0.0672980
 0.5129280     0.0708404
 0.4937904     0.0742830
 0.4748778     0.0776022
 0.4562261     0.0807631
 0.4378821     0.0837495
 0.4199676     0.0864981
 0.4024192     0.0889901
 0.3853720     0.0912053
 0.3690212     0.0930233
 0.3525476     0.0946100
 0.3351512     0.0962929
 0.3168206     0.0979353
 0.2983343     0.0994035
 0.2802396     0.1005626
 0.2626377     0.1014569
 0.2455531     0.1020558
 0.2290834     0.1022384
 0.2132439     0.1019863
 0.1979012     0.1012817
 0.1829285     0.1001252
 0.1683133     0.0985167
 0.1540726     0.0964448
 0.1401949     0.0939216
 0.1267534     0.0909693
 0.1138093     0.0875928
 0.1014894     0.0838250
 0.0897793     0.0797410
 0.0788630     0.0753960
 0.0689140     0.0708867
 0.0598097     0.0663386
 0.0515841     0.0617737
 0.0441665     0.0572200
 0.0374441     0.0526782
 0.0314874     0.0482090
 0.0262059     0.0438816
 0.0215775     0.0398032
 0.0175887     0.0359735
 0.0141619     0.0323673
 0.0112258     0.0289743
 0.0087136     0.0257689
 0.0065637     0.0227439
 0.0047453     0.0198762
 0.0032312     0.0171449
 0.0019880     0.0145372
 0.0009837     0.0120412
 0.0002020     0.0096543
-0.0003532     0.0073769
-0.0006747     0.0051851
-0.0007500     0.0030447
-0.0005521     0.0009385
-0.0000314    -0.0011282
 0.0008626    -0.0030963
 0.0021348    -0.0049153
 0.0037321    -0.0065605
 0.0056110    -0.0080192
 0.0077351    -0.0093271
 0.0100505    -0.0105294
 0.0125526    -0.0115947
 0.0152584    -0.0124534
 0.0181364    -0.0132536
 0.0212027    -0.0139427
 0.0244710    -0.0145211
 0.0279510    -0.0151104
 0.0316999    -0.0156110
 0.0357502    -0.0161546
 0.0402093    -0.0165979
 0.0451670    -0.0171095
 0.0507141    -0.0175027
 0.0571261    -0.0179927
 0.0646913    -0.0185055
 0.0736620    -0.0190543
 0.0840442    -0.0196555
 0.0954510    -0.0202713
 0.1076407    -0.0209149
 0.1213035    -0.0216474
 0.1365507    -0.0224330
 0.1530060    -0.0232408
 0.1703461    -0.0240277
 0.1881168    -0.0247525
 0.2061179    -0.0253594
 0.2243409    -0.0258280
 0.2429936    -0.0261785
 0.2618005    -0.0264194
 0.2804951    -0.0266630
 0.2989002    -0.0269054
 0.3169450    -0.0269788
 0.3345293    -0.0269294
 0.3513462    -0.0266821
 0.3681003    -0.0262421
 0.3855039    -0.0258767
 0.4036396    -0.0255804
 0.4223314    -0.0253310
 0.4415208    -0.0250896
 0.4610446    -0.0248417
 0.4807217    -0.0245804
 0.5004238    -0.0242923
 0.5200876    -0.0239832
 0.5397039    -0.0236558
 0.5592499    -0.0232502
 0.5787585    -0.0227789
 0.5982577    -0.0222294
 0.6177409    -0.0216204
 0.6372086    -0.0209545
 0.6566738    -0.0202223
 0.6761453    -0.0194491
 0.6956212    -0.0186176
 0.7150819    -0.0177464
 0.7346069    -0.0168250
 0.7541630    -0.0158737
 0.7736888    -0.0148946
 0.7932868    -0.0138722
 0.8129102    -0.0128357
 0.8325375    -0.0117717
 0.8522415    -0.0106911
 0.8719150    -0.0096066
 0.8916013    -0.0085101
 0.9111473    -0.0074301
 0.9303153    -0.0063767
 0.9486993    -0.0053785
 0.9657469    -0.0044774
 0.9808893    -0.0036919
 0.9936321    -0.0030475
 1.0007662    -0.0026968
