 1.0059563     0.0046261
 0.9970196     0.0056502
 0.9823586     0.0074166
 0.9661064     0.0094856
 0.9482541     0.0118859
 0.9288630     0.0146133
 0.9081047     0.0176505
 0.8861950     0.0209873
 0.8633806     0.0245714
 0.8398845     0.0283924
 0.8158981     0.0324035
 0.7915577     0.0365806
 0.7669657     0.0409080
 0.7422052     0.0453664
 0.7173364     0.0499384
 0.6923962     0.0546109
 0.6674283     0.0593734
 0.6425005     0.0642079
 0.6176799     0.0690860
 0.5930999     0.0739925
 0.5688966     0.0788749
 0.5453052     0.0836851
 0.5226778     0.0883377
 0.5013042     0.0927710
 0.4815262     0.0968896
 0.4634640     0.1006954
 0.4468869     0.1041029
 0.4303883     0.1069343
 0.4131639     0.1098582
 0.3948993     0.1127387
 0.3757989     0.1155652
 0.3563914     0.1181769
 0.3367145     0.1205827
 0.3174568     0.1227027
 0.2984542     0.1244788
 0.2802083     0.1260006
 0.2629049     0.1269447
 0.2464660     0.1272976
 0.2308558     0.1271942
 0.2159270     0.1266542
 0.2015781     0.1257117
 0.1878620     0.1244050
 0.1747290     0.1227485
 0.1621940     0.1207780
 0.1502634     0.1185173
 0.1389252     0.1159932
 0.1281767     0.1132401
 0.1180274     0.1102963
 0.1084770     0.1071864
 0.0995007     0.1039359
 0.0910670     0.1005682
 0.0831569     0.0971079
 0.0757729     0.0935974
 0.0689069     0.0900570
 0.0625260     0.0864863
 0.0565942     0.0828851
 0.0510731     0.0792617
 0.0459181     0.0756478
 0.0411026     0.0720787
 0.0366314     0.0685603
 0.0325170     0.0650679
 0.0287497     0.0615830
 0.0252913     0.0581190
 0.0221010     0.0546976
 0.0191513     0.0513298
 0.0164275     0.0480112
 0.0139170     0.0447388
 0.0116085     0.0415115
 0.0095020     0.0383282
 0.0076114     0.0351860
 0.0059474     0.0320824
 0.0045148     0.0290150
 0.0033125     0.0259832
 0.0023285     0.0229913
 0.0015483     0.0200387
 0.0009594     0.0171202
 0.0005529     0.0142263
 0.0003316     0.0113482
 0.0003113     0.0084861
 0.0005129     0.0056429
 0.0009611     0.0028258
 0.0016840     0.0000466
 0.0026976    -0.0026819
 0.0039984    -0.0053390
 0.0055800    -0.0078998
 0.0074392    -0.0103360
 0.0095752    -0.0126162
 0.0119859    -0.0147154
 0.0146685    -0.0166398
 0.0176175    -0.0184022
 0.0208174    -0.0200118
 0.0242383    -0.0214786
 0.0278623    -0.0228101
 0.0316921    -0.0240131
 0.0357409    -0.0250995
 0.0400358    -0.0260723
 0.0446073    -0.0269251
 0.0494838    -0.0276516
 0.0546931    -0.0282476
 0.0602754    -0.0287130
 0.0662763    -0.0290540
 0.0727464    -0.0292859
 0.0797505    -0.0294298
 0.0873745    -0.0294885
 0.0957109    -0.0294199
 0.1048082    -0.0292043
 0.1147366    -0.0287943
 0.1257332    -0.0281588
 0.1379733    -0.0273489
 0.1514762    -0.0263626
 0.1663558    -0.0251502
 0.1826121    -0.0237084
 0.2001760    -0.0220555
 0.2187857    -0.0202212
 0.2380694    -0.0182505
 0.2574445    -0.0162095
 0.2768682    -0.0139723
 0.2967652    -0.0116809
 0.3169400    -0.0096309
 0.3373070    -0.0078227
 0.3576373    -0.0062622
 0.3781194    -0.0048860
 0.3981760    -0.0037462
 0.4178323    -0.0027393
 0.4364388    -0.0020022
 0.4550628    -0.0019477
 0.4752295    -0.0018479
 0.4970286    -0.0017308
 0.5202460    -0.0015853
 0.5445763    -0.0014000
 0.5696901    -0.0011975
 0.5952668    -0.0009761
 0.6211660    -0.0007426
 0.6473615    -0.0005056
 0.6736768    -0.0002733
 0.7000268    -0.0000581
 0.7263545     0.0001321
 0.7526088     0.0002868
 0.7787343     0.0003924
 0.8046567     0.0004306
 0.8302630     0.0003851
 0.8553951     0.0002443
 0.8798486    -0.0000102
 0.9033063    -0.0003923
 0.9254156    -0.0009036
 0.9458718    -0.0015374
 0.9644945    -0.0022815
 0.9812122    -0.0031020
 0.9961039    -0.0039966
 1.0050948    -0.0046261
