Menos sustentador => Mais sustentador
Leila 1:
L1_original, L1_1_20, L1_3c, L1_1_40, L1_1_75, L1_1.

Leila 2:
L2_original, L2_1_20, L2_1_40, L2_L1_3c_50, L2_L1_3c. 

Maragarida 1:
M1_3c, M1_2e, M1_original, M1_3e, M1_2d, M1_3d, M1_1_20, M1_1_40.

Margarida 2:
M2_3, M2_3_50, M2_original, M2_5, M2_1.
