  
       XFOIL         Version 6.99
  
 Calculated polar for:                                                 
  
 1 1 Reynolds number fixed          Mach number fixed         
  
 xtrf =   1.000 (top)        1.000 (bottom)  
 Mach =   0.000     Re =     0.300 e 6     Ncrit =   9.000
  
   alpha    CL        CD       CDp       CM     Chinge   Top_Xtr  Bot_Xtr
  ------ -------- --------- --------- -------- -------- -------- --------
   1.000   0.1359   0.02325   0.01584  -0.1180  0.02223   0.4632   0.0471
   2.000   0.2606   0.01958   0.01141  -0.1208  0.02419   0.4542   0.0556
   3.000   0.3812   0.01812   0.00969  -0.1219  0.02571   0.4467   0.0695
   4.000   0.5011   0.01738   0.00898  -0.1230  0.02704   0.4386   0.0909
   5.000   0.6222   0.01710   0.00869  -0.1244  0.02853   0.4319   0.1268
   6.000   0.7465   0.01696   0.00906  -0.1272  0.03027   0.4244   0.2272
   7.000   0.8710   0.01746   0.01049  -0.1296  0.03246   0.4184   0.7341
   8.000   0.9705   0.01879   0.01205  -0.1256  0.03174   0.4109   0.7864
   9.000   1.0730   0.01955   0.01271  -0.1226  0.03144   0.4057   0.8193
  10.000   1.1786   0.02070   0.01410  -0.1218  0.03153   0.3970   0.8321
  11.000   1.2991   0.02133   0.01452  -0.1243  0.03311   0.3911   0.8279
  12.000   1.4086   0.02295   0.01652  -0.1258  0.03378   0.3825   0.8256
  13.000   1.5210   0.02361   0.01725  -0.1272  0.03472   0.3747   0.8259
  14.000   1.6321   0.02436   0.01819  -0.1287  0.03559   0.3660   0.8224
  15.000   1.7371   0.02558   0.01976  -0.1298  0.03617   0.3554   0.8173
  16.000   1.8434   0.02639   0.02083  -0.1312  0.03687   0.3439   0.8123
  17.000   1.9446   0.02734   0.02210  -0.1319  0.03729   0.3313   0.8087
  18.000   2.0435   0.02750   0.02252  -0.1324  0.03759   0.3129   0.8053
  19.000   2.1193   0.03033   0.02579  -0.1323  0.03721   0.2862   0.8018
  20.000   2.0326   0.04769   0.04363  -0.1279  0.03763   0.2626   0.7977
   0.000   0.0110   0.03615   0.03041  -0.1066  0.01849   0.4704   0.0446
  -1.000  -0.0505   0.06916   0.06435  -0.0725  0.01462   0.4760   0.0507
  -2.000  -0.0677   0.08229   0.07731  -0.0586  0.01369   0.4818   0.0449
  -3.000  -0.0844   0.09457   0.08957  -0.0508  0.01359   0.4872   0.0405
  -4.000  -0.1138   0.10622   0.10112  -0.0454  0.01326   0.4944   0.0380
  -5.000  -0.1498   0.11713   0.11208  -0.0409  0.01268   0.5011   0.0350
  -6.000  -0.1776   0.12958   0.12452  -0.0346  0.01214   0.5084   0.0322
