%!PS-Adobe-3.0 EPSF-3.0
%%Creator: (MATLAB, The Mathworks, Inc. Version 9.2.0.538062 \(R2017a\). Operating System: Windows 8)
%%Title: C:/Documents/Tucano/ARD_CODES/07-Banco_de_dados/Fotos/CHP01_342_50.eps
%%CreationDate: 2022-08-06T09:37:01
%%Pages: (atend)
%%BoundingBox: 0 0 340 131
%%LanguageLevel: 3
%%EndComments
%%BeginProlog
%%BeginResource: procset (Apache XML Graphics Std ProcSet) 1.2 0
%%Version: 1.2 0
%%Copyright: (Copyright 2001-2003,2010 The Apache Software Foundation. License terms: http://www.apache.org/licenses/LICENSE-2.0)
/bd{bind def}bind def
/ld{load def}bd
/GR/grestore ld
/M/moveto ld
/LJ/setlinejoin ld
/C/curveto ld
/f/fill ld
/LW/setlinewidth ld
/GC/setgray ld
/t/show ld
/N/newpath ld
/CT/concat ld
/cp/closepath ld
/S/stroke ld
/L/lineto ld
/CC/setcmykcolor ld
/A/ashow ld
/GS/gsave ld
/RC/setrgbcolor ld
/RM/rmoveto ld
/ML/setmiterlimit ld
/re {4 2 roll M
1 index 0 rlineto
0 exch rlineto
neg 0 rlineto
cp } bd
/_ctm matrix def
/_tm matrix def
/BT { _ctm currentmatrix pop matrix _tm copy pop 0 0 moveto } bd
/ET { _ctm setmatrix } bd
/iTm { _ctm setmatrix _tm concat } bd
/Tm { _tm astore pop iTm 0 0 moveto } bd
/ux 0.0 def
/uy 0.0 def
/F {
  /Tp exch def
  /Tf exch def
  Tf findfont Tp scalefont setfont
  /cf Tf def  /cs Tp def
} bd
/ULS {currentpoint /uy exch def /ux exch def} bd
/ULE {
  /Tcx currentpoint pop def
  gsave
  newpath
  cf findfont cs scalefont dup
  /FontMatrix get 0 get /Ts exch def /FontInfo get dup
  /UnderlinePosition get Ts mul /To exch def
  /UnderlineThickness get Ts mul /Tt exch def
  ux uy To add moveto  Tcx uy To add lineto
  Tt setlinewidth stroke
  grestore
} bd
/OLE {
  /Tcx currentpoint pop def
  gsave
  newpath
  cf findfont cs scalefont dup
  /FontMatrix get 0 get /Ts exch def /FontInfo get dup
  /UnderlinePosition get Ts mul /To exch def
  /UnderlineThickness get Ts mul /Tt exch def
  ux uy To add cs add moveto Tcx uy To add cs add lineto
  Tt setlinewidth stroke
  grestore
} bd
/SOE {
  /Tcx currentpoint pop def
  gsave
  newpath
  cf findfont cs scalefont dup
  /FontMatrix get 0 get /Ts exch def /FontInfo get dup
  /UnderlinePosition get Ts mul /To exch def
  /UnderlineThickness get Ts mul /Tt exch def
  ux uy To add cs 10 mul 26 idiv add moveto Tcx uy To add cs 10 mul 26 idiv add lineto
  Tt setlinewidth stroke
  grestore
} bd
/QT {
/Y22 exch store
/X22 exch store
/Y21 exch store
/X21 exch store
currentpoint
/Y21 load 2 mul add 3 div exch
/X21 load 2 mul add 3 div exch
/X21 load 2 mul /X22 load add 3 div
/Y21 load 2 mul /Y22 load add 3 div
/X22 load /Y22 load curveto
} bd
/SSPD {
dup length /d exch dict def
{
/v exch def
/k exch def
currentpagedevice k known {
/cpdv currentpagedevice k get def
v cpdv ne {
/upd false def
/nullv v type /nulltype eq def
/nullcpdv cpdv type /nulltype eq def
nullv nullcpdv or
{
/upd true def
} {
/sametype v type cpdv type eq def
sametype {
v type /arraytype eq {
/vlen v length def
/cpdvlen cpdv length def
vlen cpdvlen eq {
0 1 vlen 1 sub {
/i exch def
/obj v i get def
/cpdobj cpdv i get def
obj cpdobj ne {
/upd true def
exit
} if
} for
} {
/upd true def
} ifelse
} {
v type /dicttype eq {
v {
/dv exch def
/dk exch def
/cpddv cpdv dk get def
dv cpddv ne {
/upd true def
exit
} if
} forall
} {
/upd true def
} ifelse
} ifelse
} if
} ifelse
upd true eq {
d k v put
} if
} if
} if
} forall
d length 0 gt {
d setpagedevice
} if
} bd
/RE { % /NewFontName [NewEncodingArray] /FontName RE -
  findfont dup length dict begin
  {
    1 index /FID ne
    {def} {pop pop} ifelse
  } forall
  /Encoding exch def
  /FontName 1 index def
  currentdict definefont pop
  end
} bind def
%%EndResource
%%BeginResource: procset (Apache XML Graphics EPS ProcSet) 1.0 0
%%Version: 1.0 0
%%Copyright: (Copyright 2002-2003 The Apache Software Foundation. License terms: http://www.apache.org/licenses/LICENSE-2.0)
/BeginEPSF { %def
/b4_Inc_state save def         % Save state for cleanup
/dict_count countdictstack def % Count objects on dict stack
/op_count count 1 sub def      % Count objects on operand stack
userdict begin                 % Push userdict on dict stack
/showpage { } def              % Redefine showpage, { } = null proc
0 setgray 0 setlinecap         % Prepare graphics state
1 setlinewidth 0 setlinejoin
10 setmiterlimit [ ] 0 setdash newpath
/languagelevel where           % If level not equal to 1 then
{pop languagelevel             % set strokeadjust and
1 ne                           % overprint to their defaults.
{false setstrokeadjust false setoverprint
} if
} if
} bd
/EndEPSF { %def
count op_count sub {pop} repeat            % Clean up stacks
countdictstack dict_count sub {end} repeat
b4_Inc_state restore
} bd
%%EndResource
%FOPBeginFontDict
%%IncludeResource: font Courier-Bold
%%IncludeResource: font Helvetica
%%IncludeResource: font Courier-BoldOblique
%%IncludeResource: font Courier-Oblique
%%IncludeResource: font Times-Roman
%%IncludeResource: font Helvetica-BoldOblique
%%IncludeResource: font Helvetica-Bold
%%IncludeResource: font Helvetica-Oblique
%%IncludeResource: font Times-BoldItalic
%%IncludeResource: font Courier
%%IncludeResource: font Times-Italic
%%IncludeResource: font Times-Bold
%%IncludeResource: font Symbol
%%IncludeResource: font ZapfDingbats
%FOPEndFontDict
%%BeginResource: encoding WinAnsiEncoding
/WinAnsiEncoding [
/.notdef /.notdef /.notdef /.notdef /.notdef
/.notdef /.notdef /.notdef /.notdef /.notdef
/.notdef /.notdef /.notdef /.notdef /.notdef
/.notdef /.notdef /.notdef /.notdef /.notdef
/.notdef /.notdef /.notdef /.notdef /.notdef
/.notdef /.notdef /.notdef /.notdef /.notdef
/.notdef /.notdef /space /exclam /quotedbl
/numbersign /dollar /percent /ampersand /quotesingle
/parenleft /parenright /asterisk /plus /comma
/hyphen /period /slash /zero /one
/two /three /four /five /six
/seven /eight /nine /colon /semicolon
/less /equal /greater /question /at
/A /B /C /D /E
/F /G /H /I /J
/K /L /M /N /O
/P /Q /R /S /T
/U /V /W /X /Y
/Z /bracketleft /backslash /bracketright /asciicircum
/underscore /quoteleft /a /b /c
/d /e /f /g /h
/i /j /k /l /m
/n /o /p /q /r
/s /t /u /v /w
/x /y /z /braceleft /bar
/braceright /asciitilde /bullet /Euro /bullet
/quotesinglbase /florin /quotedblbase /ellipsis /dagger
/daggerdbl /circumflex /perthousand /Scaron /guilsinglleft
/OE /bullet /Zcaron /bullet /bullet
/quoteleft /quoteright /quotedblleft /quotedblright /bullet
/endash /emdash /asciitilde /trademark /scaron
/guilsinglright /oe /bullet /zcaron /Ydieresis
/space /exclamdown /cent /sterling /currency
/yen /brokenbar /section /dieresis /copyright
/ordfeminine /guillemotleft /logicalnot /sfthyphen /registered
/macron /degree /plusminus /twosuperior /threesuperior
/acute /mu /paragraph /middot /cedilla
/onesuperior /ordmasculine /guillemotright /onequarter /onehalf
/threequarters /questiondown /Agrave /Aacute /Acircumflex
/Atilde /Adieresis /Aring /AE /Ccedilla
/Egrave /Eacute /Ecircumflex /Edieresis /Igrave
/Iacute /Icircumflex /Idieresis /Eth /Ntilde
/Ograve /Oacute /Ocircumflex /Otilde /Odieresis
/multiply /Oslash /Ugrave /Uacute /Ucircumflex
/Udieresis /Yacute /Thorn /germandbls /agrave
/aacute /acircumflex /atilde /adieresis /aring
/ae /ccedilla /egrave /eacute /ecircumflex
/edieresis /igrave /iacute /icircumflex /idieresis
/eth /ntilde /ograve /oacute /ocircumflex
/otilde /odieresis /divide /oslash /ugrave
/uacute /ucircumflex /udieresis /yacute /thorn
/ydieresis
] def
%%EndResource
%FOPBeginFontReencode
/Courier-Bold findfont
dup length dict begin
  {1 index /FID ne {def} {pop pop} ifelse} forall
  /Encoding WinAnsiEncoding def
  currentdict
end
/Courier-Bold exch definefont pop
/Helvetica findfont
dup length dict begin
  {1 index /FID ne {def} {pop pop} ifelse} forall
  /Encoding WinAnsiEncoding def
  currentdict
end
/Helvetica exch definefont pop
/Courier-BoldOblique findfont
dup length dict begin
  {1 index /FID ne {def} {pop pop} ifelse} forall
  /Encoding WinAnsiEncoding def
  currentdict
end
/Courier-BoldOblique exch definefont pop
/Courier-Oblique findfont
dup length dict begin
  {1 index /FID ne {def} {pop pop} ifelse} forall
  /Encoding WinAnsiEncoding def
  currentdict
end
/Courier-Oblique exch definefont pop
/Times-Roman findfont
dup length dict begin
  {1 index /FID ne {def} {pop pop} ifelse} forall
  /Encoding WinAnsiEncoding def
  currentdict
end
/Times-Roman exch definefont pop
/Helvetica-BoldOblique findfont
dup length dict begin
  {1 index /FID ne {def} {pop pop} ifelse} forall
  /Encoding WinAnsiEncoding def
  currentdict
end
/Helvetica-BoldOblique exch definefont pop
/Helvetica-Bold findfont
dup length dict begin
  {1 index /FID ne {def} {pop pop} ifelse} forall
  /Encoding WinAnsiEncoding def
  currentdict
end
/Helvetica-Bold exch definefont pop
/Helvetica-Oblique findfont
dup length dict begin
  {1 index /FID ne {def} {pop pop} ifelse} forall
  /Encoding WinAnsiEncoding def
  currentdict
end
/Helvetica-Oblique exch definefont pop
/Times-BoldItalic findfont
dup length dict begin
  {1 index /FID ne {def} {pop pop} ifelse} forall
  /Encoding WinAnsiEncoding def
  currentdict
end
/Times-BoldItalic exch definefont pop
/Courier findfont
dup length dict begin
  {1 index /FID ne {def} {pop pop} ifelse} forall
  /Encoding WinAnsiEncoding def
  currentdict
end
/Courier exch definefont pop
/Times-Italic findfont
dup length dict begin
  {1 index /FID ne {def} {pop pop} ifelse} forall
  /Encoding WinAnsiEncoding def
  currentdict
end
/Times-Italic exch definefont pop
/Times-Bold findfont
dup length dict begin
  {1 index /FID ne {def} {pop pop} ifelse} forall
  /Encoding WinAnsiEncoding def
  currentdict
end
/Times-Bold exch definefont pop
%FOPEndFontReencode
%%EndProlog
%%Page: 1 1
%%PageBoundingBox: 0 0 340 131
%%BeginPageSetup
[1 0 0 -1 0 131] CT
%%EndPageSetup
GS
[0.75 0 0 0.75 0 0.5] CT
1 GC
N
0 0 453 174 re
f
GR
GS
[0.75 0 0 0.75 0 0.5] CT
1 GC
N
0 0 453 174 re
f
GR
GS
[0.75 0 0 0.75 0 0.5] CT
1 GC
N
59 136.65 M
410 136.65 L
410 31.35 L
59 31.35 L
cp
f
GR
GS
[0.75 0 0 0.75 0 0.5] CT
0.149 GC
2 setlinecap
1 LJ
0.667 LW
N
59 136.65 M
410 136.65 L
S
GR
GS
[0.75 0 0 0.75 0 0.5] CT
0.149 GC
2 setlinecap
1 LJ
0.667 LW
N
59 31.35 M
410 31.35 L
S
GR
GS
[0.75 0 0 0.75 0 0.5] CT
0.149 GC
2 setlinecap
1 LJ
0.667 LW
N
59 136.65 M
59 133.14 L
S
GR
GS
[0.75 0 0 0.75 0 0.5] CT
0.149 GC
2 setlinecap
1 LJ
0.667 LW
N
129.2 136.65 M
129.2 133.14 L
S
GR
GS
[0.75 0 0 0.75 0 0.5] CT
0.149 GC
2 setlinecap
1 LJ
0.667 LW
N
199.4 136.65 M
199.4 133.14 L
S
GR
GS
[0.75 0 0 0.75 0 0.5] CT
0.149 GC
2 setlinecap
1 LJ
0.667 LW
N
269.6 136.65 M
269.6 133.14 L
S
GR
GS
[0.75 0 0 0.75 0 0.5] CT
0.149 GC
2 setlinecap
1 LJ
0.667 LW
N
339.8 136.65 M
339.8 133.14 L
S
GR
GS
[0.75 0 0 0.75 0 0.5] CT
0.149 GC
2 setlinecap
1 LJ
0.667 LW
N
410 136.65 M
410 133.14 L
S
GR
GS
[0.75 0 0 0.75 0 0.5] CT
0.149 GC
2 setlinecap
1 LJ
0.667 LW
N
59 31.35 M
59 34.86 L
S
GR
GS
[0.75 0 0 0.75 0 0.5] CT
0.149 GC
2 setlinecap
1 LJ
0.667 LW
N
129.2 31.35 M
129.2 34.86 L
S
GR
GS
[0.75 0 0 0.75 0 0.5] CT
0.149 GC
2 setlinecap
1 LJ
0.667 LW
N
199.4 31.35 M
199.4 34.86 L
S
GR
GS
[0.75 0 0 0.75 0 0.5] CT
0.149 GC
2 setlinecap
1 LJ
0.667 LW
N
269.6 31.35 M
269.6 34.86 L
S
GR
GS
[0.75 0 0 0.75 0 0.5] CT
0.149 GC
2 setlinecap
1 LJ
0.667 LW
N
339.8 31.35 M
339.8 34.86 L
S
GR
GS
[0.75 0 0 0.75 0 0.5] CT
0.149 GC
2 setlinecap
1 LJ
0.667 LW
N
410 31.35 M
410 34.86 L
S
GR
GS
[0.75 0 0 0.75 44.25 106.9875] CT
0.149 GC
/Helvetica 13.333 F
GS
[1 0 0 1 0 0] CT
-4 14 moveto 
1 -1 scale
(0) t 
GR
GR
GS
[0.75 0 0 0.75 96.9 106.9875] CT
0.149 GC
/Helvetica 13.333 F
GS
[1 0 0 1 0 0] CT
-9.5 14 moveto 
1 -1 scale
(0.2) t 
GR
GR
GS
[0.75 0 0 0.75 149.55001 106.9875] CT
0.149 GC
/Helvetica 13.333 F
GS
[1 0 0 1 0 0] CT
-9.5 14 moveto 
1 -1 scale
(0.4) t 
GR
GR
GS
[0.75 0 0 0.75 202.2 106.9875] CT
0.149 GC
/Helvetica 13.333 F
GS
[1 0 0 1 0 0] CT
-9.5 14 moveto 
1 -1 scale
(0.6) t 
GR
GR
GS
[0.75 0 0 0.75 254.85001 106.9875] CT
0.149 GC
/Helvetica 13.333 F
GS
[1 0 0 1 0 0] CT
-9.5 14 moveto 
1 -1 scale
(0.8) t 
GR
GR
GS
[0.75 0 0 0.75 307.5 106.9875] CT
0.149 GC
/Helvetica 13.333 F
GS
[1 0 0 1 0 0] CT
-4 14 moveto 
1 -1 scale
(1) t 
GR
GR
GS
[0.75 0 0 0.75 0 0.5] CT
0.149 GC
2 setlinecap
1 LJ
0.667 LW
N
59 136.65 M
59 31.35 L
S
GR
GS
[0.75 0 0 0.75 0 0.5] CT
0.149 GC
2 setlinecap
1 LJ
0.667 LW
N
410 136.65 M
410 31.35 L
S
GR
GS
[0.75 0 0 0.75 0 0.5] CT
0.149 GC
2 setlinecap
1 LJ
0.667 LW
N
59 119.1 M
62.51 119.1 L
S
GR
GS
[0.75 0 0 0.75 0 0.5] CT
0.149 GC
2 setlinecap
1 LJ
0.667 LW
N
59 84 M
62.51 84 L
S
GR
GS
[0.75 0 0 0.75 0 0.5] CT
0.149 GC
2 setlinecap
1 LJ
0.667 LW
N
59 48.9 M
62.51 48.9 L
S
GR
GS
[0.75 0 0 0.75 0 0.5] CT
0.149 GC
2 setlinecap
1 LJ
0.667 LW
N
410 119.1 M
406.49 119.1 L
S
GR
GS
[0.75 0 0 0.75 0 0.5] CT
0.149 GC
2 setlinecap
1 LJ
0.667 LW
N
410 84 M
406.49 84 L
S
GR
GS
[0.75 0 0 0.75 0 0.5] CT
0.149 GC
2 setlinecap
1 LJ
0.667 LW
N
410 48.9 M
406.49 48.9 L
S
GR
GS
[0.75 0 0 0.75 40.25 89.825] CT
0.149 GC
/Helvetica 13.333 F
GS
[1 0 0 1 0 0] CT
-8 5.5 moveto 
1 -1 scale
(0) t 
GR
GR
GS
[0.75 0 0 0.75 40.25 63.5] CT
0.149 GC
/Helvetica 13.333 F
GS
[1 0 0 1 0 0] CT
-19 5.5 moveto 
1 -1 scale
(0.1) t 
GR
GR
GS
[0.75 0 0 0.75 40.25 37.175] CT
0.149 GC
/Helvetica 13.333 F
GS
[1 0 0 1 0 0] CT
-19 5.5 moveto 
1 -1 scale
(0.2) t 
GR
GR
GS
[0.75 0 0 0.75 175.87517 21.95] CT
/Helvetica-Bold 14.667 F
GS
[1 0 0 1 0 0] CT
-50.5 -4 moveto 
1 -1 scale
(CHP01-342-50) t 
GR
GR
GS
[0.75 0 0 0.75 0 0.5] CT
1 LJ
1.333 LW
N
410.013 118.972 M
408.498 118.391 L
405.458 117.201 L
402.106 115.916 L
398.449 114.579 L
394.514 113.221 L
390.333 111.862 L
385.964 110.515 L
381.425 109.174 L
376.732 107.84 L
371.917 106.513 L
367.003 105.19 L
362.022 103.881 L
356.964 102.585 L
351.825 101.297 L
346.641 100.016 L
341.411 98.746 L
336.129 97.489 L
330.804 96.236 L
325.451 94.993 L
320.056 93.761 L
314.633 92.54 L
309.196 91.329 L
303.745 90.128 L
298.27 88.939 L
292.784 87.763 L
287.269 86.601 L
281.759 85.446 L
276.258 84.316 L
270.73 83.2 L
265.216 82.101 L
259.705 81.024 L
254.184 79.967 L
248.677 78.932 L
243.215 77.931 L
237.768 76.966 L
232.348 76.029 L
226.964 75.13 L
221.688 74.281 L
216.515 73.491 L
211.524 72.757 L
206.785 72.122 L
202.162 71.582 L
197.589 71.129 L
193.054 70.753 L
188.558 70.458 L
184.086 70.251 L
179.618 70.125 L
175.146 70.083 L
170.692 70.121 L
166.245 70.251 L
161.808 70.472 L
157.382 70.788 L
152.956 71.206 L
148.547 71.719 L
144.139 72.35 L
139.698 73.094 L
135.255 73.944 L
130.822 74.902 L
126.41 75.969 L
122.022 77.141 L
117.67 78.423 L
113.363 79.809 L
109.105 81.297 L
104.918 82.884 L
100.811 84.565 L
96.799 86.338 L
92.9 88.194 L
89.147 90.118 L
85.571 92.094 L
82.201 94.091 L
79.084 96.081 L
76.245 98.029 L
73.71 99.9 L
71.482 101.673 L
69.537 103.333 L
67.863 104.867 L
66.42 106.292 L
65.181 107.605 L
64.118 108.826 L
63.198 109.956 L
62.408 111.009 L
61.731 111.992 L
61.145 112.922 L
60.643 113.796 L
60.218 114.632 L
59.863 115.425 L
59.569 116.183 L
59.337 116.91 L
59.168 117.605 L
59.056 118.275 L
59.004 118.917 L
59.011 119.546 L
59.095 120.178 L
59.277 120.799 L
59.607 121.36 L
60.057 121.859 L
60.594 122.301 L
61.201 122.698 L
61.871 123.056 L
62.608 123.379 L
63.405 123.67 L
64.276 123.933 L
65.22 124.172 L
66.252 124.39 L
67.371 124.583 L
68.607 124.762 L
69.972 124.913 L
71.492 125.042 L
73.194 125.148 L
75.111 125.221 L
77.291 125.26 L
79.786 125.253 L
82.64 125.19 L
85.89 125.067 L
89.562 124.87 L
93.658 124.593 L
98.14 124.242 L
102.959 123.817 L
108.052 123.333 L
113.359 122.793 L
118.831 122.21 L
124.444 121.592 L
130.141 120.957 L
135.837 120.307 L
141.503 119.665 L
147.126 119.03 L
152.731 118.409 L
158.34 117.787 L
163.903 117.173 L
169.361 116.576 L
174.711 116.008 L
179.951 115.471 L
185.09 114.972 L
190.12 114.516 L
195.016 114.116 L
199.941 113.765 L
204.788 113.456 L
209.73 113.231 L
215.03 113.014 L
220.485 112.789 L
225.964 112.575 L
231.446 112.378 L
236.964 112.192 L
242.433 112.02 L
247.852 111.873 L
253.275 111.747 L
258.684 111.638 L
264.051 111.546 L
269.396 111.487 L
274.732 111.445 L
280.025 111.424 L
285.314 111.434 L
290.6 111.462 L
295.848 111.515 L
301.085 111.592 L
306.301 111.697 L
311.502 111.82 L
316.683 111.968 L
321.853 112.136 L
326.996 112.326 L
332.113 112.529 L
337.213 112.75 L
342.268 112.972 L
347.283 113.196 L
352.275 113.414 L
357.224 113.631 L
362.103 113.846 L
366.925 114.074 L
371.709 114.323 L
376.416 114.607 L
381.028 114.93 L
385.525 115.306 L
389.891 115.73 L
394.089 116.201 L
398.087 116.734 L
401.832 117.338 L
405.29 117.949 L
408.435 118.563 L
410.013 119.007 L
S
GR
%%Trailer
%%Pages: 1
%%EOF
