%!PS-Adobe-3.0 EPSF-3.0
%%Creator: (MATLAB, The Mathworks, Inc. Version 9.2.0.538062 \(R2017a\). Operating System: Windows 8)
%%Title: C:/Documents/Tucano/ARD_CODES/07-Banco_de_dados/Fotos/Compara_raiz.eps
%%CreationDate: 2022-08-06T09:52:01
%%Pages: (atend)
%%BoundingBox: 0 0 340 158
%%LanguageLevel: 3
%%EndComments
%%BeginProlog
%%BeginResource: procset (Apache XML Graphics Std ProcSet) 1.2 0
%%Version: 1.2 0
%%Copyright: (Copyright 2001-2003,2010 The Apache Software Foundation. License terms: http://www.apache.org/licenses/LICENSE-2.0)
/bd{bind def}bind def
/ld{load def}bd
/GR/grestore ld
/M/moveto ld
/LJ/setlinejoin ld
/C/curveto ld
/f/fill ld
/LW/setlinewidth ld
/GC/setgray ld
/t/show ld
/N/newpath ld
/CT/concat ld
/cp/closepath ld
/S/stroke ld
/L/lineto ld
/CC/setcmykcolor ld
/A/ashow ld
/GS/gsave ld
/RC/setrgbcolor ld
/RM/rmoveto ld
/ML/setmiterlimit ld
/re {4 2 roll M
1 index 0 rlineto
0 exch rlineto
neg 0 rlineto
cp } bd
/_ctm matrix def
/_tm matrix def
/BT { _ctm currentmatrix pop matrix _tm copy pop 0 0 moveto } bd
/ET { _ctm setmatrix } bd
/iTm { _ctm setmatrix _tm concat } bd
/Tm { _tm astore pop iTm 0 0 moveto } bd
/ux 0.0 def
/uy 0.0 def
/F {
  /Tp exch def
  /Tf exch def
  Tf findfont Tp scalefont setfont
  /cf Tf def  /cs Tp def
} bd
/ULS {currentpoint /uy exch def /ux exch def} bd
/ULE {
  /Tcx currentpoint pop def
  gsave
  newpath
  cf findfont cs scalefont dup
  /FontMatrix get 0 get /Ts exch def /FontInfo get dup
  /UnderlinePosition get Ts mul /To exch def
  /UnderlineThickness get Ts mul /Tt exch def
  ux uy To add moveto  Tcx uy To add lineto
  Tt setlinewidth stroke
  grestore
} bd
/OLE {
  /Tcx currentpoint pop def
  gsave
  newpath
  cf findfont cs scalefont dup
  /FontMatrix get 0 get /Ts exch def /FontInfo get dup
  /UnderlinePosition get Ts mul /To exch def
  /UnderlineThickness get Ts mul /Tt exch def
  ux uy To add cs add moveto Tcx uy To add cs add lineto
  Tt setlinewidth stroke
  grestore
} bd
/SOE {
  /Tcx currentpoint pop def
  gsave
  newpath
  cf findfont cs scalefont dup
  /FontMatrix get 0 get /Ts exch def /FontInfo get dup
  /UnderlinePosition get Ts mul /To exch def
  /UnderlineThickness get Ts mul /Tt exch def
  ux uy To add cs 10 mul 26 idiv add moveto Tcx uy To add cs 10 mul 26 idiv add lineto
  Tt setlinewidth stroke
  grestore
} bd
/QT {
/Y22 exch store
/X22 exch store
/Y21 exch store
/X21 exch store
currentpoint
/Y21 load 2 mul add 3 div exch
/X21 load 2 mul add 3 div exch
/X21 load 2 mul /X22 load add 3 div
/Y21 load 2 mul /Y22 load add 3 div
/X22 load /Y22 load curveto
} bd
/SSPD {
dup length /d exch dict def
{
/v exch def
/k exch def
currentpagedevice k known {
/cpdv currentpagedevice k get def
v cpdv ne {
/upd false def
/nullv v type /nulltype eq def
/nullcpdv cpdv type /nulltype eq def
nullv nullcpdv or
{
/upd true def
} {
/sametype v type cpdv type eq def
sametype {
v type /arraytype eq {
/vlen v length def
/cpdvlen cpdv length def
vlen cpdvlen eq {
0 1 vlen 1 sub {
/i exch def
/obj v i get def
/cpdobj cpdv i get def
obj cpdobj ne {
/upd true def
exit
} if
} for
} {
/upd true def
} ifelse
} {
v type /dicttype eq {
v {
/dv exch def
/dk exch def
/cpddv cpdv dk get def
dv cpddv ne {
/upd true def
exit
} if
} forall
} {
/upd true def
} ifelse
} ifelse
} if
} ifelse
upd true eq {
d k v put
} if
} if
} if
} forall
d length 0 gt {
d setpagedevice
} if
} bd
/RE { % /NewFontName [NewEncodingArray] /FontName RE -
  findfont dup length dict begin
  {
    1 index /FID ne
    {def} {pop pop} ifelse
  } forall
  /Encoding exch def
  /FontName 1 index def
  currentdict definefont pop
  end
} bind def
%%EndResource
%%BeginResource: procset (Apache XML Graphics EPS ProcSet) 1.0 0
%%Version: 1.0 0
%%Copyright: (Copyright 2002-2003 The Apache Software Foundation. License terms: http://www.apache.org/licenses/LICENSE-2.0)
/BeginEPSF { %def
/b4_Inc_state save def         % Save state for cleanup
/dict_count countdictstack def % Count objects on dict stack
/op_count count 1 sub def      % Count objects on operand stack
userdict begin                 % Push userdict on dict stack
/showpage { } def              % Redefine showpage, { } = null proc
0 setgray 0 setlinecap         % Prepare graphics state
1 setlinewidth 0 setlinejoin
10 setmiterlimit [ ] 0 setdash newpath
/languagelevel where           % If level not equal to 1 then
{pop languagelevel             % set strokeadjust and
1 ne                           % overprint to their defaults.
{false setstrokeadjust false setoverprint
} if
} if
} bd
/EndEPSF { %def
count op_count sub {pop} repeat            % Clean up stacks
countdictstack dict_count sub {end} repeat
b4_Inc_state restore
} bd
%%EndResource
%FOPBeginFontDict
%%IncludeResource: font Courier-Bold
%%IncludeResource: font Helvetica
%%IncludeResource: font Courier-BoldOblique
%%IncludeResource: font Courier-Oblique
%%IncludeResource: font Times-Roman
%%IncludeResource: font Helvetica-BoldOblique
%%IncludeResource: font Helvetica-Bold
%%IncludeResource: font Helvetica-Oblique
%%IncludeResource: font Times-BoldItalic
%%IncludeResource: font Courier
%%IncludeResource: font Times-Italic
%%IncludeResource: font Times-Bold
%%IncludeResource: font Symbol
%%IncludeResource: font ZapfDingbats
%FOPEndFontDict
%%BeginResource: encoding WinAnsiEncoding
/WinAnsiEncoding [
/.notdef /.notdef /.notdef /.notdef /.notdef
/.notdef /.notdef /.notdef /.notdef /.notdef
/.notdef /.notdef /.notdef /.notdef /.notdef
/.notdef /.notdef /.notdef /.notdef /.notdef
/.notdef /.notdef /.notdef /.notdef /.notdef
/.notdef /.notdef /.notdef /.notdef /.notdef
/.notdef /.notdef /space /exclam /quotedbl
/numbersign /dollar /percent /ampersand /quotesingle
/parenleft /parenright /asterisk /plus /comma
/hyphen /period /slash /zero /one
/two /three /four /five /six
/seven /eight /nine /colon /semicolon
/less /equal /greater /question /at
/A /B /C /D /E
/F /G /H /I /J
/K /L /M /N /O
/P /Q /R /S /T
/U /V /W /X /Y
/Z /bracketleft /backslash /bracketright /asciicircum
/underscore /quoteleft /a /b /c
/d /e /f /g /h
/i /j /k /l /m
/n /o /p /q /r
/s /t /u /v /w
/x /y /z /braceleft /bar
/braceright /asciitilde /bullet /Euro /bullet
/quotesinglbase /florin /quotedblbase /ellipsis /dagger
/daggerdbl /circumflex /perthousand /Scaron /guilsinglleft
/OE /bullet /Zcaron /bullet /bullet
/quoteleft /quoteright /quotedblleft /quotedblright /bullet
/endash /emdash /asciitilde /trademark /scaron
/guilsinglright /oe /bullet /zcaron /Ydieresis
/space /exclamdown /cent /sterling /currency
/yen /brokenbar /section /dieresis /copyright
/ordfeminine /guillemotleft /logicalnot /sfthyphen /registered
/macron /degree /plusminus /twosuperior /threesuperior
/acute /mu /paragraph /middot /cedilla
/onesuperior /ordmasculine /guillemotright /onequarter /onehalf
/threequarters /questiondown /Agrave /Aacute /Acircumflex
/Atilde /Adieresis /Aring /AE /Ccedilla
/Egrave /Eacute /Ecircumflex /Edieresis /Igrave
/Iacute /Icircumflex /Idieresis /Eth /Ntilde
/Ograve /Oacute /Ocircumflex /Otilde /Odieresis
/multiply /Oslash /Ugrave /Uacute /Ucircumflex
/Udieresis /Yacute /Thorn /germandbls /agrave
/aacute /acircumflex /atilde /adieresis /aring
/ae /ccedilla /egrave /eacute /ecircumflex
/edieresis /igrave /iacute /icircumflex /idieresis
/eth /ntilde /ograve /oacute /ocircumflex
/otilde /odieresis /divide /oslash /ugrave
/uacute /ucircumflex /udieresis /yacute /thorn
/ydieresis
] def
%%EndResource
%FOPBeginFontReencode
/Courier-Bold findfont
dup length dict begin
  {1 index /FID ne {def} {pop pop} ifelse} forall
  /Encoding WinAnsiEncoding def
  currentdict
end
/Courier-Bold exch definefont pop
/Helvetica findfont
dup length dict begin
  {1 index /FID ne {def} {pop pop} ifelse} forall
  /Encoding WinAnsiEncoding def
  currentdict
end
/Helvetica exch definefont pop
/Courier-BoldOblique findfont
dup length dict begin
  {1 index /FID ne {def} {pop pop} ifelse} forall
  /Encoding WinAnsiEncoding def
  currentdict
end
/Courier-BoldOblique exch definefont pop
/Courier-Oblique findfont
dup length dict begin
  {1 index /FID ne {def} {pop pop} ifelse} forall
  /Encoding WinAnsiEncoding def
  currentdict
end
/Courier-Oblique exch definefont pop
/Times-Roman findfont
dup length dict begin
  {1 index /FID ne {def} {pop pop} ifelse} forall
  /Encoding WinAnsiEncoding def
  currentdict
end
/Times-Roman exch definefont pop
/Helvetica-BoldOblique findfont
dup length dict begin
  {1 index /FID ne {def} {pop pop} ifelse} forall
  /Encoding WinAnsiEncoding def
  currentdict
end
/Helvetica-BoldOblique exch definefont pop
/Helvetica-Bold findfont
dup length dict begin
  {1 index /FID ne {def} {pop pop} ifelse} forall
  /Encoding WinAnsiEncoding def
  currentdict
end
/Helvetica-Bold exch definefont pop
/Helvetica-Oblique findfont
dup length dict begin
  {1 index /FID ne {def} {pop pop} ifelse} forall
  /Encoding WinAnsiEncoding def
  currentdict
end
/Helvetica-Oblique exch definefont pop
/Times-BoldItalic findfont
dup length dict begin
  {1 index /FID ne {def} {pop pop} ifelse} forall
  /Encoding WinAnsiEncoding def
  currentdict
end
/Times-BoldItalic exch definefont pop
/Courier findfont
dup length dict begin
  {1 index /FID ne {def} {pop pop} ifelse} forall
  /Encoding WinAnsiEncoding def
  currentdict
end
/Courier exch definefont pop
/Times-Italic findfont
dup length dict begin
  {1 index /FID ne {def} {pop pop} ifelse} forall
  /Encoding WinAnsiEncoding def
  currentdict
end
/Times-Italic exch definefont pop
/Times-Bold findfont
dup length dict begin
  {1 index /FID ne {def} {pop pop} ifelse} forall
  /Encoding WinAnsiEncoding def
  currentdict
end
/Times-Bold exch definefont pop
%FOPEndFontReencode
%%EndProlog
%%Page: 1 1
%%PageBoundingBox: 0 0 340 158
%%BeginPageSetup
[1 0 0 -1 0 158] CT
%%EndPageSetup
GS
[0.75 0 0 0.75 0 -0.25] CT
1 GC
N
0 0 453 211 re
f
GR
GS
[0.75 0 0 0.75 0 -0.25] CT
1 GC
N
0 0 453 211 re
f
GR
GS
[0.75 0 0 0.75 0 -0.25] CT
1 GC
N
59 154.65 M
410 154.65 L
410 49.35 L
59 49.35 L
cp
f
GR
GS
[0.75 0 0 0.75 0 -0.25] CT
0.149 GC
2 setlinecap
1 LJ
0.667 LW
N
59 154.65 M
410 154.65 L
S
GR
GS
[0.75 0 0 0.75 0 -0.25] CT
0.149 GC
2 setlinecap
1 LJ
0.667 LW
N
59 49.35 M
410 49.35 L
S
GR
GS
[0.75 0 0 0.75 0 -0.25] CT
0.149 GC
2 setlinecap
1 LJ
0.667 LW
N
59 154.65 M
59 151.14 L
S
GR
GS
[0.75 0 0 0.75 0 -0.25] CT
0.149 GC
2 setlinecap
1 LJ
0.667 LW
N
129.2 154.65 M
129.2 151.14 L
S
GR
GS
[0.75 0 0 0.75 0 -0.25] CT
0.149 GC
2 setlinecap
1 LJ
0.667 LW
N
199.4 154.65 M
199.4 151.14 L
S
GR
GS
[0.75 0 0 0.75 0 -0.25] CT
0.149 GC
2 setlinecap
1 LJ
0.667 LW
N
269.6 154.65 M
269.6 151.14 L
S
GR
GS
[0.75 0 0 0.75 0 -0.25] CT
0.149 GC
2 setlinecap
1 LJ
0.667 LW
N
339.8 154.65 M
339.8 151.14 L
S
GR
GS
[0.75 0 0 0.75 0 -0.25] CT
0.149 GC
2 setlinecap
1 LJ
0.667 LW
N
410 154.65 M
410 151.14 L
S
GR
GS
[0.75 0 0 0.75 0 -0.25] CT
0.149 GC
2 setlinecap
1 LJ
0.667 LW
N
59 49.35 M
59 52.86 L
S
GR
GS
[0.75 0 0 0.75 0 -0.25] CT
0.149 GC
2 setlinecap
1 LJ
0.667 LW
N
129.2 49.35 M
129.2 52.86 L
S
GR
GS
[0.75 0 0 0.75 0 -0.25] CT
0.149 GC
2 setlinecap
1 LJ
0.667 LW
N
199.4 49.35 M
199.4 52.86 L
S
GR
GS
[0.75 0 0 0.75 0 -0.25] CT
0.149 GC
2 setlinecap
1 LJ
0.667 LW
N
269.6 49.35 M
269.6 52.86 L
S
GR
GS
[0.75 0 0 0.75 0 -0.25] CT
0.149 GC
2 setlinecap
1 LJ
0.667 LW
N
339.8 49.35 M
339.8 52.86 L
S
GR
GS
[0.75 0 0 0.75 0 -0.25] CT
0.149 GC
2 setlinecap
1 LJ
0.667 LW
N
410 49.35 M
410 52.86 L
S
GR
GS
[0.75 0 0 0.75 44.25 119.7375] CT
0.149 GC
/Helvetica 13.333 F
GS
[1 0 0 1 0 0] CT
-4 14 moveto 
1 -1 scale
(0) t 
GR
GR
GS
[0.75 0 0 0.75 96.9 119.7375] CT
0.149 GC
/Helvetica 13.333 F
GS
[1 0 0 1 0 0] CT
-9.5 14 moveto 
1 -1 scale
(0.2) t 
GR
GR
GS
[0.75 0 0 0.75 149.55001 119.7375] CT
0.149 GC
/Helvetica 13.333 F
GS
[1 0 0 1 0 0] CT
-9.5 14 moveto 
1 -1 scale
(0.4) t 
GR
GR
GS
[0.75 0 0 0.75 202.2 119.7375] CT
0.149 GC
/Helvetica 13.333 F
GS
[1 0 0 1 0 0] CT
-9.5 14 moveto 
1 -1 scale
(0.6) t 
GR
GR
GS
[0.75 0 0 0.75 254.85001 119.7375] CT
0.149 GC
/Helvetica 13.333 F
GS
[1 0 0 1 0 0] CT
-9.5 14 moveto 
1 -1 scale
(0.8) t 
GR
GR
GS
[0.75 0 0 0.75 307.5 119.7375] CT
0.149 GC
/Helvetica 13.333 F
GS
[1 0 0 1 0 0] CT
-4 14 moveto 
1 -1 scale
(1) t 
GR
GR
GS
[0.75 0 0 0.75 0 -0.25] CT
0.149 GC
2 setlinecap
1 LJ
0.667 LW
N
59 154.65 M
59 49.35 L
S
GR
GS
[0.75 0 0 0.75 0 -0.25] CT
0.149 GC
2 setlinecap
1 LJ
0.667 LW
N
410 154.65 M
410 49.35 L
S
GR
GS
[0.75 0 0 0.75 0 -0.25] CT
0.149 GC
2 setlinecap
1 LJ
0.667 LW
N
59 137.1 M
62.51 137.1 L
S
GR
GS
[0.75 0 0 0.75 0 -0.25] CT
0.149 GC
2 setlinecap
1 LJ
0.667 LW
N
59 102 M
62.51 102 L
S
GR
GS
[0.75 0 0 0.75 0 -0.25] CT
0.149 GC
2 setlinecap
1 LJ
0.667 LW
N
59 66.9 M
62.51 66.9 L
S
GR
GS
[0.75 0 0 0.75 0 -0.25] CT
0.149 GC
2 setlinecap
1 LJ
0.667 LW
N
410 137.1 M
406.49 137.1 L
S
GR
GS
[0.75 0 0 0.75 0 -0.25] CT
0.149 GC
2 setlinecap
1 LJ
0.667 LW
N
410 102 M
406.49 102 L
S
GR
GS
[0.75 0 0 0.75 0 -0.25] CT
0.149 GC
2 setlinecap
1 LJ
0.667 LW
N
410 66.9 M
406.49 66.9 L
S
GR
GS
[0.75 0 0 0.75 40.25 102.575] CT
0.149 GC
/Helvetica 13.333 F
GS
[1 0 0 1 0 0] CT
-8 5.5 moveto 
1 -1 scale
(0) t 
GR
GR
GS
[0.75 0 0 0.75 40.25 76.25] CT
0.149 GC
/Helvetica 13.333 F
GS
[1 0 0 1 0 0] CT
-19 5.5 moveto 
1 -1 scale
(0.1) t 
GR
GR
GS
[0.75 0 0 0.75 40.25 49.925] CT
0.149 GC
/Helvetica 13.333 F
GS
[1 0 0 1 0 0] CT
-19 5.5 moveto 
1 -1 scale
(0.2) t 
GR
GR
GS
[0.75 0 0 0.75 175.87517 34.7] CT
/Helvetica-Bold 14.667 F
GS
[1 0 0 1 0 0] CT
-47 -4 moveto 
1 -1 scale
(Perfis da raiz) t 
GR
GR
GS
[0.75 0 0 0.75 0 -0.25] CT
0 0.447 0.741 RC
1 LJ
2 LW
N
410 137.101 M
408.291 136.096 L
405.5 134.553 L
402.425 132.977 L
399.063 131.375 L
395.433 129.757 L
391.551 128.14 L
387.413 126.532 L
383.043 124.925 L
378.484 123.338 L
373.749 121.776 L
368.856 120.239 L
363.822 118.725 L
358.673 117.238 L
353.426 115.782 L
348.084 114.354 L
342.647 112.946 L
337.136 111.563 L
331.576 110.203 L
325.963 108.868 L
320.298 107.554 L
314.577 106.258 L
308.821 104.973 L
303.043 103.709 L
297.238 102.464 L
291.408 101.235 L
285.56 100.021 L
279.695 98.822 L
273.815 97.634 L
267.933 96.466 L
262.039 95.313 L
256.136 94.175 L
250.253 93.056 L
244.402 91.97 L
238.543 90.903 L
232.717 89.862 L
226.936 88.858 L
221.229 87.891 L
215.609 86.978 L
210.105 86.116 L
204.812 85.34 L
199.67 84.685 L
194.542 84.103 L
189.554 83.616 L
184.637 83.236 L
179.747 82.96 L
174.946 82.778 L
170.249 82.701 L
165.627 82.737 L
161.053 82.88 L
156.546 83.137 L
152.11 83.522 L
147.722 84.027 L
143.359 84.653 L
138.989 85.399 L
134.616 86.28 L
130.274 87.259 L
125.974 88.336 L
121.734 89.507 L
117.557 90.81 L
113.451 92.203 L
109.428 93.68 L
105.497 95.266 L
101.664 96.951 L
97.936 98.71 L
94.332 100.541 L
90.864 102.457 L
87.547 104.432 L
84.398 106.45 L
81.425 108.486 L
78.677 110.511 L
76.146 112.516 L
73.851 114.468 L
71.787 116.345 L
69.958 118.13 L
68.351 119.819 L
66.943 121.407 L
65.704 122.887 L
64.623 124.26 L
63.689 125.543 L
62.886 126.75 L
62.184 127.867 L
61.569 128.941 L
61.036 129.942 L
60.579 130.889 L
60.197 131.787 L
59.874 132.647 L
59.6 133.465 L
59.376 134.249 L
59.2 135.021 L
59.088 135.741 L
59.025 136.432 L
59 137.101 L
59.032 137.766 L
59.126 138.448 L
59.295 139.125 L
59.544 139.79 L
59.885 140.432 L
60.323 141.041 L
60.857 141.596 L
61.482 142.087 L
62.177 142.527 L
62.945 142.905 L
63.781 143.23 L
64.69 143.494 L
65.669 143.723 L
66.729 143.918 L
67.877 144.067 L
69.13 144.175 L
70.502 144.234 L
72.019 144.242 L
73.707 144.216 L
75.595 144.125 L
77.74 143.963 L
80.197 143.721 L
83.029 143.379 L
86.304 142.924 L
90.092 142.34 L
94.416 141.604 L
99.277 140.75 L
104.567 139.781 L
110.127 138.736 L
115.834 137.671 L
121.58 136.577 L
127.329 135.521 L
133.064 134.471 L
138.796 133.435 L
144.518 132.443 L
150.239 131.471 L
155.999 130.479 L
161.804 129.445 L
167.599 128.381 L
173.342 127.311 L
179.007 126.287 L
184.668 125.294 L
190.2 124.356 L
195.728 123.481 L
201.225 122.655 L
206.68 121.91 L
212.31 121.21 L
218.041 120.52 L
223.766 119.862 L
229.516 119.239 L
235.216 118.657 L
240.909 118.125 L
246.574 117.639 L
252.201 117.204 L
257.803 116.821 L
263.373 116.5 L
268.937 116.238 L
274.482 116.027 L
280 115.879 L
285.493 115.79 L
290.962 115.759 L
296.406 115.792 L
301.825 115.891 L
307.22 116.057 L
312.597 116.289 L
317.943 116.588 L
323.254 116.953 L
328.529 117.392 L
333.77 117.899 L
338.975 118.48 L
344.138 119.131 L
349.245 119.846 L
354.282 120.635 L
359.256 121.5 L
364.159 122.435 L
368.975 123.439 L
373.689 124.512 L
378.28 125.647 L
382.745 126.845 L
387.052 128.097 L
391.165 129.391 L
395.065 130.726 L
398.74 132.093 L
402.176 133.473 L
405.339 134.847 L
408.224 136.207 L
410 137.101 L
S
GR
GS
[0.75 0 0 0.75 0 -0.25] CT
[10 6] 0 setdash
2 LJ
1.333 LW
N
410 137.1 M
408.291 135.956 L
405.5 134.201 L
402.425 132.407 L
399.063 130.585 L
395.434 128.746 L
391.551 126.91 L
387.413 125.085 L
383.043 123.264 L
378.484 121.466 L
373.749 119.701 L
368.856 117.967 L
363.822 116.265 L
358.673 114.597 L
353.426 112.969 L
348.084 111.375 L
342.647 109.81 L
337.136 108.276 L
331.576 106.774 L
325.964 105.303 L
320.298 103.86 L
314.577 102.442 L
308.821 101.042 L
303.043 99.669 L
297.238 98.322 L
291.408 96.998 L
285.56 95.696 L
279.695 94.418 L
273.816 93.158 L
267.933 91.923 L
262.039 90.708 L
256.136 89.515 L
250.253 88.346 L
244.402 87.216 L
238.544 86.11 L
232.717 85.036 L
226.936 84.004 L
221.229 83.014 L
215.609 82.084 L
210.105 81.21 L
204.812 80.428 L
199.67 79.778 L
194.542 79.213 L
189.554 78.753 L
184.637 78.413 L
179.748 78.178 L
174.946 78.041 L
170.249 78.02 L
165.627 78.125 L
161.053 78.35 L
156.546 78.69 L
152.11 79.15 L
147.722 79.747 L
143.359 80.48 L
138.989 81.351 L
134.616 82.34 L
130.274 83.446 L
125.974 84.668 L
121.734 85.998 L
117.557 87.441 L
113.451 88.992 L
109.428 90.645 L
105.497 92.4 L
101.664 94.253 L
97.936 96.198 L
94.332 98.223 L
90.864 100.319 L
87.547 102.474 L
84.398 104.675 L
81.425 106.889 L
78.677 109.087 L
76.146 111.256 L
73.851 113.362 L
71.787 115.377 L
69.958 117.29 L
68.351 119.094 L
66.943 120.786 L
65.704 122.358 L
64.623 123.811 L
63.689 125.166 L
62.886 126.437 L
62.184 127.623 L
61.569 128.732 L
61.036 129.775 L
60.579 130.757 L
60.197 131.688 L
59.874 132.576 L
59.6 133.415 L
59.376 134.215 L
59.2 134.98 L
59.088 135.717 L
59.025 136.423 L
59 137.1 L
59.032 137.76 L
59.126 138.423 L
59.295 139.08 L
59.544 139.722 L
59.885 140.333 L
60.323 140.898 L
60.857 141.403 L
61.482 141.839 L
62.177 142.214 L
62.945 142.53 L
63.781 142.783 L
64.69 142.972 L
65.669 143.123 L
66.729 143.232 L
67.877 143.288 L
69.13 143.299 L
70.502 143.257 L
72.019 143.158 L
73.707 143.014 L
75.595 142.786 L
77.74 142.477 L
80.197 142.074 L
83.029 141.554 L
86.304 140.901 L
90.092 140.101 L
94.416 139.139 L
99.277 138.023 L
104.567 136.802 L
110.127 135.513 L
115.834 134.208 L
121.58 132.909 L
127.329 131.645 L
133.065 130.413 L
138.796 129.224 L
144.518 128.079 L
150.239 126.977 L
155.999 125.879 L
161.804 124.745 L
167.599 123.59 L
173.342 122.446 L
179.007 121.365 L
184.669 120.326 L
190.2 119.353 L
195.729 118.458 L
201.225 117.623 L
206.68 116.882 L
212.31 116.198 L
218.042 115.528 L
223.766 114.896 L
229.516 114.303 L
235.216 113.755 L
240.909 113.264 L
246.574 112.821 L
252.201 112.435 L
257.803 112.105 L
263.373 111.842 L
268.937 111.642 L
274.482 111.498 L
280 111.421 L
285.493 111.41 L
290.962 111.466 L
296.406 111.593 L
301.825 111.789 L
307.22 112.06 L
312.598 112.4 L
317.943 112.814 L
323.254 113.299 L
328.529 113.864 L
333.77 114.503 L
338.975 115.222 L
344.138 116.019 L
349.245 116.886 L
354.282 117.834 L
359.256 118.866 L
364.159 119.975 L
368.975 121.161 L
373.689 122.425 L
378.28 123.758 L
382.745 125.162 L
387.052 126.626 L
391.165 128.135 L
395.065 129.69 L
398.74 131.28 L
402.176 132.884 L
405.339 134.482 L
408.224 136.061 L
410 137.1 L
S
GR
GS
[0.75 0 0 0.75 0 -0.25] CT
1 GC
N
300 92 M
300 55 L
406 55 L
406 92 L
cp
f
GR
GS
[0.75 0 0 0.75 260.25 48.60274] CT
/Helvetica 12 F
GS
[1 0 0 1 0 0] CT
0 5 moveto 
1 -1 scale
(Otimizado) t 
GR
GR
GS
[0.75 0 0 0.75 0 -0.25] CT
0 0.447 0.741 RC
1 LJ
2 LW
N
304 65.137 M
344 65.137 L
S
GR
GS
[0.75 0 0 0.75 260.25 61.14726] CT
/Helvetica 12 F
GS
[1 0 0 1 0 0] CT
0 5 moveto 
1 -1 scale
(Pr\351vio) t 
GR
GR
GS
[0.75 0 0 0.75 0 -0.25] CT
[10 6] 0 setdash
2 LJ
1.333 LW
N
304 81.863 M
344 81.863 L
S
GR
GS
[0.75 0 0 0.75 0 -0.25] CT
0.149 GC
10.0 ML
0.667 LW
N
300 92 M
300 55 L
406 55 L
406 92 L
cp
S
GR
%%Trailer
%%Pages: 1
%%EOF
