%!PS-Adobe-3.0 EPSF-3.0
%%Creator: (MATLAB, The Mathworks, Inc. Version 9.2.0.538062 \(R2017a\). Operating System: Windows 8)
%%Title: C:/Documents/Tucano/ARD_CODES/07-Banco_de_dados/Fotos/Compara_ponta.eps
%%CreationDate: 2022-08-06T09:51:15
%%Pages: (atend)
%%BoundingBox: 0 0 340 158
%%LanguageLevel: 3
%%EndComments
%%BeginProlog
%%BeginResource: procset (Apache XML Graphics Std ProcSet) 1.2 0
%%Version: 1.2 0
%%Copyright: (Copyright 2001-2003,2010 The Apache Software Foundation. License terms: http://www.apache.org/licenses/LICENSE-2.0)
/bd{bind def}bind def
/ld{load def}bd
/GR/grestore ld
/M/moveto ld
/LJ/setlinejoin ld
/C/curveto ld
/f/fill ld
/LW/setlinewidth ld
/GC/setgray ld
/t/show ld
/N/newpath ld
/CT/concat ld
/cp/closepath ld
/S/stroke ld
/L/lineto ld
/CC/setcmykcolor ld
/A/ashow ld
/GS/gsave ld
/RC/setrgbcolor ld
/RM/rmoveto ld
/ML/setmiterlimit ld
/re {4 2 roll M
1 index 0 rlineto
0 exch rlineto
neg 0 rlineto
cp } bd
/_ctm matrix def
/_tm matrix def
/BT { _ctm currentmatrix pop matrix _tm copy pop 0 0 moveto } bd
/ET { _ctm setmatrix } bd
/iTm { _ctm setmatrix _tm concat } bd
/Tm { _tm astore pop iTm 0 0 moveto } bd
/ux 0.0 def
/uy 0.0 def
/F {
  /Tp exch def
  /Tf exch def
  Tf findfont Tp scalefont setfont
  /cf Tf def  /cs Tp def
} bd
/ULS {currentpoint /uy exch def /ux exch def} bd
/ULE {
  /Tcx currentpoint pop def
  gsave
  newpath
  cf findfont cs scalefont dup
  /FontMatrix get 0 get /Ts exch def /FontInfo get dup
  /UnderlinePosition get Ts mul /To exch def
  /UnderlineThickness get Ts mul /Tt exch def
  ux uy To add moveto  Tcx uy To add lineto
  Tt setlinewidth stroke
  grestore
} bd
/OLE {
  /Tcx currentpoint pop def
  gsave
  newpath
  cf findfont cs scalefont dup
  /FontMatrix get 0 get /Ts exch def /FontInfo get dup
  /UnderlinePosition get Ts mul /To exch def
  /UnderlineThickness get Ts mul /Tt exch def
  ux uy To add cs add moveto Tcx uy To add cs add lineto
  Tt setlinewidth stroke
  grestore
} bd
/SOE {
  /Tcx currentpoint pop def
  gsave
  newpath
  cf findfont cs scalefont dup
  /FontMatrix get 0 get /Ts exch def /FontInfo get dup
  /UnderlinePosition get Ts mul /To exch def
  /UnderlineThickness get Ts mul /Tt exch def
  ux uy To add cs 10 mul 26 idiv add moveto Tcx uy To add cs 10 mul 26 idiv add lineto
  Tt setlinewidth stroke
  grestore
} bd
/QT {
/Y22 exch store
/X22 exch store
/Y21 exch store
/X21 exch store
currentpoint
/Y21 load 2 mul add 3 div exch
/X21 load 2 mul add 3 div exch
/X21 load 2 mul /X22 load add 3 div
/Y21 load 2 mul /Y22 load add 3 div
/X22 load /Y22 load curveto
} bd
/SSPD {
dup length /d exch dict def
{
/v exch def
/k exch def
currentpagedevice k known {
/cpdv currentpagedevice k get def
v cpdv ne {
/upd false def
/nullv v type /nulltype eq def
/nullcpdv cpdv type /nulltype eq def
nullv nullcpdv or
{
/upd true def
} {
/sametype v type cpdv type eq def
sametype {
v type /arraytype eq {
/vlen v length def
/cpdvlen cpdv length def
vlen cpdvlen eq {
0 1 vlen 1 sub {
/i exch def
/obj v i get def
/cpdobj cpdv i get def
obj cpdobj ne {
/upd true def
exit
} if
} for
} {
/upd true def
} ifelse
} {
v type /dicttype eq {
v {
/dv exch def
/dk exch def
/cpddv cpdv dk get def
dv cpddv ne {
/upd true def
exit
} if
} forall
} {
/upd true def
} ifelse
} ifelse
} if
} ifelse
upd true eq {
d k v put
} if
} if
} if
} forall
d length 0 gt {
d setpagedevice
} if
} bd
/RE { % /NewFontName [NewEncodingArray] /FontName RE -
  findfont dup length dict begin
  {
    1 index /FID ne
    {def} {pop pop} ifelse
  } forall
  /Encoding exch def
  /FontName 1 index def
  currentdict definefont pop
  end
} bind def
%%EndResource
%%BeginResource: procset (Apache XML Graphics EPS ProcSet) 1.0 0
%%Version: 1.0 0
%%Copyright: (Copyright 2002-2003 The Apache Software Foundation. License terms: http://www.apache.org/licenses/LICENSE-2.0)
/BeginEPSF { %def
/b4_Inc_state save def         % Save state for cleanup
/dict_count countdictstack def % Count objects on dict stack
/op_count count 1 sub def      % Count objects on operand stack
userdict begin                 % Push userdict on dict stack
/showpage { } def              % Redefine showpage, { } = null proc
0 setgray 0 setlinecap         % Prepare graphics state
1 setlinewidth 0 setlinejoin
10 setmiterlimit [ ] 0 setdash newpath
/languagelevel where           % If level not equal to 1 then
{pop languagelevel             % set strokeadjust and
1 ne                           % overprint to their defaults.
{false setstrokeadjust false setoverprint
} if
} if
} bd
/EndEPSF { %def
count op_count sub {pop} repeat            % Clean up stacks
countdictstack dict_count sub {end} repeat
b4_Inc_state restore
} bd
%%EndResource
%FOPBeginFontDict
%%IncludeResource: font Courier-Bold
%%IncludeResource: font Helvetica
%%IncludeResource: font Courier-BoldOblique
%%IncludeResource: font Courier-Oblique
%%IncludeResource: font Times-Roman
%%IncludeResource: font Helvetica-BoldOblique
%%IncludeResource: font Helvetica-Bold
%%IncludeResource: font Helvetica-Oblique
%%IncludeResource: font Times-BoldItalic
%%IncludeResource: font Courier
%%IncludeResource: font Times-Italic
%%IncludeResource: font Times-Bold
%%IncludeResource: font Symbol
%%IncludeResource: font ZapfDingbats
%FOPEndFontDict
%%BeginResource: encoding WinAnsiEncoding
/WinAnsiEncoding [
/.notdef /.notdef /.notdef /.notdef /.notdef
/.notdef /.notdef /.notdef /.notdef /.notdef
/.notdef /.notdef /.notdef /.notdef /.notdef
/.notdef /.notdef /.notdef /.notdef /.notdef
/.notdef /.notdef /.notdef /.notdef /.notdef
/.notdef /.notdef /.notdef /.notdef /.notdef
/.notdef /.notdef /space /exclam /quotedbl
/numbersign /dollar /percent /ampersand /quotesingle
/parenleft /parenright /asterisk /plus /comma
/hyphen /period /slash /zero /one
/two /three /four /five /six
/seven /eight /nine /colon /semicolon
/less /equal /greater /question /at
/A /B /C /D /E
/F /G /H /I /J
/K /L /M /N /O
/P /Q /R /S /T
/U /V /W /X /Y
/Z /bracketleft /backslash /bracketright /asciicircum
/underscore /quoteleft /a /b /c
/d /e /f /g /h
/i /j /k /l /m
/n /o /p /q /r
/s /t /u /v /w
/x /y /z /braceleft /bar
/braceright /asciitilde /bullet /Euro /bullet
/quotesinglbase /florin /quotedblbase /ellipsis /dagger
/daggerdbl /circumflex /perthousand /Scaron /guilsinglleft
/OE /bullet /Zcaron /bullet /bullet
/quoteleft /quoteright /quotedblleft /quotedblright /bullet
/endash /emdash /asciitilde /trademark /scaron
/guilsinglright /oe /bullet /zcaron /Ydieresis
/space /exclamdown /cent /sterling /currency
/yen /brokenbar /section /dieresis /copyright
/ordfeminine /guillemotleft /logicalnot /sfthyphen /registered
/macron /degree /plusminus /twosuperior /threesuperior
/acute /mu /paragraph /middot /cedilla
/onesuperior /ordmasculine /guillemotright /onequarter /onehalf
/threequarters /questiondown /Agrave /Aacute /Acircumflex
/Atilde /Adieresis /Aring /AE /Ccedilla
/Egrave /Eacute /Ecircumflex /Edieresis /Igrave
/Iacute /Icircumflex /Idieresis /Eth /Ntilde
/Ograve /Oacute /Ocircumflex /Otilde /Odieresis
/multiply /Oslash /Ugrave /Uacute /Ucircumflex
/Udieresis /Yacute /Thorn /germandbls /agrave
/aacute /acircumflex /atilde /adieresis /aring
/ae /ccedilla /egrave /eacute /ecircumflex
/edieresis /igrave /iacute /icircumflex /idieresis
/eth /ntilde /ograve /oacute /ocircumflex
/otilde /odieresis /divide /oslash /ugrave
/uacute /ucircumflex /udieresis /yacute /thorn
/ydieresis
] def
%%EndResource
%FOPBeginFontReencode
/Courier-Bold findfont
dup length dict begin
  {1 index /FID ne {def} {pop pop} ifelse} forall
  /Encoding WinAnsiEncoding def
  currentdict
end
/Courier-Bold exch definefont pop
/Helvetica findfont
dup length dict begin
  {1 index /FID ne {def} {pop pop} ifelse} forall
  /Encoding WinAnsiEncoding def
  currentdict
end
/Helvetica exch definefont pop
/Courier-BoldOblique findfont
dup length dict begin
  {1 index /FID ne {def} {pop pop} ifelse} forall
  /Encoding WinAnsiEncoding def
  currentdict
end
/Courier-BoldOblique exch definefont pop
/Courier-Oblique findfont
dup length dict begin
  {1 index /FID ne {def} {pop pop} ifelse} forall
  /Encoding WinAnsiEncoding def
  currentdict
end
/Courier-Oblique exch definefont pop
/Times-Roman findfont
dup length dict begin
  {1 index /FID ne {def} {pop pop} ifelse} forall
  /Encoding WinAnsiEncoding def
  currentdict
end
/Times-Roman exch definefont pop
/Helvetica-BoldOblique findfont
dup length dict begin
  {1 index /FID ne {def} {pop pop} ifelse} forall
  /Encoding WinAnsiEncoding def
  currentdict
end
/Helvetica-BoldOblique exch definefont pop
/Helvetica-Bold findfont
dup length dict begin
  {1 index /FID ne {def} {pop pop} ifelse} forall
  /Encoding WinAnsiEncoding def
  currentdict
end
/Helvetica-Bold exch definefont pop
/Helvetica-Oblique findfont
dup length dict begin
  {1 index /FID ne {def} {pop pop} ifelse} forall
  /Encoding WinAnsiEncoding def
  currentdict
end
/Helvetica-Oblique exch definefont pop
/Times-BoldItalic findfont
dup length dict begin
  {1 index /FID ne {def} {pop pop} ifelse} forall
  /Encoding WinAnsiEncoding def
  currentdict
end
/Times-BoldItalic exch definefont pop
/Courier findfont
dup length dict begin
  {1 index /FID ne {def} {pop pop} ifelse} forall
  /Encoding WinAnsiEncoding def
  currentdict
end
/Courier exch definefont pop
/Times-Italic findfont
dup length dict begin
  {1 index /FID ne {def} {pop pop} ifelse} forall
  /Encoding WinAnsiEncoding def
  currentdict
end
/Times-Italic exch definefont pop
/Times-Bold findfont
dup length dict begin
  {1 index /FID ne {def} {pop pop} ifelse} forall
  /Encoding WinAnsiEncoding def
  currentdict
end
/Times-Bold exch definefont pop
%FOPEndFontReencode
%%EndProlog
%%Page: 1 1
%%PageBoundingBox: 0 0 340 158
%%BeginPageSetup
[1 0 0 -1 0 158] CT
%%EndPageSetup
GS
[0.75 0 0 0.75 0 -0.25] CT
1 GC
N
0 0 453 211 re
f
GR
GS
[0.75 0 0 0.75 0 -0.25] CT
1 GC
N
0 0 453 211 re
f
GR
GS
[0.75 0 0 0.75 0 -0.25] CT
1 GC
N
59 154.65 M
410 154.65 L
410 49.35 L
59 49.35 L
cp
f
GR
GS
[0.75 0 0 0.75 0 -0.25] CT
0.149 GC
2 setlinecap
1 LJ
0.667 LW
N
59 154.65 M
410 154.65 L
S
GR
GS
[0.75 0 0 0.75 0 -0.25] CT
0.149 GC
2 setlinecap
1 LJ
0.667 LW
N
59 49.35 M
410 49.35 L
S
GR
GS
[0.75 0 0 0.75 0 -0.25] CT
0.149 GC
2 setlinecap
1 LJ
0.667 LW
N
59 154.65 M
59 151.14 L
S
GR
GS
[0.75 0 0 0.75 0 -0.25] CT
0.149 GC
2 setlinecap
1 LJ
0.667 LW
N
129.2 154.65 M
129.2 151.14 L
S
GR
GS
[0.75 0 0 0.75 0 -0.25] CT
0.149 GC
2 setlinecap
1 LJ
0.667 LW
N
199.4 154.65 M
199.4 151.14 L
S
GR
GS
[0.75 0 0 0.75 0 -0.25] CT
0.149 GC
2 setlinecap
1 LJ
0.667 LW
N
269.6 154.65 M
269.6 151.14 L
S
GR
GS
[0.75 0 0 0.75 0 -0.25] CT
0.149 GC
2 setlinecap
1 LJ
0.667 LW
N
339.8 154.65 M
339.8 151.14 L
S
GR
GS
[0.75 0 0 0.75 0 -0.25] CT
0.149 GC
2 setlinecap
1 LJ
0.667 LW
N
410 154.65 M
410 151.14 L
S
GR
GS
[0.75 0 0 0.75 0 -0.25] CT
0.149 GC
2 setlinecap
1 LJ
0.667 LW
N
59 49.35 M
59 52.86 L
S
GR
GS
[0.75 0 0 0.75 0 -0.25] CT
0.149 GC
2 setlinecap
1 LJ
0.667 LW
N
129.2 49.35 M
129.2 52.86 L
S
GR
GS
[0.75 0 0 0.75 0 -0.25] CT
0.149 GC
2 setlinecap
1 LJ
0.667 LW
N
199.4 49.35 M
199.4 52.86 L
S
GR
GS
[0.75 0 0 0.75 0 -0.25] CT
0.149 GC
2 setlinecap
1 LJ
0.667 LW
N
269.6 49.35 M
269.6 52.86 L
S
GR
GS
[0.75 0 0 0.75 0 -0.25] CT
0.149 GC
2 setlinecap
1 LJ
0.667 LW
N
339.8 49.35 M
339.8 52.86 L
S
GR
GS
[0.75 0 0 0.75 0 -0.25] CT
0.149 GC
2 setlinecap
1 LJ
0.667 LW
N
410 49.35 M
410 52.86 L
S
GR
GS
[0.75 0 0 0.75 44.25 119.7375] CT
0.149 GC
/Helvetica 13.333 F
GS
[1 0 0 1 0 0] CT
-4 14 moveto 
1 -1 scale
(0) t 
GR
GR
GS
[0.75 0 0 0.75 96.9 119.7375] CT
0.149 GC
/Helvetica 13.333 F
GS
[1 0 0 1 0 0] CT
-9.5 14 moveto 
1 -1 scale
(0.2) t 
GR
GR
GS
[0.75 0 0 0.75 149.55001 119.7375] CT
0.149 GC
/Helvetica 13.333 F
GS
[1 0 0 1 0 0] CT
-9.5 14 moveto 
1 -1 scale
(0.4) t 
GR
GR
GS
[0.75 0 0 0.75 202.2 119.7375] CT
0.149 GC
/Helvetica 13.333 F
GS
[1 0 0 1 0 0] CT
-9.5 14 moveto 
1 -1 scale
(0.6) t 
GR
GR
GS
[0.75 0 0 0.75 254.85001 119.7375] CT
0.149 GC
/Helvetica 13.333 F
GS
[1 0 0 1 0 0] CT
-9.5 14 moveto 
1 -1 scale
(0.8) t 
GR
GR
GS
[0.75 0 0 0.75 307.5 119.7375] CT
0.149 GC
/Helvetica 13.333 F
GS
[1 0 0 1 0 0] CT
-4 14 moveto 
1 -1 scale
(1) t 
GR
GR
GS
[0.75 0 0 0.75 0 -0.25] CT
0.149 GC
2 setlinecap
1 LJ
0.667 LW
N
59 154.65 M
59 49.35 L
S
GR
GS
[0.75 0 0 0.75 0 -0.25] CT
0.149 GC
2 setlinecap
1 LJ
0.667 LW
N
410 154.65 M
410 49.35 L
S
GR
GS
[0.75 0 0 0.75 0 -0.25] CT
0.149 GC
2 setlinecap
1 LJ
0.667 LW
N
59 137.1 M
62.51 137.1 L
S
GR
GS
[0.75 0 0 0.75 0 -0.25] CT
0.149 GC
2 setlinecap
1 LJ
0.667 LW
N
59 102 M
62.51 102 L
S
GR
GS
[0.75 0 0 0.75 0 -0.25] CT
0.149 GC
2 setlinecap
1 LJ
0.667 LW
N
59 66.9 M
62.51 66.9 L
S
GR
GS
[0.75 0 0 0.75 0 -0.25] CT
0.149 GC
2 setlinecap
1 LJ
0.667 LW
N
410 137.1 M
406.49 137.1 L
S
GR
GS
[0.75 0 0 0.75 0 -0.25] CT
0.149 GC
2 setlinecap
1 LJ
0.667 LW
N
410 102 M
406.49 102 L
S
GR
GS
[0.75 0 0 0.75 0 -0.25] CT
0.149 GC
2 setlinecap
1 LJ
0.667 LW
N
410 66.9 M
406.49 66.9 L
S
GR
GS
[0.75 0 0 0.75 40.25 102.575] CT
0.149 GC
/Helvetica 13.333 F
GS
[1 0 0 1 0 0] CT
-8 5.5 moveto 
1 -1 scale
(0) t 
GR
GR
GS
[0.75 0 0 0.75 40.25 76.25] CT
0.149 GC
/Helvetica 13.333 F
GS
[1 0 0 1 0 0] CT
-19 5.5 moveto 
1 -1 scale
(0.1) t 
GR
GR
GS
[0.75 0 0 0.75 40.25 49.925] CT
0.149 GC
/Helvetica 13.333 F
GS
[1 0 0 1 0 0] CT
-19 5.5 moveto 
1 -1 scale
(0.2) t 
GR
GR
GS
[0.75 0 0 0.75 175.87517 34.7] CT
/Helvetica-Bold 14.667 F
GS
[1 0 0 1 0 0] CT
-54.5 -4 moveto 
1 -1 scale
(Perfis da ponta) t 
GR
GR
GS
[0.75 0 0 0.75 0 -0.25] CT
0 0 1 RC
1 LJ
2 LW
N
409.133 136.563 M
406.546 135.911 L
401.814 134.736 L
395.964 133.301 L
389.24 131.644 L
382.017 129.879 L
374.512 128.033 L
366.896 126.18 L
359.147 124.312 L
351.439 122.374 L
343.689 120.414 L
335.913 118.466 L
328.17 116.558 L
320.426 114.682 L
312.715 112.828 L
304.904 110.995 L
296.997 109.168 L
289.128 107.38 L
281.328 105.651 L
273.488 103.981 L
265.55 102.335 L
257.698 100.762 L
249.874 99.261 L
242.199 97.856 L
234.569 96.554 L
226.907 95.322 L
219.418 94.195 L
212.182 93.216 L
205.12 92.37 L
198.156 91.651 L
191.641 91.091 L
185.388 90.649 L
179.187 90.349 L
172.699 90.177 L
166.306 90.131 L
160.023 90.241 L
153.844 90.515 L
147.909 90.917 L
141.992 91.51 L
136.104 92.243 L
130.327 93.148 L
124.565 94.294 L
118.886 95.648 L
113.378 97.205 L
107.91 98.989 L
102.771 100.901 L
97.683 103.072 L
92.937 105.292 L
88.425 107.674 L
84.128 110.158 L
80.056 112.779 L
76.369 115.412 L
73.129 117.945 L
70.384 120.338 L
68.102 122.524 L
66.211 124.527 L
64.661 126.331 L
63.407 127.971 L
62.371 129.468 L
61.522 130.832 L
60.84 132.092 L
60.283 133.262 L
59.789 134.335 L
59.407 135.35 L
59.179 136.339 L
59.045 137.292 L
58.992 138.201 L
59.048 139.086 L
59.24 139.97 L
59.562 140.832 L
60.077 141.621 L
60.743 142.338 L
61.554 142.963 L
62.51 143.487 L
63.581 143.957 L
64.796 144.327 L
66.175 144.648 L
67.735 144.904 L
69.526 145.112 L
71.601 145.258 L
74.049 145.334 L
76.962 145.33 L
80.457 145.245 L
84.528 145.042 L
89.332 144.742 L
94.627 144.299 L
100.677 143.77 L
107.424 143.106 L
114.645 142.352 L
121.774 141.539 L
129.122 140.667 L
136.812 139.679 L
144.681 138.619 L
152.666 137.585 L
160.666 136.574 L
168.468 135.61 L
176.211 134.697 L
183.787 133.817 L
190.992 133.012 L
198.079 132.215 L
205.387 131.466 L
212.895 130.737 L
220.178 130.075 L
227.437 129.487 L
234.491 128.94 L
241.388 128.493 L
248.276 128.072 L
255.355 127.731 L
262.689 127.43 L
270.007 127.207 L
277.454 127.065 L
284.922 127.01 L
292.458 127.023 L
299.831 127.137 L
307.454 127.343 L
314.894 127.607 L
322.186 127.98 L
329.555 128.42 L
337.109 128.976 L
344.647 129.585 L
352.205 130.346 L
359.795 131.098 L
367.43 131.883 L
374.863 132.722 L
382.141 133.633 L
389.285 134.595 L
395.909 135.542 L
401.762 136.436 L
406.626 137.207 L
409.273 137.635 L
S
GR
GS
[0.75 0 0 0.75 0 -0.25] CT
[10 6] 0 setdash
2 LJ
1.333 LW
N
410.013 136.972 M
408.498 136.391 L
405.458 135.201 L
402.106 133.916 L
398.449 132.579 L
394.514 131.221 L
390.333 129.862 L
385.964 128.515 L
381.425 127.174 L
376.732 125.84 L
371.917 124.513 L
367.003 123.19 L
362.022 121.881 L
356.964 120.585 L
351.825 119.297 L
346.641 118.016 L
341.411 116.746 L
336.129 115.489 L
330.804 114.236 L
325.451 112.993 L
320.056 111.761 L
314.633 110.54 L
309.196 109.329 L
303.745 108.128 L
298.27 106.939 L
292.784 105.763 L
287.269 104.601 L
281.759 103.446 L
276.258 102.316 L
270.73 101.2 L
265.216 100.101 L
259.705 99.024 L
254.184 97.967 L
248.677 96.932 L
243.215 95.931 L
237.768 94.966 L
232.348 94.029 L
226.964 93.13 L
221.688 92.281 L
216.515 91.491 L
211.524 90.757 L
206.785 90.122 L
202.162 89.582 L
197.589 89.129 L
193.054 88.753 L
188.558 88.458 L
184.086 88.251 L
179.618 88.125 L
175.146 88.083 L
170.692 88.121 L
166.245 88.251 L
161.808 88.472 L
157.382 88.788 L
152.956 89.206 L
148.547 89.719 L
144.139 90.35 L
139.698 91.094 L
135.255 91.944 L
130.822 92.902 L
126.41 93.969 L
122.022 95.141 L
117.67 96.423 L
113.363 97.809 L
109.105 99.297 L
104.918 100.884 L
100.811 102.565 L
96.799 104.338 L
92.9 106.194 L
89.147 108.118 L
85.571 110.094 L
82.201 112.091 L
79.084 114.081 L
76.245 116.029 L
73.71 117.9 L
71.482 119.673 L
69.537 121.333 L
67.863 122.867 L
66.42 124.292 L
65.181 125.605 L
64.118 126.826 L
63.198 127.956 L
62.408 129.009 L
61.731 129.992 L
61.145 130.922 L
60.643 131.796 L
60.218 132.632 L
59.863 133.425 L
59.569 134.183 L
59.337 134.91 L
59.168 135.605 L
59.056 136.275 L
59.004 136.917 L
59.011 137.546 L
59.095 138.178 L
59.277 138.799 L
59.607 139.36 L
60.057 139.859 L
60.594 140.301 L
61.201 140.698 L
61.871 141.056 L
62.608 141.379 L
63.405 141.67 L
64.276 141.933 L
65.22 142.172 L
66.252 142.39 L
67.371 142.583 L
68.607 142.762 L
69.972 142.913 L
71.492 143.042 L
73.194 143.148 L
75.111 143.221 L
77.291 143.26 L
79.786 143.253 L
82.64 143.19 L
85.89 143.067 L
89.562 142.87 L
93.658 142.593 L
98.14 142.242 L
102.959 141.817 L
108.052 141.333 L
113.359 140.793 L
118.831 140.21 L
124.444 139.592 L
130.141 138.957 L
135.837 138.307 L
141.503 137.665 L
147.126 137.03 L
152.731 136.409 L
158.34 135.787 L
163.903 135.173 L
169.361 134.576 L
174.711 134.008 L
179.951 133.471 L
185.09 132.972 L
190.12 132.516 L
195.016 132.116 L
199.941 131.765 L
204.788 131.456 L
209.73 131.231 L
215.03 131.014 L
220.485 130.789 L
225.964 130.575 L
231.446 130.378 L
236.964 130.192 L
242.433 130.02 L
247.852 129.873 L
253.275 129.747 L
258.684 129.638 L
264.051 129.546 L
269.396 129.487 L
274.732 129.445 L
280.025 129.424 L
285.314 129.434 L
290.6 129.462 L
295.848 129.515 L
301.085 129.592 L
306.301 129.697 L
311.502 129.82 L
316.683 129.968 L
321.853 130.136 L
326.996 130.326 L
332.113 130.529 L
337.213 130.75 L
342.268 130.972 L
347.283 131.196 L
352.275 131.414 L
357.224 131.631 L
362.103 131.846 L
366.925 132.074 L
371.709 132.323 L
376.416 132.607 L
381.028 132.93 L
385.525 133.306 L
389.891 133.73 L
394.089 134.201 L
398.087 134.734 L
401.832 135.338 L
405.29 135.949 L
408.435 136.563 L
410.013 137.007 L
S
GR
GS
[0.75 0 0 0.75 0 -0.25] CT
1 GC
N
297 90 M
297 54 L
403 54 L
403 90 L
cp
f
GR
GS
[0.75 0 0 0.75 258 47.64726] CT
/Helvetica 12 F
GS
[1 0 0 1 0 0] CT
0 5 moveto 
1 -1 scale
(Otimizado) t 
GR
GR
GS
[0.75 0 0 0.75 0 -0.25] CT
0 0 1 RC
1 LJ
2 LW
N
301 63.863 M
341 63.863 L
S
GR
GS
[0.75 0 0 0.75 258 59.85274] CT
/Helvetica 12 F
GS
[1 0 0 1 0 0] CT
0 5 moveto 
1 -1 scale
(Pr\351vio) t 
GR
GR
GS
[0.75 0 0 0.75 0 -0.25] CT
[10 6] 0 setdash
2 LJ
1.333 LW
N
301 80.137 M
341 80.137 L
S
GR
GS
[0.75 0 0 0.75 0 -0.25] CT
0.149 GC
10.0 ML
0.667 LW
N
297 90 M
297 54 L
403 54 L
403 90 L
cp
S
GR
%%Trailer
%%Pages: 1
%%EOF
