%!PS-Adobe-3.0 EPSF-3.0
%%Creator: (MATLAB, The Mathworks, Inc. Version 9.2.0.538062 \(R2017a\). Operating System: Windows 8)
%%Title: Fotos/FLUEGEL.eps
%%CreationDate: 2022-08-06T09:28:52
%%Pages: (atend)
%%BoundingBox:    24     8   298   113
%%LanguageLevel: 3
%%EndComments
%%BeginProlog
%%BeginResource: procset (Apache XML Graphics Std ProcSet) 1.2 0
%%Version: 1.2 0
%%Copyright: (Copyright 2001-2003,2010 The Apache Software Foundation. License terms: http://www.apache.org/licenses/LICENSE-2.0)
/bd{bind def}bind def
/ld{load def}bd
/GR/grestore ld
/M/moveto ld
/LJ/setlinejoin ld
/C/curveto ld
/f/fill ld
/LW/setlinewidth ld
/GC/setgray ld
/t/show ld
/N/newpath ld
/CT/concat ld
/cp/closepath ld
/S/stroke ld
/L/lineto ld
/CC/setcmykcolor ld
/A/ashow ld
/GS/gsave ld
/RC/setrgbcolor ld
/RM/rmoveto ld
/ML/setmiterlimit ld
/re {4 2 roll M
1 index 0 rlineto
0 exch rlineto
neg 0 rlineto
cp } bd
/_ctm matrix def
/_tm matrix def
/BT { _ctm currentmatrix pop matrix _tm copy pop 0 0 moveto } bd
/ET { _ctm setmatrix } bd
/iTm { _ctm setmatrix _tm concat } bd
/Tm { _tm astore pop iTm 0 0 moveto } bd
/ux 0.0 def
/uy 0.0 def
/F {
  /Tp exch def
  /Tf exch def
  Tf findfont Tp scalefont setfont
  /cf Tf def  /cs Tp def
} bd
/ULS {currentpoint /uy exch def /ux exch def} bd
/ULE {
  /Tcx currentpoint pop def
  gsave
  newpath
  cf findfont cs scalefont dup
  /FontMatrix get 0 get /Ts exch def /FontInfo get dup
  /UnderlinePosition get Ts mul /To exch def
  /UnderlineThickness get Ts mul /Tt exch def
  ux uy To add moveto  Tcx uy To add lineto
  Tt setlinewidth stroke
  grestore
} bd
/OLE {
  /Tcx currentpoint pop def
  gsave
  newpath
  cf findfont cs scalefont dup
  /FontMatrix get 0 get /Ts exch def /FontInfo get dup
  /UnderlinePosition get Ts mul /To exch def
  /UnderlineThickness get Ts mul /Tt exch def
  ux uy To add cs add moveto Tcx uy To add cs add lineto
  Tt setlinewidth stroke
  grestore
} bd
/SOE {
  /Tcx currentpoint pop def
  gsave
  newpath
  cf findfont cs scalefont dup
  /FontMatrix get 0 get /Ts exch def /FontInfo get dup
  /UnderlinePosition get Ts mul /To exch def
  /UnderlineThickness get Ts mul /Tt exch def
  ux uy To add cs 10 mul 26 idiv add moveto Tcx uy To add cs 10 mul 26 idiv add lineto
  Tt setlinewidth stroke
  grestore
} bd
/QT {
/Y22 exch store
/X22 exch store
/Y21 exch store
/X21 exch store
currentpoint
/Y21 load 2 mul add 3 div exch
/X21 load 2 mul add 3 div exch
/X21 load 2 mul /X22 load add 3 div
/Y21 load 2 mul /Y22 load add 3 div
/X22 load /Y22 load curveto
} bd
/SSPD {
dup length /d exch dict def
{
/v exch def
/k exch def
currentpagedevice k known {
/cpdv currentpagedevice k get def
v cpdv ne {
/upd false def
/nullv v type /nulltype eq def
/nullcpdv cpdv type /nulltype eq def
nullv nullcpdv or
{
/upd true def
} {
/sametype v type cpdv type eq def
sametype {
v type /arraytype eq {
/vlen v length def
/cpdvlen cpdv length def
vlen cpdvlen eq {
0 1 vlen 1 sub {
/i exch def
/obj v i get def
/cpdobj cpdv i get def
obj cpdobj ne {
/upd true def
exit
} if
} for
} {
/upd true def
} ifelse
} {
v type /dicttype eq {
v {
/dv exch def
/dk exch def
/cpddv cpdv dk get def
dv cpddv ne {
/upd true def
exit
} if
} forall
} {
/upd true def
} ifelse
} ifelse
} if
} ifelse
upd true eq {
d k v put
} if
} if
} if
} forall
d length 0 gt {
d setpagedevice
} if
} bd
/RE { % /NewFontName [NewEncodingArray] /FontName RE -
  findfont dup length dict begin
  {
    1 index /FID ne
    {def} {pop pop} ifelse
  } forall
  /Encoding exch def
  /FontName 1 index def
  currentdict definefont pop
  end
} bind def
%%EndResource
%%BeginResource: procset (Apache XML Graphics EPS ProcSet) 1.0 0
%%Version: 1.0 0
%%Copyright: (Copyright 2002-2003 The Apache Software Foundation. License terms: http://www.apache.org/licenses/LICENSE-2.0)
/BeginEPSF { %def
/b4_Inc_state save def         % Save state for cleanup
/dict_count countdictstack def % Count objects on dict stack
/op_count count 1 sub def      % Count objects on operand stack
userdict begin                 % Push userdict on dict stack
/showpage { } def              % Redefine showpage, { } = null proc
0 setgray 0 setlinecap         % Prepare graphics state
1 setlinewidth 0 setlinejoin
10 setmiterlimit [ ] 0 setdash newpath
/languagelevel where           % If level not equal to 1 then
{pop languagelevel             % set strokeadjust and
1 ne                           % overprint to their defaults.
{false setstrokeadjust false setoverprint
} if
} if
} bd
/EndEPSF { %def
count op_count sub {pop} repeat            % Clean up stacks
countdictstack dict_count sub {end} repeat
b4_Inc_state restore
} bd
%%EndResource
%FOPBeginFontDict
%%IncludeResource: font Courier-Bold
%%IncludeResource: font Helvetica
%%IncludeResource: font Courier-BoldOblique
%%IncludeResource: font Courier-Oblique
%%IncludeResource: font Times-Roman
%%IncludeResource: font Helvetica-BoldOblique
%%IncludeResource: font Helvetica-Bold
%%IncludeResource: font Helvetica-Oblique
%%IncludeResource: font Times-BoldItalic
%%IncludeResource: font Courier
%%IncludeResource: font Times-Italic
%%IncludeResource: font Times-Bold
%%IncludeResource: font Symbol
%%IncludeResource: font ZapfDingbats
%FOPEndFontDict
%%BeginResource: encoding WinAnsiEncoding
/WinAnsiEncoding [
/.notdef /.notdef /.notdef /.notdef /.notdef
/.notdef /.notdef /.notdef /.notdef /.notdef
/.notdef /.notdef /.notdef /.notdef /.notdef
/.notdef /.notdef /.notdef /.notdef /.notdef
/.notdef /.notdef /.notdef /.notdef /.notdef
/.notdef /.notdef /.notdef /.notdef /.notdef
/.notdef /.notdef /space /exclam /quotedbl
/numbersign /dollar /percent /ampersand /quotesingle
/parenleft /parenright /asterisk /plus /comma
/hyphen /period /slash /zero /one
/two /three /four /five /six
/seven /eight /nine /colon /semicolon
/less /equal /greater /question /at
/A /B /C /D /E
/F /G /H /I /J
/K /L /M /N /O
/P /Q /R /S /T
/U /V /W /X /Y
/Z /bracketleft /backslash /bracketright /asciicircum
/underscore /quoteleft /a /b /c
/d /e /f /g /h
/i /j /k /l /m
/n /o /p /q /r
/s /t /u /v /w
/x /y /z /braceleft /bar
/braceright /asciitilde /bullet /Euro /bullet
/quotesinglbase /florin /quotedblbase /ellipsis /dagger
/daggerdbl /circumflex /perthousand /Scaron /guilsinglleft
/OE /bullet /Zcaron /bullet /bullet
/quoteleft /quoteright /quotedblleft /quotedblright /bullet
/endash /emdash /asciitilde /trademark /scaron
/guilsinglright /oe /bullet /zcaron /Ydieresis
/space /exclamdown /cent /sterling /currency
/yen /brokenbar /section /dieresis /copyright
/ordfeminine /guillemotleft /logicalnot /sfthyphen /registered
/macron /degree /plusminus /twosuperior /threesuperior
/acute /mu /paragraph /middot /cedilla
/onesuperior /ordmasculine /guillemotright /onequarter /onehalf
/threequarters /questiondown /Agrave /Aacute /Acircumflex
/Atilde /Adieresis /Aring /AE /Ccedilla
/Egrave /Eacute /Ecircumflex /Edieresis /Igrave
/Iacute /Icircumflex /Idieresis /Eth /Ntilde
/Ograve /Oacute /Ocircumflex /Otilde /Odieresis
/multiply /Oslash /Ugrave /Uacute /Ucircumflex
/Udieresis /Yacute /Thorn /germandbls /agrave
/aacute /acircumflex /atilde /adieresis /aring
/ae /ccedilla /egrave /eacute /ecircumflex
/edieresis /igrave /iacute /icircumflex /idieresis
/eth /ntilde /ograve /oacute /ocircumflex
/otilde /odieresis /divide /oslash /ugrave
/uacute /ucircumflex /udieresis /yacute /thorn
/ydieresis
] def
%%EndResource
%FOPBeginFontReencode
/Courier-Bold findfont
dup length dict begin
  {1 index /FID ne {def} {pop pop} ifelse} forall
  /Encoding WinAnsiEncoding def
  currentdict
end
/Courier-Bold exch definefont pop
/Helvetica findfont
dup length dict begin
  {1 index /FID ne {def} {pop pop} ifelse} forall
  /Encoding WinAnsiEncoding def
  currentdict
end
/Helvetica exch definefont pop
/Courier-BoldOblique findfont
dup length dict begin
  {1 index /FID ne {def} {pop pop} ifelse} forall
  /Encoding WinAnsiEncoding def
  currentdict
end
/Courier-BoldOblique exch definefont pop
/Courier-Oblique findfont
dup length dict begin
  {1 index /FID ne {def} {pop pop} ifelse} forall
  /Encoding WinAnsiEncoding def
  currentdict
end
/Courier-Oblique exch definefont pop
/Times-Roman findfont
dup length dict begin
  {1 index /FID ne {def} {pop pop} ifelse} forall
  /Encoding WinAnsiEncoding def
  currentdict
end
/Times-Roman exch definefont pop
/Helvetica-BoldOblique findfont
dup length dict begin
  {1 index /FID ne {def} {pop pop} ifelse} forall
  /Encoding WinAnsiEncoding def
  currentdict
end
/Helvetica-BoldOblique exch definefont pop
/Helvetica-Bold findfont
dup length dict begin
  {1 index /FID ne {def} {pop pop} ifelse} forall
  /Encoding WinAnsiEncoding def
  currentdict
end
/Helvetica-Bold exch definefont pop
/Helvetica-Oblique findfont
dup length dict begin
  {1 index /FID ne {def} {pop pop} ifelse} forall
  /Encoding WinAnsiEncoding def
  currentdict
end
/Helvetica-Oblique exch definefont pop
/Times-BoldItalic findfont
dup length dict begin
  {1 index /FID ne {def} {pop pop} ifelse} forall
  /Encoding WinAnsiEncoding def
  currentdict
end
/Times-BoldItalic exch definefont pop
/Courier findfont
dup length dict begin
  {1 index /FID ne {def} {pop pop} ifelse} forall
  /Encoding WinAnsiEncoding def
  currentdict
end
/Courier exch definefont pop
/Times-Italic findfont
dup length dict begin
  {1 index /FID ne {def} {pop pop} ifelse} forall
  /Encoding WinAnsiEncoding def
  currentdict
end
/Times-Italic exch definefont pop
/Times-Bold findfont
dup length dict begin
  {1 index /FID ne {def} {pop pop} ifelse} forall
  /Encoding WinAnsiEncoding def
  currentdict
end
/Times-Bold exch definefont pop
%FOPEndFontReencode
%%EndProlog
%%Page: 1 1
%%PageBoundingBox: 0 0 329 119
%%BeginPageSetup
[1 0 0 -1 0 119] CT
%%EndPageSetup
GS
[0.75 0 0 0.75 0 0.5] CT
0.997 GC
N
0 0 438 158 re
f
GR
GS
[0.75 0 0 0.75 0 0.5] CT
0.997 GC
N
0 0 438 158 re
f
GR
GS
[0.75 0 0 0.75 0 0.5] CT
0.997 GC
N
57 127.35 M
396 127.35 L
396 25.65 L
57 25.65 L
cp
f
GR
GS
[0.75 0 0 0.75 0 0.5] CT
0 GC
2 setlinecap
1 LJ
0.667 LW
N
57 127.35 M
396 127.35 L
S
GR
GS
[0.75 0 0 0.75 0 0.5] CT
0 GC
2 setlinecap
1 LJ
0.667 LW
N
57 25.65 M
396 25.65 L
S
GR
GS
[0.75 0 0 0.75 0 0.5] CT
0 GC
2 setlinecap
1 LJ
0.667 LW
N
57 127.35 M
57 123.96 L
S
GR
GS
[0.75 0 0 0.75 0 0.5] CT
0 GC
2 setlinecap
1 LJ
0.667 LW
N
124.8 127.35 M
124.8 123.96 L
S
GR
GS
[0.75 0 0 0.75 0 0.5] CT
0 GC
2 setlinecap
1 LJ
0.667 LW
N
192.6 127.35 M
192.6 123.96 L
S
GR
GS
[0.75 0 0 0.75 0 0.5] CT
0 GC
2 setlinecap
1 LJ
0.667 LW
N
260.4 127.35 M
260.4 123.96 L
S
GR
GS
[0.75 0 0 0.75 0 0.5] CT
0 GC
2 setlinecap
1 LJ
0.667 LW
N
328.2 127.35 M
328.2 123.96 L
S
GR
GS
[0.75 0 0 0.75 0 0.5] CT
0 GC
2 setlinecap
1 LJ
0.667 LW
N
396 127.35 M
396 123.96 L
S
GR
GS
[0.75 0 0 0.75 0 0.5] CT
0 GC
2 setlinecap
1 LJ
0.667 LW
N
57 25.65 M
57 29.04 L
S
GR
GS
[0.75 0 0 0.75 0 0.5] CT
0 GC
2 setlinecap
1 LJ
0.667 LW
N
124.8 25.65 M
124.8 29.04 L
S
GR
GS
[0.75 0 0 0.75 0 0.5] CT
0 GC
2 setlinecap
1 LJ
0.667 LW
N
192.6 25.65 M
192.6 29.04 L
S
GR
GS
[0.75 0 0 0.75 0 0.5] CT
0 GC
2 setlinecap
1 LJ
0.667 LW
N
260.4 25.65 M
260.4 29.04 L
S
GR
GS
[0.75 0 0 0.75 0 0.5] CT
0 GC
2 setlinecap
1 LJ
0.667 LW
N
328.2 25.65 M
328.2 29.04 L
S
GR
GS
[0.75 0 0 0.75 0 0.5] CT
0 GC
2 setlinecap
1 LJ
0.667 LW
N
396 25.65 M
396 29.04 L
S
GR
GS
[0.75 0 0 0.75 42.75 100.0125] CT
0 GC
/Helvetica 13.333 F
GS
[1 0 0 1 0 0] CT
-4 14 moveto 
1 -1 scale
(0) t 
GR
GR
GS
[0.75 0 0 0.75 93.6 100.0125] CT
0 GC
/Helvetica 13.333 F
GS
[1 0 0 1 0 0] CT
-9.5 14 moveto 
1 -1 scale
(0.2) t 
GR
GR
GS
[0.75 0 0 0.75 144.45 100.0125] CT
0 GC
/Helvetica 13.333 F
GS
[1 0 0 1 0 0] CT
-9.5 14 moveto 
1 -1 scale
(0.4) t 
GR
GR
GS
[0.75 0 0 0.75 195.3 100.0125] CT
0 GC
/Helvetica 13.333 F
GS
[1 0 0 1 0 0] CT
-9.5 14 moveto 
1 -1 scale
(0.6) t 
GR
GR
GS
[0.75 0 0 0.75 246.15001 100.0125] CT
0 GC
/Helvetica 13.333 F
GS
[1 0 0 1 0 0] CT
-9.5 14 moveto 
1 -1 scale
(0.8) t 
GR
GR
GS
[0.75 0 0 0.75 297 100.0125] CT
0 GC
/Helvetica 13.333 F
GS
[1 0 0 1 0 0] CT
-4 14 moveto 
1 -1 scale
(1) t 
GR
GR
GS
[0.75 0 0 0.75 0 0.5] CT
0 GC
2 setlinecap
1 LJ
0.667 LW
N
57 127.35 M
57 25.65 L
S
GR
GS
[0.75 0 0 0.75 0 0.5] CT
0 GC
2 setlinecap
1 LJ
0.667 LW
N
396 127.35 M
396 25.65 L
S
GR
GS
[0.75 0 0 0.75 0 0.5] CT
0 GC
2 setlinecap
1 LJ
0.667 LW
N
57 110.4 M
60.39 110.4 L
S
GR
GS
[0.75 0 0 0.75 0 0.5] CT
0 GC
2 setlinecap
1 LJ
0.667 LW
N
57 76.5 M
60.39 76.5 L
S
GR
GS
[0.75 0 0 0.75 0 0.5] CT
0 GC
2 setlinecap
1 LJ
0.667 LW
N
57 42.6 M
60.39 42.6 L
S
GR
GS
[0.75 0 0 0.75 0 0.5] CT
0 GC
2 setlinecap
1 LJ
0.667 LW
N
396 110.4 M
392.61 110.4 L
S
GR
GS
[0.75 0 0 0.75 0 0.5] CT
0 GC
2 setlinecap
1 LJ
0.667 LW
N
396 76.5 M
392.61 76.5 L
S
GR
GS
[0.75 0 0 0.75 0 0.5] CT
0 GC
2 setlinecap
1 LJ
0.667 LW
N
396 42.6 M
392.61 42.6 L
S
GR
GS
[0.75 0 0 0.75 38.75 83.3] CT
0 GC
/Helvetica 13.333 F
GS
[1 0 0 1 0 0] CT
-8 5.5 moveto 
1 -1 scale
(0) t 
GR
GR
GS
[0.75 0 0 0.75 38.75 57.875] CT
0 GC
/Helvetica 13.333 F
GS
[1 0 0 1 0 0] CT
-19 5.5 moveto 
1 -1 scale
(0.1) t 
GR
GR
GS
[0.75 0 0 0.75 38.75 32.45] CT
0 GC
/Helvetica 13.333 F
GS
[1 0 0 1 0 0] CT
-19 5.5 moveto 
1 -1 scale
(0.2) t 
GR
GR
GS
[0.75 0 0 0.75 169.87517 17.675] CT
0 GC
/Helvetica-Bold 14.667 F
GS
[1 0 0 1 0 0] CT
-50.5 -4 moveto 
1 -1 scale
(FLUEGEL.mat) t 
GR
GR
GS
[0.75 0 0 0.75 0 0.5] CT
0 GC
1 LJ
1.333 LW
N
396 110.4 M
395.62 110.149 L
392.671 108.525 L
386.905 105.871 L
378.426 102.501 L
367.365 98.528 L
353.913 94.03 L
346.353 91.609 L
338.285 89.077 L
329.742 86.473 L
320.759 83.788 L
311.372 81.08 L
301.612 78.331 L
291.534 75.619 L
281.164 72.913 L
270.556 70.313 L
259.749 67.757 L
248.786 65.34 L
237.724 63.021 L
226.612 60.899 L
215.496 58.926 L
204.434 57.265 L
193.475 55.967 L
182.681 55.306 L
172.057 55.177 L
161.717 55.621 L
151.554 56.509 L
141.828 57.875 L
132.38 59.672 L
123.325 61.981 L
114.705 64.679 L
106.541 67.71 L
98.877 70.951 L
91.744 74.497 L
85.218 78.205 L
79.289 82.083 L
74.008 86.009 L
69.407 90.006 L
65.522 93.925 L
62.356 97.82 L
59.943 101.383 L
58.271 104.501 L
57.312 107.217 L
57 110.397 L
57.292 111.664 L
58.146 112.898 L
59.583 113.42 L
61.671 114.007 L
64.472 114.732 L
68.045 115.397 L
72.465 115.787 L
77.699 115.729 L
83.618 115.387 L
90.164 114.78 L
97.294 113.987 L
104.962 112.993 L
113.125 111.871 L
121.742 110.586 L
130.78 109.224 L
140.211 107.776 L
149.923 106.346 L
160.083 104.864 L
170.416 103.447 L
181.043 102.04 L
191.841 100.752 L
202.801 99.538 L
213.872 98.484 L
225.012 97.504 L
236.165 96.674 L
247.284 95.915 L
258.325 95.294 L
269.228 94.667 L
279.95 94.159 L
290.442 93.789 L
300.646 93.711 L
310.528 93.891 L
320.034 94.375 L
329.125 95.094 L
337.767 96.05 L
345.92 97.172 L
353.554 98.457 L
367.134 101.318 L
378.294 104.264 L
386.857 106.935 L
392.668 108.983 L
395.62 110.203 L
396 110.4 L
S
GR
%%Trailer
%%Pages: 1
%%EOF
