%!PS-Adobe-3.0 EPSF-3.0
%%Creator: (MATLAB, The Mathworks, Inc. Version 9.2.0.538062 \(R2017a\). Operating System: Windows 8)
%%Title: Fotos/h2022_3.eps
%%CreationDate: 2022-08-06T09:29:00
%%Pages: (atend)
%%BoundingBox:    24     6   298   116
%%LanguageLevel: 3
%%EndComments
%%BeginProlog
%%BeginResource: procset (Apache XML Graphics Std ProcSet) 1.2 0
%%Version: 1.2 0
%%Copyright: (Copyright 2001-2003,2010 The Apache Software Foundation. License terms: http://www.apache.org/licenses/LICENSE-2.0)
/bd{bind def}bind def
/ld{load def}bd
/GR/grestore ld
/M/moveto ld
/LJ/setlinejoin ld
/C/curveto ld
/f/fill ld
/LW/setlinewidth ld
/GC/setgray ld
/t/show ld
/N/newpath ld
/CT/concat ld
/cp/closepath ld
/S/stroke ld
/L/lineto ld
/CC/setcmykcolor ld
/A/ashow ld
/GS/gsave ld
/RC/setrgbcolor ld
/RM/rmoveto ld
/ML/setmiterlimit ld
/re {4 2 roll M
1 index 0 rlineto
0 exch rlineto
neg 0 rlineto
cp } bd
/_ctm matrix def
/_tm matrix def
/BT { _ctm currentmatrix pop matrix _tm copy pop 0 0 moveto } bd
/ET { _ctm setmatrix } bd
/iTm { _ctm setmatrix _tm concat } bd
/Tm { _tm astore pop iTm 0 0 moveto } bd
/ux 0.0 def
/uy 0.0 def
/F {
  /Tp exch def
  /Tf exch def
  Tf findfont Tp scalefont setfont
  /cf Tf def  /cs Tp def
} bd
/ULS {currentpoint /uy exch def /ux exch def} bd
/ULE {
  /Tcx currentpoint pop def
  gsave
  newpath
  cf findfont cs scalefont dup
  /FontMatrix get 0 get /Ts exch def /FontInfo get dup
  /UnderlinePosition get Ts mul /To exch def
  /UnderlineThickness get Ts mul /Tt exch def
  ux uy To add moveto  Tcx uy To add lineto
  Tt setlinewidth stroke
  grestore
} bd
/OLE {
  /Tcx currentpoint pop def
  gsave
  newpath
  cf findfont cs scalefont dup
  /FontMatrix get 0 get /Ts exch def /FontInfo get dup
  /UnderlinePosition get Ts mul /To exch def
  /UnderlineThickness get Ts mul /Tt exch def
  ux uy To add cs add moveto Tcx uy To add cs add lineto
  Tt setlinewidth stroke
  grestore
} bd
/SOE {
  /Tcx currentpoint pop def
  gsave
  newpath
  cf findfont cs scalefont dup
  /FontMatrix get 0 get /Ts exch def /FontInfo get dup
  /UnderlinePosition get Ts mul /To exch def
  /UnderlineThickness get Ts mul /Tt exch def
  ux uy To add cs 10 mul 26 idiv add moveto Tcx uy To add cs 10 mul 26 idiv add lineto
  Tt setlinewidth stroke
  grestore
} bd
/QT {
/Y22 exch store
/X22 exch store
/Y21 exch store
/X21 exch store
currentpoint
/Y21 load 2 mul add 3 div exch
/X21 load 2 mul add 3 div exch
/X21 load 2 mul /X22 load add 3 div
/Y21 load 2 mul /Y22 load add 3 div
/X22 load /Y22 load curveto
} bd
/SSPD {
dup length /d exch dict def
{
/v exch def
/k exch def
currentpagedevice k known {
/cpdv currentpagedevice k get def
v cpdv ne {
/upd false def
/nullv v type /nulltype eq def
/nullcpdv cpdv type /nulltype eq def
nullv nullcpdv or
{
/upd true def
} {
/sametype v type cpdv type eq def
sametype {
v type /arraytype eq {
/vlen v length def
/cpdvlen cpdv length def
vlen cpdvlen eq {
0 1 vlen 1 sub {
/i exch def
/obj v i get def
/cpdobj cpdv i get def
obj cpdobj ne {
/upd true def
exit
} if
} for
} {
/upd true def
} ifelse
} {
v type /dicttype eq {
v {
/dv exch def
/dk exch def
/cpddv cpdv dk get def
dv cpddv ne {
/upd true def
exit
} if
} forall
} {
/upd true def
} ifelse
} ifelse
} if
} ifelse
upd true eq {
d k v put
} if
} if
} if
} forall
d length 0 gt {
d setpagedevice
} if
} bd
/RE { % /NewFontName [NewEncodingArray] /FontName RE -
  findfont dup length dict begin
  {
    1 index /FID ne
    {def} {pop pop} ifelse
  } forall
  /Encoding exch def
  /FontName 1 index def
  currentdict definefont pop
  end
} bind def
%%EndResource
%%BeginResource: procset (Apache XML Graphics EPS ProcSet) 1.0 0
%%Version: 1.0 0
%%Copyright: (Copyright 2002-2003 The Apache Software Foundation. License terms: http://www.apache.org/licenses/LICENSE-2.0)
/BeginEPSF { %def
/b4_Inc_state save def         % Save state for cleanup
/dict_count countdictstack def % Count objects on dict stack
/op_count count 1 sub def      % Count objects on operand stack
userdict begin                 % Push userdict on dict stack
/showpage { } def              % Redefine showpage, { } = null proc
0 setgray 0 setlinecap         % Prepare graphics state
1 setlinewidth 0 setlinejoin
10 setmiterlimit [ ] 0 setdash newpath
/languagelevel where           % If level not equal to 1 then
{pop languagelevel             % set strokeadjust and
1 ne                           % overprint to their defaults.
{false setstrokeadjust false setoverprint
} if
} if
} bd
/EndEPSF { %def
count op_count sub {pop} repeat            % Clean up stacks
countdictstack dict_count sub {end} repeat
b4_Inc_state restore
} bd
%%EndResource
%FOPBeginFontDict
%%IncludeResource: font Courier-Bold
%%IncludeResource: font Helvetica
%%IncludeResource: font Courier-BoldOblique
%%IncludeResource: font Courier-Oblique
%%IncludeResource: font Times-Roman
%%IncludeResource: font Helvetica-BoldOblique
%%IncludeResource: font Helvetica-Bold
%%IncludeResource: font Helvetica-Oblique
%%IncludeResource: font Times-BoldItalic
%%IncludeResource: font Courier
%%IncludeResource: font Times-Italic
%%IncludeResource: font Times-Bold
%%IncludeResource: font Symbol
%%IncludeResource: font ZapfDingbats
%FOPEndFontDict
%%BeginResource: encoding WinAnsiEncoding
/WinAnsiEncoding [
/.notdef /.notdef /.notdef /.notdef /.notdef
/.notdef /.notdef /.notdef /.notdef /.notdef
/.notdef /.notdef /.notdef /.notdef /.notdef
/.notdef /.notdef /.notdef /.notdef /.notdef
/.notdef /.notdef /.notdef /.notdef /.notdef
/.notdef /.notdef /.notdef /.notdef /.notdef
/.notdef /.notdef /space /exclam /quotedbl
/numbersign /dollar /percent /ampersand /quotesingle
/parenleft /parenright /asterisk /plus /comma
/hyphen /period /slash /zero /one
/two /three /four /five /six
/seven /eight /nine /colon /semicolon
/less /equal /greater /question /at
/A /B /C /D /E
/F /G /H /I /J
/K /L /M /N /O
/P /Q /R /S /T
/U /V /W /X /Y
/Z /bracketleft /backslash /bracketright /asciicircum
/underscore /quoteleft /a /b /c
/d /e /f /g /h
/i /j /k /l /m
/n /o /p /q /r
/s /t /u /v /w
/x /y /z /braceleft /bar
/braceright /asciitilde /bullet /Euro /bullet
/quotesinglbase /florin /quotedblbase /ellipsis /dagger
/daggerdbl /circumflex /perthousand /Scaron /guilsinglleft
/OE /bullet /Zcaron /bullet /bullet
/quoteleft /quoteright /quotedblleft /quotedblright /bullet
/endash /emdash /asciitilde /trademark /scaron
/guilsinglright /oe /bullet /zcaron /Ydieresis
/space /exclamdown /cent /sterling /currency
/yen /brokenbar /section /dieresis /copyright
/ordfeminine /guillemotleft /logicalnot /sfthyphen /registered
/macron /degree /plusminus /twosuperior /threesuperior
/acute /mu /paragraph /middot /cedilla
/onesuperior /ordmasculine /guillemotright /onequarter /onehalf
/threequarters /questiondown /Agrave /Aacute /Acircumflex
/Atilde /Adieresis /Aring /AE /Ccedilla
/Egrave /Eacute /Ecircumflex /Edieresis /Igrave
/Iacute /Icircumflex /Idieresis /Eth /Ntilde
/Ograve /Oacute /Ocircumflex /Otilde /Odieresis
/multiply /Oslash /Ugrave /Uacute /Ucircumflex
/Udieresis /Yacute /Thorn /germandbls /agrave
/aacute /acircumflex /atilde /adieresis /aring
/ae /ccedilla /egrave /eacute /ecircumflex
/edieresis /igrave /iacute /icircumflex /idieresis
/eth /ntilde /ograve /oacute /ocircumflex
/otilde /odieresis /divide /oslash /ugrave
/uacute /ucircumflex /udieresis /yacute /thorn
/ydieresis
] def
%%EndResource
%FOPBeginFontReencode
/Courier-Bold findfont
dup length dict begin
  {1 index /FID ne {def} {pop pop} ifelse} forall
  /Encoding WinAnsiEncoding def
  currentdict
end
/Courier-Bold exch definefont pop
/Helvetica findfont
dup length dict begin
  {1 index /FID ne {def} {pop pop} ifelse} forall
  /Encoding WinAnsiEncoding def
  currentdict
end
/Helvetica exch definefont pop
/Courier-BoldOblique findfont
dup length dict begin
  {1 index /FID ne {def} {pop pop} ifelse} forall
  /Encoding WinAnsiEncoding def
  currentdict
end
/Courier-BoldOblique exch definefont pop
/Courier-Oblique findfont
dup length dict begin
  {1 index /FID ne {def} {pop pop} ifelse} forall
  /Encoding WinAnsiEncoding def
  currentdict
end
/Courier-Oblique exch definefont pop
/Times-Roman findfont
dup length dict begin
  {1 index /FID ne {def} {pop pop} ifelse} forall
  /Encoding WinAnsiEncoding def
  currentdict
end
/Times-Roman exch definefont pop
/Helvetica-BoldOblique findfont
dup length dict begin
  {1 index /FID ne {def} {pop pop} ifelse} forall
  /Encoding WinAnsiEncoding def
  currentdict
end
/Helvetica-BoldOblique exch definefont pop
/Helvetica-Bold findfont
dup length dict begin
  {1 index /FID ne {def} {pop pop} ifelse} forall
  /Encoding WinAnsiEncoding def
  currentdict
end
/Helvetica-Bold exch definefont pop
/Helvetica-Oblique findfont
dup length dict begin
  {1 index /FID ne {def} {pop pop} ifelse} forall
  /Encoding WinAnsiEncoding def
  currentdict
end
/Helvetica-Oblique exch definefont pop
/Times-BoldItalic findfont
dup length dict begin
  {1 index /FID ne {def} {pop pop} ifelse} forall
  /Encoding WinAnsiEncoding def
  currentdict
end
/Times-BoldItalic exch definefont pop
/Courier findfont
dup length dict begin
  {1 index /FID ne {def} {pop pop} ifelse} forall
  /Encoding WinAnsiEncoding def
  currentdict
end
/Courier exch definefont pop
/Times-Italic findfont
dup length dict begin
  {1 index /FID ne {def} {pop pop} ifelse} forall
  /Encoding WinAnsiEncoding def
  currentdict
end
/Times-Italic exch definefont pop
/Times-Bold findfont
dup length dict begin
  {1 index /FID ne {def} {pop pop} ifelse} forall
  /Encoding WinAnsiEncoding def
  currentdict
end
/Times-Bold exch definefont pop
%FOPEndFontReencode
%%EndProlog
%%Page: 1 1
%%PageBoundingBox: 0 0 329 119
%%BeginPageSetup
[1 0 0 -1 0 119] CT
%%EndPageSetup
GS
[0.75 0 0 0.75 0 0.5] CT
0.997 GC
N
0 0 438 158 re
f
GR
GS
[0.75 0 0 0.75 0 0.5] CT
0.997 GC
N
0 0 438 158 re
f
GR
GS
[0.75 0 0 0.75 0 0.5] CT
0.997 GC
N
57 129.35 M
396 129.35 L
396 27.65 L
57 27.65 L
cp
f
GR
GS
[0.75 0 0 0.75 0 0.5] CT
0 GC
2 setlinecap
1 LJ
0.667 LW
N
57 129.35 M
396 129.35 L
S
GR
GS
[0.75 0 0 0.75 0 0.5] CT
0 GC
2 setlinecap
1 LJ
0.667 LW
N
57 27.65 M
396 27.65 L
S
GR
GS
[0.75 0 0 0.75 0 0.5] CT
0 GC
2 setlinecap
1 LJ
0.667 LW
N
57 129.35 M
57 125.96 L
S
GR
GS
[0.75 0 0 0.75 0 0.5] CT
0 GC
2 setlinecap
1 LJ
0.667 LW
N
124.8 129.35 M
124.8 125.96 L
S
GR
GS
[0.75 0 0 0.75 0 0.5] CT
0 GC
2 setlinecap
1 LJ
0.667 LW
N
192.6 129.35 M
192.6 125.96 L
S
GR
GS
[0.75 0 0 0.75 0 0.5] CT
0 GC
2 setlinecap
1 LJ
0.667 LW
N
260.4 129.35 M
260.4 125.96 L
S
GR
GS
[0.75 0 0 0.75 0 0.5] CT
0 GC
2 setlinecap
1 LJ
0.667 LW
N
328.2 129.35 M
328.2 125.96 L
S
GR
GS
[0.75 0 0 0.75 0 0.5] CT
0 GC
2 setlinecap
1 LJ
0.667 LW
N
396 129.35 M
396 125.96 L
S
GR
GS
[0.75 0 0 0.75 0 0.5] CT
0 GC
2 setlinecap
1 LJ
0.667 LW
N
57 27.65 M
57 31.04 L
S
GR
GS
[0.75 0 0 0.75 0 0.5] CT
0 GC
2 setlinecap
1 LJ
0.667 LW
N
124.8 27.65 M
124.8 31.04 L
S
GR
GS
[0.75 0 0 0.75 0 0.5] CT
0 GC
2 setlinecap
1 LJ
0.667 LW
N
192.6 27.65 M
192.6 31.04 L
S
GR
GS
[0.75 0 0 0.75 0 0.5] CT
0 GC
2 setlinecap
1 LJ
0.667 LW
N
260.4 27.65 M
260.4 31.04 L
S
GR
GS
[0.75 0 0 0.75 0 0.5] CT
0 GC
2 setlinecap
1 LJ
0.667 LW
N
328.2 27.65 M
328.2 31.04 L
S
GR
GS
[0.75 0 0 0.75 0 0.5] CT
0 GC
2 setlinecap
1 LJ
0.667 LW
N
396 27.65 M
396 31.04 L
S
GR
GS
[0.75 0 0 0.75 42.75 101.5125] CT
0 GC
/Helvetica 13.333 F
GS
[1 0 0 1 0 0] CT
-4 14 moveto 
1 -1 scale
(0) t 
GR
GR
GS
[0.75 0 0 0.75 93.6 101.5125] CT
0 GC
/Helvetica 13.333 F
GS
[1 0 0 1 0 0] CT
-9.5 14 moveto 
1 -1 scale
(0.2) t 
GR
GR
GS
[0.75 0 0 0.75 144.45 101.5125] CT
0 GC
/Helvetica 13.333 F
GS
[1 0 0 1 0 0] CT
-9.5 14 moveto 
1 -1 scale
(0.4) t 
GR
GR
GS
[0.75 0 0 0.75 195.3 101.5125] CT
0 GC
/Helvetica 13.333 F
GS
[1 0 0 1 0 0] CT
-9.5 14 moveto 
1 -1 scale
(0.6) t 
GR
GR
GS
[0.75 0 0 0.75 246.15001 101.5125] CT
0 GC
/Helvetica 13.333 F
GS
[1 0 0 1 0 0] CT
-9.5 14 moveto 
1 -1 scale
(0.8) t 
GR
GR
GS
[0.75 0 0 0.75 297 101.5125] CT
0 GC
/Helvetica 13.333 F
GS
[1 0 0 1 0 0] CT
-4 14 moveto 
1 -1 scale
(1) t 
GR
GR
GS
[0.75 0 0 0.75 0 0.5] CT
0 GC
2 setlinecap
1 LJ
0.667 LW
N
57 129.35 M
57 27.65 L
S
GR
GS
[0.75 0 0 0.75 0 0.5] CT
0 GC
2 setlinecap
1 LJ
0.667 LW
N
396 129.35 M
396 27.65 L
S
GR
GS
[0.75 0 0 0.75 0 0.5] CT
0 GC
2 setlinecap
1 LJ
0.667 LW
N
57 112.4 M
60.39 112.4 L
S
GR
GS
[0.75 0 0 0.75 0 0.5] CT
0 GC
2 setlinecap
1 LJ
0.667 LW
N
57 78.5 M
60.39 78.5 L
S
GR
GS
[0.75 0 0 0.75 0 0.5] CT
0 GC
2 setlinecap
1 LJ
0.667 LW
N
57 44.6 M
60.39 44.6 L
S
GR
GS
[0.75 0 0 0.75 0 0.5] CT
0 GC
2 setlinecap
1 LJ
0.667 LW
N
396 112.4 M
392.61 112.4 L
S
GR
GS
[0.75 0 0 0.75 0 0.5] CT
0 GC
2 setlinecap
1 LJ
0.667 LW
N
396 78.5 M
392.61 78.5 L
S
GR
GS
[0.75 0 0 0.75 0 0.5] CT
0 GC
2 setlinecap
1 LJ
0.667 LW
N
396 44.6 M
392.61 44.6 L
S
GR
GS
[0.75 0 0 0.75 38.75 84.8] CT
0 GC
/Helvetica 13.333 F
GS
[1 0 0 1 0 0] CT
-8 5.5 moveto 
1 -1 scale
(0) t 
GR
GR
GS
[0.75 0 0 0.75 38.75 59.375] CT
0 GC
/Helvetica 13.333 F
GS
[1 0 0 1 0 0] CT
-19 5.5 moveto 
1 -1 scale
(0.1) t 
GR
GR
GS
[0.75 0 0 0.75 38.75 33.95] CT
0 GC
/Helvetica 13.333 F
GS
[1 0 0 1 0 0] CT
-19 5.5 moveto 
1 -1 scale
(0.2) t 
GR
GR
GS
[0.75 0 0 0.75 139.5 11.75] CT
0 GC
/Helvetica-Bold 14.667 F
GS
[1 0 0 1 0 0] CT
0 0 moveto 
1 -1 scale
(h2022) t 
GR
GR
GS
[0.75 0 0 0.75 171.75 17] CT
0 GC
/Helvetica-Bold 11.733 F
GS
[1 0 0 1 0 0] CT
0 0 moveto 
1 -1 scale
(3) t 
GR
GR
GS
[0.75 0 0 0.75 177 11.75] CT
0 GC
/Helvetica-Bold 14.667 F
GS
[1 0 0 1 0 0] CT
0 0 moveto 
1 -1 scale
(.mat) t 
GR
GR
GS
[0.75 0 0 0.75 0 0.5] CT
0 GC
1 LJ
1.333 LW
N
395.015 111.875 M
394.125 111.444 L
391.689 110.343 L
388.07 108.871 L
383.429 107.137 L
377.71 105.039 L
370.862 102.574 L
362.959 99.782 L
354.079 96.716 L
344.317 93.417 L
333.785 89.965 L
322.595 86.433 L
310.85 82.911 L
298.67 79.43 L
286.152 76.069 L
273.408 72.866 L
260.527 69.929 L
247.603 67.271 L
234.719 64.955 L
221.86 63.036 L
209.019 61.507 L
196.269 60.473 L
183.642 59.965 L
171.207 60.04 L
159.029 60.733 L
147.183 62.05 L
135.763 63.985 L
124.851 66.491 L
114.526 69.553 L
104.872 73.107 L
95.962 77.088 L
87.844 81.372 L
80.567 85.846 L
74.191 90.41 L
68.763 94.928 L
64.325 99.323 L
60.896 103.515 L
58.551 107.366 L
57.224 110.623 L
56.997 112.566 L
57.277 114.146 L
58.504 115.913 L
60.933 117.241 L
64.555 117.96 L
69.214 118.093 L
74.846 117.732 L
81.396 116.988 L
88.8 115.972 L
97.009 114.723 L
105.973 113.287 L
115.633 111.707 L
125.927 110.004 L
136.778 108.218 L
148.132 106.407 L
159.921 104.599 L
172.075 102.874 L
184.533 101.253 L
197.224 99.761 L
210.082 98.486 L
223.061 97.459 L
236.058 96.704 L
249.07 96.238 L
262.091 96.063 L
275.024 96.215 L
287.781 96.652 L
300.261 97.383 L
312.362 98.351 L
323.986 99.514 L
335.032 100.83 L
345.402 102.29 L
355.002 103.832 L
363.733 105.407 L
371.507 106.997 L
378.246 108.522 L
383.897 109.957 L
388.48 111.217 L
392.004 112.166 L
394.321 112.74 L
395.151 112.929 L
S
GR
%%Trailer
%%Pages: 1
%%EOF
