%!PS-Adobe-3.0 EPSF-3.0
%%Creator: (MATLAB, The Mathworks, Inc. Version 9.2.0.538062 \(R2017a\). Operating System: Windows 8)
%%Title: Fotos/NACA_3412.eps
%%CreationDate: 2022-08-05T08:18:11
%%Pages: (atend)
%%BoundingBox:    21    15   298   110
%%LanguageLevel: 3
%%EndComments
%%BeginProlog
%%BeginResource: procset (Apache XML Graphics Std ProcSet) 1.2 0
%%Version: 1.2 0
%%Copyright: (Copyright 2001-2003,2010 The Apache Software Foundation. License terms: http://www.apache.org/licenses/LICENSE-2.0)
/bd{bind def}bind def
/ld{load def}bd
/GR/grestore ld
/M/moveto ld
/LJ/setlinejoin ld
/C/curveto ld
/f/fill ld
/LW/setlinewidth ld
/GC/setgray ld
/t/show ld
/N/newpath ld
/CT/concat ld
/cp/closepath ld
/S/stroke ld
/L/lineto ld
/CC/setcmykcolor ld
/A/ashow ld
/GS/gsave ld
/RC/setrgbcolor ld
/RM/rmoveto ld
/ML/setmiterlimit ld
/re {4 2 roll M
1 index 0 rlineto
0 exch rlineto
neg 0 rlineto
cp } bd
/_ctm matrix def
/_tm matrix def
/BT { _ctm currentmatrix pop matrix _tm copy pop 0 0 moveto } bd
/ET { _ctm setmatrix } bd
/iTm { _ctm setmatrix _tm concat } bd
/Tm { _tm astore pop iTm 0 0 moveto } bd
/ux 0.0 def
/uy 0.0 def
/F {
  /Tp exch def
  /Tf exch def
  Tf findfont Tp scalefont setfont
  /cf Tf def  /cs Tp def
} bd
/ULS {currentpoint /uy exch def /ux exch def} bd
/ULE {
  /Tcx currentpoint pop def
  gsave
  newpath
  cf findfont cs scalefont dup
  /FontMatrix get 0 get /Ts exch def /FontInfo get dup
  /UnderlinePosition get Ts mul /To exch def
  /UnderlineThickness get Ts mul /Tt exch def
  ux uy To add moveto  Tcx uy To add lineto
  Tt setlinewidth stroke
  grestore
} bd
/OLE {
  /Tcx currentpoint pop def
  gsave
  newpath
  cf findfont cs scalefont dup
  /FontMatrix get 0 get /Ts exch def /FontInfo get dup
  /UnderlinePosition get Ts mul /To exch def
  /UnderlineThickness get Ts mul /Tt exch def
  ux uy To add cs add moveto Tcx uy To add cs add lineto
  Tt setlinewidth stroke
  grestore
} bd
/SOE {
  /Tcx currentpoint pop def
  gsave
  newpath
  cf findfont cs scalefont dup
  /FontMatrix get 0 get /Ts exch def /FontInfo get dup
  /UnderlinePosition get Ts mul /To exch def
  /UnderlineThickness get Ts mul /Tt exch def
  ux uy To add cs 10 mul 26 idiv add moveto Tcx uy To add cs 10 mul 26 idiv add lineto
  Tt setlinewidth stroke
  grestore
} bd
/QT {
/Y22 exch store
/X22 exch store
/Y21 exch store
/X21 exch store
currentpoint
/Y21 load 2 mul add 3 div exch
/X21 load 2 mul add 3 div exch
/X21 load 2 mul /X22 load add 3 div
/Y21 load 2 mul /Y22 load add 3 div
/X22 load /Y22 load curveto
} bd
/SSPD {
dup length /d exch dict def
{
/v exch def
/k exch def
currentpagedevice k known {
/cpdv currentpagedevice k get def
v cpdv ne {
/upd false def
/nullv v type /nulltype eq def
/nullcpdv cpdv type /nulltype eq def
nullv nullcpdv or
{
/upd true def
} {
/sametype v type cpdv type eq def
sametype {
v type /arraytype eq {
/vlen v length def
/cpdvlen cpdv length def
vlen cpdvlen eq {
0 1 vlen 1 sub {
/i exch def
/obj v i get def
/cpdobj cpdv i get def
obj cpdobj ne {
/upd true def
exit
} if
} for
} {
/upd true def
} ifelse
} {
v type /dicttype eq {
v {
/dv exch def
/dk exch def
/cpddv cpdv dk get def
dv cpddv ne {
/upd true def
exit
} if
} forall
} {
/upd true def
} ifelse
} ifelse
} if
} ifelse
upd true eq {
d k v put
} if
} if
} if
} forall
d length 0 gt {
d setpagedevice
} if
} bd
/RE { % /NewFontName [NewEncodingArray] /FontName RE -
  findfont dup length dict begin
  {
    1 index /FID ne
    {def} {pop pop} ifelse
  } forall
  /Encoding exch def
  /FontName 1 index def
  currentdict definefont pop
  end
} bind def
%%EndResource
%%BeginResource: procset (Apache XML Graphics EPS ProcSet) 1.0 0
%%Version: 1.0 0
%%Copyright: (Copyright 2002-2003 The Apache Software Foundation. License terms: http://www.apache.org/licenses/LICENSE-2.0)
/BeginEPSF { %def
/b4_Inc_state save def         % Save state for cleanup
/dict_count countdictstack def % Count objects on dict stack
/op_count count 1 sub def      % Count objects on operand stack
userdict begin                 % Push userdict on dict stack
/showpage { } def              % Redefine showpage, { } = null proc
0 setgray 0 setlinecap         % Prepare graphics state
1 setlinewidth 0 setlinejoin
10 setmiterlimit [ ] 0 setdash newpath
/languagelevel where           % If level not equal to 1 then
{pop languagelevel             % set strokeadjust and
1 ne                           % overprint to their defaults.
{false setstrokeadjust false setoverprint
} if
} if
} bd
/EndEPSF { %def
count op_count sub {pop} repeat            % Clean up stacks
countdictstack dict_count sub {end} repeat
b4_Inc_state restore
} bd
%%EndResource
%FOPBeginFontDict
%%IncludeResource: font Courier-Bold
%%IncludeResource: font Helvetica
%%IncludeResource: font Courier-BoldOblique
%%IncludeResource: font Courier-Oblique
%%IncludeResource: font Times-Roman
%%IncludeResource: font Helvetica-BoldOblique
%%IncludeResource: font Helvetica-Bold
%%IncludeResource: font Helvetica-Oblique
%%IncludeResource: font Times-BoldItalic
%%IncludeResource: font Courier
%%IncludeResource: font Times-Italic
%%IncludeResource: font Times-Bold
%%IncludeResource: font Symbol
%%IncludeResource: font ZapfDingbats
%FOPEndFontDict
%%BeginResource: encoding WinAnsiEncoding
/WinAnsiEncoding [
/.notdef /.notdef /.notdef /.notdef /.notdef
/.notdef /.notdef /.notdef /.notdef /.notdef
/.notdef /.notdef /.notdef /.notdef /.notdef
/.notdef /.notdef /.notdef /.notdef /.notdef
/.notdef /.notdef /.notdef /.notdef /.notdef
/.notdef /.notdef /.notdef /.notdef /.notdef
/.notdef /.notdef /space /exclam /quotedbl
/numbersign /dollar /percent /ampersand /quotesingle
/parenleft /parenright /asterisk /plus /comma
/hyphen /period /slash /zero /one
/two /three /four /five /six
/seven /eight /nine /colon /semicolon
/less /equal /greater /question /at
/A /B /C /D /E
/F /G /H /I /J
/K /L /M /N /O
/P /Q /R /S /T
/U /V /W /X /Y
/Z /bracketleft /backslash /bracketright /asciicircum
/underscore /quoteleft /a /b /c
/d /e /f /g /h
/i /j /k /l /m
/n /o /p /q /r
/s /t /u /v /w
/x /y /z /braceleft /bar
/braceright /asciitilde /bullet /Euro /bullet
/quotesinglbase /florin /quotedblbase /ellipsis /dagger
/daggerdbl /circumflex /perthousand /Scaron /guilsinglleft
/OE /bullet /Zcaron /bullet /bullet
/quoteleft /quoteright /quotedblleft /quotedblright /bullet
/endash /emdash /asciitilde /trademark /scaron
/guilsinglright /oe /bullet /zcaron /Ydieresis
/space /exclamdown /cent /sterling /currency
/yen /brokenbar /section /dieresis /copyright
/ordfeminine /guillemotleft /logicalnot /sfthyphen /registered
/macron /degree /plusminus /twosuperior /threesuperior
/acute /mu /paragraph /middot /cedilla
/onesuperior /ordmasculine /guillemotright /onequarter /onehalf
/threequarters /questiondown /Agrave /Aacute /Acircumflex
/Atilde /Adieresis /Aring /AE /Ccedilla
/Egrave /Eacute /Ecircumflex /Edieresis /Igrave
/Iacute /Icircumflex /Idieresis /Eth /Ntilde
/Ograve /Oacute /Ocircumflex /Otilde /Odieresis
/multiply /Oslash /Ugrave /Uacute /Ucircumflex
/Udieresis /Yacute /Thorn /germandbls /agrave
/aacute /acircumflex /atilde /adieresis /aring
/ae /ccedilla /egrave /eacute /ecircumflex
/edieresis /igrave /iacute /icircumflex /idieresis
/eth /ntilde /ograve /oacute /ocircumflex
/otilde /odieresis /divide /oslash /ugrave
/uacute /ucircumflex /udieresis /yacute /thorn
/ydieresis
] def
%%EndResource
%FOPBeginFontReencode
/Courier-Bold findfont
dup length dict begin
  {1 index /FID ne {def} {pop pop} ifelse} forall
  /Encoding WinAnsiEncoding def
  currentdict
end
/Courier-Bold exch definefont pop
/Helvetica findfont
dup length dict begin
  {1 index /FID ne {def} {pop pop} ifelse} forall
  /Encoding WinAnsiEncoding def
  currentdict
end
/Helvetica exch definefont pop
/Courier-BoldOblique findfont
dup length dict begin
  {1 index /FID ne {def} {pop pop} ifelse} forall
  /Encoding WinAnsiEncoding def
  currentdict
end
/Courier-BoldOblique exch definefont pop
/Courier-Oblique findfont
dup length dict begin
  {1 index /FID ne {def} {pop pop} ifelse} forall
  /Encoding WinAnsiEncoding def
  currentdict
end
/Courier-Oblique exch definefont pop
/Times-Roman findfont
dup length dict begin
  {1 index /FID ne {def} {pop pop} ifelse} forall
  /Encoding WinAnsiEncoding def
  currentdict
end
/Times-Roman exch definefont pop
/Helvetica-BoldOblique findfont
dup length dict begin
  {1 index /FID ne {def} {pop pop} ifelse} forall
  /Encoding WinAnsiEncoding def
  currentdict
end
/Helvetica-BoldOblique exch definefont pop
/Helvetica-Bold findfont
dup length dict begin
  {1 index /FID ne {def} {pop pop} ifelse} forall
  /Encoding WinAnsiEncoding def
  currentdict
end
/Helvetica-Bold exch definefont pop
/Helvetica-Oblique findfont
dup length dict begin
  {1 index /FID ne {def} {pop pop} ifelse} forall
  /Encoding WinAnsiEncoding def
  currentdict
end
/Helvetica-Oblique exch definefont pop
/Times-BoldItalic findfont
dup length dict begin
  {1 index /FID ne {def} {pop pop} ifelse} forall
  /Encoding WinAnsiEncoding def
  currentdict
end
/Times-BoldItalic exch definefont pop
/Courier findfont
dup length dict begin
  {1 index /FID ne {def} {pop pop} ifelse} forall
  /Encoding WinAnsiEncoding def
  currentdict
end
/Courier exch definefont pop
/Times-Italic findfont
dup length dict begin
  {1 index /FID ne {def} {pop pop} ifelse} forall
  /Encoding WinAnsiEncoding def
  currentdict
end
/Times-Italic exch definefont pop
/Times-Bold findfont
dup length dict begin
  {1 index /FID ne {def} {pop pop} ifelse} forall
  /Encoding WinAnsiEncoding def
  currentdict
end
/Times-Bold exch definefont pop
%FOPEndFontReencode
%%EndProlog
%%Page: 1 1
%%PageBoundingBox: 0 0 329 119
%%BeginPageSetup
[1 0 0 -1 0 119] CT
%%EndPageSetup
GS
[0.75 0 0 0.75 0 0.5] CT
0.997 GC
N
0 0 438 158 re
f
GR
GS
[0.75 0 0 0.75 0 0.5] CT
0.997 GC
N
0 0 438 158 re
f
GR
GS
[0.75 0 0 0.75 0 0.5] CT
0.997 GC
N
57 117.18 M
396 117.18 L
396 35.82 L
57 35.82 L
cp
f
GR
GS
[0.75 0 0 0.75 0 0.5] CT
0 GC
2 setlinecap
1 LJ
0.667 LW
N
57 117.18 M
396 117.18 L
S
GR
GS
[0.75 0 0 0.75 0 0.5] CT
0 GC
2 setlinecap
1 LJ
0.667 LW
N
57 35.82 M
396 35.82 L
S
GR
GS
[0.75 0 0 0.75 0 0.5] CT
0 GC
2 setlinecap
1 LJ
0.667 LW
N
57 117.18 M
57 113.79 L
S
GR
GS
[0.75 0 0 0.75 0 0.5] CT
0 GC
2 setlinecap
1 LJ
0.667 LW
N
124.8 117.18 M
124.8 113.79 L
S
GR
GS
[0.75 0 0 0.75 0 0.5] CT
0 GC
2 setlinecap
1 LJ
0.667 LW
N
192.6 117.18 M
192.6 113.79 L
S
GR
GS
[0.75 0 0 0.75 0 0.5] CT
0 GC
2 setlinecap
1 LJ
0.667 LW
N
260.4 117.18 M
260.4 113.79 L
S
GR
GS
[0.75 0 0 0.75 0 0.5] CT
0 GC
2 setlinecap
1 LJ
0.667 LW
N
328.2 117.18 M
328.2 113.79 L
S
GR
GS
[0.75 0 0 0.75 0 0.5] CT
0 GC
2 setlinecap
1 LJ
0.667 LW
N
396 117.18 M
396 113.79 L
S
GR
GS
[0.75 0 0 0.75 0 0.5] CT
0 GC
2 setlinecap
1 LJ
0.667 LW
N
57 35.82 M
57 39.21 L
S
GR
GS
[0.75 0 0 0.75 0 0.5] CT
0 GC
2 setlinecap
1 LJ
0.667 LW
N
124.8 35.82 M
124.8 39.21 L
S
GR
GS
[0.75 0 0 0.75 0 0.5] CT
0 GC
2 setlinecap
1 LJ
0.667 LW
N
192.6 35.82 M
192.6 39.21 L
S
GR
GS
[0.75 0 0 0.75 0 0.5] CT
0 GC
2 setlinecap
1 LJ
0.667 LW
N
260.4 35.82 M
260.4 39.21 L
S
GR
GS
[0.75 0 0 0.75 0 0.5] CT
0 GC
2 setlinecap
1 LJ
0.667 LW
N
328.2 35.82 M
328.2 39.21 L
S
GR
GS
[0.75 0 0 0.75 0 0.5] CT
0 GC
2 setlinecap
1 LJ
0.667 LW
N
396 35.82 M
396 39.21 L
S
GR
GS
[0.75 0 0 0.75 42.75 92.385] CT
0 GC
/Helvetica 13.333 F
GS
[1 0 0 1 0 0] CT
-4 14 moveto 
1 -1 scale
(0) t 
GR
GR
GS
[0.75 0 0 0.75 93.6 92.385] CT
0 GC
/Helvetica 13.333 F
GS
[1 0 0 1 0 0] CT
-9.5 14 moveto 
1 -1 scale
(0.2) t 
GR
GR
GS
[0.75 0 0 0.75 144.45 92.385] CT
0 GC
/Helvetica 13.333 F
GS
[1 0 0 1 0 0] CT
-9.5 14 moveto 
1 -1 scale
(0.4) t 
GR
GR
GS
[0.75 0 0 0.75 195.3 92.385] CT
0 GC
/Helvetica 13.333 F
GS
[1 0 0 1 0 0] CT
-9.5 14 moveto 
1 -1 scale
(0.6) t 
GR
GR
GS
[0.75 0 0 0.75 246.15001 92.385] CT
0 GC
/Helvetica 13.333 F
GS
[1 0 0 1 0 0] CT
-9.5 14 moveto 
1 -1 scale
(0.8) t 
GR
GR
GS
[0.75 0 0 0.75 297 92.385] CT
0 GC
/Helvetica 13.333 F
GS
[1 0 0 1 0 0] CT
-4 14 moveto 
1 -1 scale
(1) t 
GR
GR
GS
[0.75 0 0 0.75 0 0.5] CT
0 GC
2 setlinecap
1 LJ
0.667 LW
N
57 117.18 M
57 35.82 L
S
GR
GS
[0.75 0 0 0.75 0 0.5] CT
0 GC
2 setlinecap
1 LJ
0.667 LW
N
396 117.18 M
396 35.82 L
S
GR
GS
[0.75 0 0 0.75 0 0.5] CT
0 GC
2 setlinecap
1 LJ
0.667 LW
N
57 110.4 M
60.39 110.4 L
S
GR
GS
[0.75 0 0 0.75 0 0.5] CT
0 GC
2 setlinecap
1 LJ
0.667 LW
N
57 76.5 M
60.39 76.5 L
S
GR
GS
[0.75 0 0 0.75 0 0.5] CT
0 GC
2 setlinecap
1 LJ
0.667 LW
N
57 42.6 M
60.39 42.6 L
S
GR
GS
[0.75 0 0 0.75 0 0.5] CT
0 GC
2 setlinecap
1 LJ
0.667 LW
N
396 110.4 M
392.61 110.4 L
S
GR
GS
[0.75 0 0 0.75 0 0.5] CT
0 GC
2 setlinecap
1 LJ
0.667 LW
N
396 76.5 M
392.61 76.5 L
S
GR
GS
[0.75 0 0 0.75 0 0.5] CT
0 GC
2 setlinecap
1 LJ
0.667 LW
N
396 42.6 M
392.61 42.6 L
S
GR
GS
[0.75 0 0 0.75 38.75 83.3] CT
0 GC
/Helvetica 13.333 F
GS
[1 0 0 1 0 0] CT
-23 5.5 moveto 
1 -1 scale
(-0.1) t 
GR
GR
GS
[0.75 0 0 0.75 38.75 57.875] CT
0 GC
/Helvetica 13.333 F
GS
[1 0 0 1 0 0] CT
-8 5.5 moveto 
1 -1 scale
(0) t 
GR
GR
GS
[0.75 0 0 0.75 38.75 32.45] CT
0 GC
/Helvetica 13.333 F
GS
[1 0 0 1 0 0] CT
-19 5.5 moveto 
1 -1 scale
(0.1) t 
GR
GR
GS
[0.75 0 0 0.75 129.75 17.75] CT
0 GC
/Helvetica-Bold 14.667 F
GS
[1 0 0 1 0 0] CT
0 0 moveto 
1 -1 scale
(NACA) t 
GR
GR
GS
[0.75 0 0 0.75 162.75 23] CT
0 GC
/Helvetica-Bold 11.733 F
GS
[1 0 0 1 0 0] CT
0 0 moveto 
1 -1 scale
(3) t 
GR
GR
GS
[0.75 0 0 0.75 168 17.75] CT
0 GC
/Helvetica-Bold 14.667 F
GS
[1 0 0 1 0 0] CT
0 0 moveto 
1 -1 scale
(412.mat) t 
GR
GR
GS
[0.75 0 0 0.75 0 0.5] CT
0 GC
1 LJ
1.333 LW
N
396 76.07 M
393.726 75.98 L
389.688 75.821 L
384.903 75.632 L
379.496 75.419 L
373.673 75.189 L
367.62 74.948 L
361.452 74.701 L
355.232 74.45 L
348.989 74.195 L
342.737 73.937 L
336.482 73.676 L
330.227 73.411 L
323.971 73.142 L
317.716 72.869 L
311.46 72.593 L
305.204 72.312 L
298.947 72.028 L
292.689 71.741 L
286.428 71.45 L
280.165 71.156 L
273.899 70.859 L
267.629 70.56 L
261.356 70.26 L
255.081 69.958 L
248.806 69.657 L
242.535 69.356 L
236.27 69.058 L
230.013 68.762 L
223.766 68.471 L
217.53 68.186 L
211.298 67.907 L
205.08 67.636 L
198.878 67.378 L
192.66 67.131 L
186.418 66.889 L
180.178 66.644 L
173.934 66.392 L
167.681 66.138 L
161.436 65.884 L
155.213 65.635 L
149.024 65.396 L
142.876 65.172 L
136.777 64.968 L
130.735 64.79 L
124.76 64.646 L
118.866 64.542 L
113.071 64.487 L
107.403 64.488 L
101.9 64.554 L
96.618 64.691 L
91.626 64.903 L
87.003 65.188 L
82.819 65.538 L
79.115 65.94 L
75.892 66.38 L
73.111 66.844 L
70.723 67.321 L
68.665 67.809 L
66.88 68.304 L
65.321 68.803 L
63.958 69.31 L
62.758 69.83 L
61.695 70.365 L
60.75 70.911 L
59.918 71.47 L
59.198 72.056 L
58.586 72.674 L
58.071 73.317 L
57.648 73.979 L
57.329 74.654 L
57.124 75.334 L
57.021 76.008 L
57.003 76.677 L
57.062 77.352 L
57.206 78.046 L
57.446 78.76 L
57.781 79.488 L
58.203 80.227 L
58.709 80.978 L
59.309 81.741 L
60.021 82.515 L
60.854 83.309 L
61.812 84.137 L
62.91 85.004 L
64.175 85.909 L
65.645 86.86 L
67.353 87.873 L
69.338 88.954 L
71.645 90.102 L
74.324 91.32 L
77.402 92.598 L
80.885 93.914 L
84.753 95.243 L
88.955 96.55 L
93.44 97.811 L
98.15 99.006 L
103.034 100.12 L
108.057 101.147 L
113.19 102.082 L
118.413 102.926 L
123.711 103.677 L
129.073 104.339 L
134.491 104.912 L
139.958 105.399 L
145.469 105.803 L
151.018 106.125 L
156.602 106.368 L
162.216 106.535 L
167.859 106.626 L
173.528 106.645 L
179.222 106.592 L
184.948 106.468 L
190.725 106.279 L
196.564 106.03 L
202.459 105.731 L
208.377 105.391 L
214.302 105.007 L
220.242 104.581 L
226.193 104.114 L
232.151 103.609 L
238.115 103.066 L
244.085 102.485 L
250.059 101.87 L
256.036 101.219 L
262.015 100.534 L
267.996 99.815 L
273.979 99.064 L
279.961 98.281 L
285.943 97.467 L
291.924 96.621 L
297.903 95.744 L
303.88 94.838 L
309.853 93.901 L
315.822 92.935 L
321.787 91.939 L
327.747 90.914 L
333.7 89.859 L
339.646 88.776 L
345.583 87.663 L
351.507 86.522 L
357.411 85.354 L
363.281 84.162 L
369.09 82.951 L
374.781 81.734 L
380.256 80.535 L
385.357 79.392 L
389.908 78.35 L
393.792 77.445 L
396 76.924 L
S
GR
%%Trailer
%%Pages: 1
%%EOF
