%!PS-Adobe-3.0 EPSF-3.0
%%Creator: (MATLAB, The Mathworks, Inc. Version 9.2.0.538062 \(R2017a\). Operating System: Windows 8)
%%Title: Fotos/NACA_1412.eps
%%CreationDate: 2022-08-05T08:18:08
%%Pages: (atend)
%%BoundingBox:    21    15   298   110
%%LanguageLevel: 3
%%EndComments
%%BeginProlog
%%BeginResource: procset (Apache XML Graphics Std ProcSet) 1.2 0
%%Version: 1.2 0
%%Copyright: (Copyright 2001-2003,2010 The Apache Software Foundation. License terms: http://www.apache.org/licenses/LICENSE-2.0)
/bd{bind def}bind def
/ld{load def}bd
/GR/grestore ld
/M/moveto ld
/LJ/setlinejoin ld
/C/curveto ld
/f/fill ld
/LW/setlinewidth ld
/GC/setgray ld
/t/show ld
/N/newpath ld
/CT/concat ld
/cp/closepath ld
/S/stroke ld
/L/lineto ld
/CC/setcmykcolor ld
/A/ashow ld
/GS/gsave ld
/RC/setrgbcolor ld
/RM/rmoveto ld
/ML/setmiterlimit ld
/re {4 2 roll M
1 index 0 rlineto
0 exch rlineto
neg 0 rlineto
cp } bd
/_ctm matrix def
/_tm matrix def
/BT { _ctm currentmatrix pop matrix _tm copy pop 0 0 moveto } bd
/ET { _ctm setmatrix } bd
/iTm { _ctm setmatrix _tm concat } bd
/Tm { _tm astore pop iTm 0 0 moveto } bd
/ux 0.0 def
/uy 0.0 def
/F {
  /Tp exch def
  /Tf exch def
  Tf findfont Tp scalefont setfont
  /cf Tf def  /cs Tp def
} bd
/ULS {currentpoint /uy exch def /ux exch def} bd
/ULE {
  /Tcx currentpoint pop def
  gsave
  newpath
  cf findfont cs scalefont dup
  /FontMatrix get 0 get /Ts exch def /FontInfo get dup
  /UnderlinePosition get Ts mul /To exch def
  /UnderlineThickness get Ts mul /Tt exch def
  ux uy To add moveto  Tcx uy To add lineto
  Tt setlinewidth stroke
  grestore
} bd
/OLE {
  /Tcx currentpoint pop def
  gsave
  newpath
  cf findfont cs scalefont dup
  /FontMatrix get 0 get /Ts exch def /FontInfo get dup
  /UnderlinePosition get Ts mul /To exch def
  /UnderlineThickness get Ts mul /Tt exch def
  ux uy To add cs add moveto Tcx uy To add cs add lineto
  Tt setlinewidth stroke
  grestore
} bd
/SOE {
  /Tcx currentpoint pop def
  gsave
  newpath
  cf findfont cs scalefont dup
  /FontMatrix get 0 get /Ts exch def /FontInfo get dup
  /UnderlinePosition get Ts mul /To exch def
  /UnderlineThickness get Ts mul /Tt exch def
  ux uy To add cs 10 mul 26 idiv add moveto Tcx uy To add cs 10 mul 26 idiv add lineto
  Tt setlinewidth stroke
  grestore
} bd
/QT {
/Y22 exch store
/X22 exch store
/Y21 exch store
/X21 exch store
currentpoint
/Y21 load 2 mul add 3 div exch
/X21 load 2 mul add 3 div exch
/X21 load 2 mul /X22 load add 3 div
/Y21 load 2 mul /Y22 load add 3 div
/X22 load /Y22 load curveto
} bd
/SSPD {
dup length /d exch dict def
{
/v exch def
/k exch def
currentpagedevice k known {
/cpdv currentpagedevice k get def
v cpdv ne {
/upd false def
/nullv v type /nulltype eq def
/nullcpdv cpdv type /nulltype eq def
nullv nullcpdv or
{
/upd true def
} {
/sametype v type cpdv type eq def
sametype {
v type /arraytype eq {
/vlen v length def
/cpdvlen cpdv length def
vlen cpdvlen eq {
0 1 vlen 1 sub {
/i exch def
/obj v i get def
/cpdobj cpdv i get def
obj cpdobj ne {
/upd true def
exit
} if
} for
} {
/upd true def
} ifelse
} {
v type /dicttype eq {
v {
/dv exch def
/dk exch def
/cpddv cpdv dk get def
dv cpddv ne {
/upd true def
exit
} if
} forall
} {
/upd true def
} ifelse
} ifelse
} if
} ifelse
upd true eq {
d k v put
} if
} if
} if
} forall
d length 0 gt {
d setpagedevice
} if
} bd
/RE { % /NewFontName [NewEncodingArray] /FontName RE -
  findfont dup length dict begin
  {
    1 index /FID ne
    {def} {pop pop} ifelse
  } forall
  /Encoding exch def
  /FontName 1 index def
  currentdict definefont pop
  end
} bind def
%%EndResource
%%BeginResource: procset (Apache XML Graphics EPS ProcSet) 1.0 0
%%Version: 1.0 0
%%Copyright: (Copyright 2002-2003 The Apache Software Foundation. License terms: http://www.apache.org/licenses/LICENSE-2.0)
/BeginEPSF { %def
/b4_Inc_state save def         % Save state for cleanup
/dict_count countdictstack def % Count objects on dict stack
/op_count count 1 sub def      % Count objects on operand stack
userdict begin                 % Push userdict on dict stack
/showpage { } def              % Redefine showpage, { } = null proc
0 setgray 0 setlinecap         % Prepare graphics state
1 setlinewidth 0 setlinejoin
10 setmiterlimit [ ] 0 setdash newpath
/languagelevel where           % If level not equal to 1 then
{pop languagelevel             % set strokeadjust and
1 ne                           % overprint to their defaults.
{false setstrokeadjust false setoverprint
} if
} if
} bd
/EndEPSF { %def
count op_count sub {pop} repeat            % Clean up stacks
countdictstack dict_count sub {end} repeat
b4_Inc_state restore
} bd
%%EndResource
%FOPBeginFontDict
%%IncludeResource: font Courier-Bold
%%IncludeResource: font Helvetica
%%IncludeResource: font Courier-BoldOblique
%%IncludeResource: font Courier-Oblique
%%IncludeResource: font Times-Roman
%%IncludeResource: font Helvetica-BoldOblique
%%IncludeResource: font Helvetica-Bold
%%IncludeResource: font Helvetica-Oblique
%%IncludeResource: font Times-BoldItalic
%%IncludeResource: font Courier
%%IncludeResource: font Times-Italic
%%IncludeResource: font Times-Bold
%%IncludeResource: font Symbol
%%IncludeResource: font ZapfDingbats
%FOPEndFontDict
%%BeginResource: encoding WinAnsiEncoding
/WinAnsiEncoding [
/.notdef /.notdef /.notdef /.notdef /.notdef
/.notdef /.notdef /.notdef /.notdef /.notdef
/.notdef /.notdef /.notdef /.notdef /.notdef
/.notdef /.notdef /.notdef /.notdef /.notdef
/.notdef /.notdef /.notdef /.notdef /.notdef
/.notdef /.notdef /.notdef /.notdef /.notdef
/.notdef /.notdef /space /exclam /quotedbl
/numbersign /dollar /percent /ampersand /quotesingle
/parenleft /parenright /asterisk /plus /comma
/hyphen /period /slash /zero /one
/two /three /four /five /six
/seven /eight /nine /colon /semicolon
/less /equal /greater /question /at
/A /B /C /D /E
/F /G /H /I /J
/K /L /M /N /O
/P /Q /R /S /T
/U /V /W /X /Y
/Z /bracketleft /backslash /bracketright /asciicircum
/underscore /quoteleft /a /b /c
/d /e /f /g /h
/i /j /k /l /m
/n /o /p /q /r
/s /t /u /v /w
/x /y /z /braceleft /bar
/braceright /asciitilde /bullet /Euro /bullet
/quotesinglbase /florin /quotedblbase /ellipsis /dagger
/daggerdbl /circumflex /perthousand /Scaron /guilsinglleft
/OE /bullet /Zcaron /bullet /bullet
/quoteleft /quoteright /quotedblleft /quotedblright /bullet
/endash /emdash /asciitilde /trademark /scaron
/guilsinglright /oe /bullet /zcaron /Ydieresis
/space /exclamdown /cent /sterling /currency
/yen /brokenbar /section /dieresis /copyright
/ordfeminine /guillemotleft /logicalnot /sfthyphen /registered
/macron /degree /plusminus /twosuperior /threesuperior
/acute /mu /paragraph /middot /cedilla
/onesuperior /ordmasculine /guillemotright /onequarter /onehalf
/threequarters /questiondown /Agrave /Aacute /Acircumflex
/Atilde /Adieresis /Aring /AE /Ccedilla
/Egrave /Eacute /Ecircumflex /Edieresis /Igrave
/Iacute /Icircumflex /Idieresis /Eth /Ntilde
/Ograve /Oacute /Ocircumflex /Otilde /Odieresis
/multiply /Oslash /Ugrave /Uacute /Ucircumflex
/Udieresis /Yacute /Thorn /germandbls /agrave
/aacute /acircumflex /atilde /adieresis /aring
/ae /ccedilla /egrave /eacute /ecircumflex
/edieresis /igrave /iacute /icircumflex /idieresis
/eth /ntilde /ograve /oacute /ocircumflex
/otilde /odieresis /divide /oslash /ugrave
/uacute /ucircumflex /udieresis /yacute /thorn
/ydieresis
] def
%%EndResource
%FOPBeginFontReencode
/Courier-Bold findfont
dup length dict begin
  {1 index /FID ne {def} {pop pop} ifelse} forall
  /Encoding WinAnsiEncoding def
  currentdict
end
/Courier-Bold exch definefont pop
/Helvetica findfont
dup length dict begin
  {1 index /FID ne {def} {pop pop} ifelse} forall
  /Encoding WinAnsiEncoding def
  currentdict
end
/Helvetica exch definefont pop
/Courier-BoldOblique findfont
dup length dict begin
  {1 index /FID ne {def} {pop pop} ifelse} forall
  /Encoding WinAnsiEncoding def
  currentdict
end
/Courier-BoldOblique exch definefont pop
/Courier-Oblique findfont
dup length dict begin
  {1 index /FID ne {def} {pop pop} ifelse} forall
  /Encoding WinAnsiEncoding def
  currentdict
end
/Courier-Oblique exch definefont pop
/Times-Roman findfont
dup length dict begin
  {1 index /FID ne {def} {pop pop} ifelse} forall
  /Encoding WinAnsiEncoding def
  currentdict
end
/Times-Roman exch definefont pop
/Helvetica-BoldOblique findfont
dup length dict begin
  {1 index /FID ne {def} {pop pop} ifelse} forall
  /Encoding WinAnsiEncoding def
  currentdict
end
/Helvetica-BoldOblique exch definefont pop
/Helvetica-Bold findfont
dup length dict begin
  {1 index /FID ne {def} {pop pop} ifelse} forall
  /Encoding WinAnsiEncoding def
  currentdict
end
/Helvetica-Bold exch definefont pop
/Helvetica-Oblique findfont
dup length dict begin
  {1 index /FID ne {def} {pop pop} ifelse} forall
  /Encoding WinAnsiEncoding def
  currentdict
end
/Helvetica-Oblique exch definefont pop
/Times-BoldItalic findfont
dup length dict begin
  {1 index /FID ne {def} {pop pop} ifelse} forall
  /Encoding WinAnsiEncoding def
  currentdict
end
/Times-BoldItalic exch definefont pop
/Courier findfont
dup length dict begin
  {1 index /FID ne {def} {pop pop} ifelse} forall
  /Encoding WinAnsiEncoding def
  currentdict
end
/Courier exch definefont pop
/Times-Italic findfont
dup length dict begin
  {1 index /FID ne {def} {pop pop} ifelse} forall
  /Encoding WinAnsiEncoding def
  currentdict
end
/Times-Italic exch definefont pop
/Times-Bold findfont
dup length dict begin
  {1 index /FID ne {def} {pop pop} ifelse} forall
  /Encoding WinAnsiEncoding def
  currentdict
end
/Times-Bold exch definefont pop
%FOPEndFontReencode
%%EndProlog
%%Page: 1 1
%%PageBoundingBox: 0 0 329 119
%%BeginPageSetup
[1 0 0 -1 0 119] CT
%%EndPageSetup
GS
[0.75 0 0 0.75 0 0.5] CT
0.997 GC
N
0 0 438 158 re
f
GR
GS
[0.75 0 0 0.75 0 0.5] CT
0.997 GC
N
0 0 438 158 re
f
GR
GS
[0.75 0 0 0.75 0 0.5] CT
0.997 GC
N
57 117.18 M
396 117.18 L
396 35.82 L
57 35.82 L
cp
f
GR
GS
[0.75 0 0 0.75 0 0.5] CT
0 GC
2 setlinecap
1 LJ
0.667 LW
N
57 117.18 M
396 117.18 L
S
GR
GS
[0.75 0 0 0.75 0 0.5] CT
0 GC
2 setlinecap
1 LJ
0.667 LW
N
57 35.82 M
396 35.82 L
S
GR
GS
[0.75 0 0 0.75 0 0.5] CT
0 GC
2 setlinecap
1 LJ
0.667 LW
N
57 117.18 M
57 113.79 L
S
GR
GS
[0.75 0 0 0.75 0 0.5] CT
0 GC
2 setlinecap
1 LJ
0.667 LW
N
124.8 117.18 M
124.8 113.79 L
S
GR
GS
[0.75 0 0 0.75 0 0.5] CT
0 GC
2 setlinecap
1 LJ
0.667 LW
N
192.6 117.18 M
192.6 113.79 L
S
GR
GS
[0.75 0 0 0.75 0 0.5] CT
0 GC
2 setlinecap
1 LJ
0.667 LW
N
260.4 117.18 M
260.4 113.79 L
S
GR
GS
[0.75 0 0 0.75 0 0.5] CT
0 GC
2 setlinecap
1 LJ
0.667 LW
N
328.2 117.18 M
328.2 113.79 L
S
GR
GS
[0.75 0 0 0.75 0 0.5] CT
0 GC
2 setlinecap
1 LJ
0.667 LW
N
396 117.18 M
396 113.79 L
S
GR
GS
[0.75 0 0 0.75 0 0.5] CT
0 GC
2 setlinecap
1 LJ
0.667 LW
N
57 35.82 M
57 39.21 L
S
GR
GS
[0.75 0 0 0.75 0 0.5] CT
0 GC
2 setlinecap
1 LJ
0.667 LW
N
124.8 35.82 M
124.8 39.21 L
S
GR
GS
[0.75 0 0 0.75 0 0.5] CT
0 GC
2 setlinecap
1 LJ
0.667 LW
N
192.6 35.82 M
192.6 39.21 L
S
GR
GS
[0.75 0 0 0.75 0 0.5] CT
0 GC
2 setlinecap
1 LJ
0.667 LW
N
260.4 35.82 M
260.4 39.21 L
S
GR
GS
[0.75 0 0 0.75 0 0.5] CT
0 GC
2 setlinecap
1 LJ
0.667 LW
N
328.2 35.82 M
328.2 39.21 L
S
GR
GS
[0.75 0 0 0.75 0 0.5] CT
0 GC
2 setlinecap
1 LJ
0.667 LW
N
396 35.82 M
396 39.21 L
S
GR
GS
[0.75 0 0 0.75 42.75 92.385] CT
0 GC
/Helvetica 13.333 F
GS
[1 0 0 1 0 0] CT
-4 14 moveto 
1 -1 scale
(0) t 
GR
GR
GS
[0.75 0 0 0.75 93.6 92.385] CT
0 GC
/Helvetica 13.333 F
GS
[1 0 0 1 0 0] CT
-9.5 14 moveto 
1 -1 scale
(0.2) t 
GR
GR
GS
[0.75 0 0 0.75 144.45 92.385] CT
0 GC
/Helvetica 13.333 F
GS
[1 0 0 1 0 0] CT
-9.5 14 moveto 
1 -1 scale
(0.4) t 
GR
GR
GS
[0.75 0 0 0.75 195.3 92.385] CT
0 GC
/Helvetica 13.333 F
GS
[1 0 0 1 0 0] CT
-9.5 14 moveto 
1 -1 scale
(0.6) t 
GR
GR
GS
[0.75 0 0 0.75 246.15001 92.385] CT
0 GC
/Helvetica 13.333 F
GS
[1 0 0 1 0 0] CT
-9.5 14 moveto 
1 -1 scale
(0.8) t 
GR
GR
GS
[0.75 0 0 0.75 297 92.385] CT
0 GC
/Helvetica 13.333 F
GS
[1 0 0 1 0 0] CT
-4 14 moveto 
1 -1 scale
(1) t 
GR
GR
GS
[0.75 0 0 0.75 0 0.5] CT
0 GC
2 setlinecap
1 LJ
0.667 LW
N
57 117.18 M
57 35.82 L
S
GR
GS
[0.75 0 0 0.75 0 0.5] CT
0 GC
2 setlinecap
1 LJ
0.667 LW
N
396 117.18 M
396 35.82 L
S
GR
GS
[0.75 0 0 0.75 0 0.5] CT
0 GC
2 setlinecap
1 LJ
0.667 LW
N
57 110.4 M
60.39 110.4 L
S
GR
GS
[0.75 0 0 0.75 0 0.5] CT
0 GC
2 setlinecap
1 LJ
0.667 LW
N
57 76.5 M
60.39 76.5 L
S
GR
GS
[0.75 0 0 0.75 0 0.5] CT
0 GC
2 setlinecap
1 LJ
0.667 LW
N
57 42.6 M
60.39 42.6 L
S
GR
GS
[0.75 0 0 0.75 0 0.5] CT
0 GC
2 setlinecap
1 LJ
0.667 LW
N
396 110.4 M
392.61 110.4 L
S
GR
GS
[0.75 0 0 0.75 0 0.5] CT
0 GC
2 setlinecap
1 LJ
0.667 LW
N
396 76.5 M
392.61 76.5 L
S
GR
GS
[0.75 0 0 0.75 0 0.5] CT
0 GC
2 setlinecap
1 LJ
0.667 LW
N
396 42.6 M
392.61 42.6 L
S
GR
GS
[0.75 0 0 0.75 38.75 83.3] CT
0 GC
/Helvetica 13.333 F
GS
[1 0 0 1 0 0] CT
-23 5.5 moveto 
1 -1 scale
(-0.1) t 
GR
GR
GS
[0.75 0 0 0.75 38.75 57.875] CT
0 GC
/Helvetica 13.333 F
GS
[1 0 0 1 0 0] CT
-8 5.5 moveto 
1 -1 scale
(0) t 
GR
GR
GS
[0.75 0 0 0.75 38.75 32.45] CT
0 GC
/Helvetica 13.333 F
GS
[1 0 0 1 0 0] CT
-19 5.5 moveto 
1 -1 scale
(0.1) t 
GR
GR
GS
[0.75 0 0 0.75 129.75 17.75] CT
0 GC
/Helvetica-Bold 14.667 F
GS
[1 0 0 1 0 0] CT
0 0 moveto 
1 -1 scale
(NACA) t 
GR
GR
GS
[0.75 0 0 0.75 162.75 23] CT
0 GC
/Helvetica-Bold 11.733 F
GS
[1 0 0 1 0 0] CT
0 0 moveto 
1 -1 scale
(1) t 
GR
GR
GS
[0.75 0 0 0.75 168 17.75] CT
0 GC
/Helvetica-Bold 14.667 F
GS
[1 0 0 1 0 0] CT
0 0 moveto 
1 -1 scale
(412.mat) t 
GR
GR
GS
[0.75 0 0 0.75 0 0.5] CT
0 GC
1 LJ
1.333 LW
N
396 76.071 M
393.747 75.833 L
389.768 75.42 L
385.07 74.939 L
379.768 74.404 L
374.048 73.837 L
368.085 73.256 L
361.993 72.672 L
355.837 72.092 L
349.649 71.519 L
343.444 70.954 L
337.23 70.397 L
331.011 69.848 L
324.788 69.308 L
318.562 68.776 L
312.336 68.252 L
306.112 67.737 L
299.887 67.231 L
293.66 66.733 L
287.436 66.244 L
281.215 65.765 L
274.996 65.295 L
268.781 64.836 L
262.569 64.388 L
256.363 63.951 L
250.161 63.527 L
243.967 63.116 L
237.778 62.719 L
231.598 62.337 L
225.427 61.972 L
219.265 61.624 L
213.113 61.295 L
206.971 60.985 L
200.843 60.698 L
194.722 60.436 L
188.599 60.196 L
182.477 59.979 L
176.365 59.784 L
170.272 59.614 L
164.203 59.471 L
158.162 59.36 L
152.154 59.283 L
146.184 59.243 L
140.258 59.246 L
134.382 59.295 L
128.564 59.395 L
122.814 59.552 L
117.145 59.77 L
111.577 60.054 L
106.135 60.409 L
100.855 60.837 L
95.786 61.339 L
90.991 61.911 L
86.538 62.543 L
82.487 63.22 L
78.879 63.922 L
75.717 64.633 L
72.973 65.34 L
70.605 66.032 L
68.56 66.711 L
66.783 67.375 L
65.233 68.022 L
63.881 68.657 L
62.697 69.293 L
61.649 69.929 L
60.719 70.559 L
59.902 71.188 L
59.199 71.83 L
58.604 72.493 L
58.1 73.169 L
57.678 73.851 L
57.353 74.536 L
57.139 75.223 L
57.028 75.903 L
57.001 76.576 L
57.051 77.25 L
57.185 77.939 L
57.418 78.64 L
57.751 79.348 L
58.174 80.059 L
58.68 80.772 L
59.281 81.482 L
59.99 82.186 L
60.817 82.893 L
61.76 83.617 L
62.829 84.363 L
64.047 85.124 L
65.448 85.905 L
67.063 86.721 L
68.924 87.577 L
71.074 88.47 L
73.568 89.404 L
76.446 90.376 L
79.738 91.374 L
83.45 92.379 L
87.558 93.369 L
92.011 94.32 L
96.748 95.212 L
101.711 96.033 L
106.849 96.776 L
112.125 97.436 L
117.509 98.016 L
122.982 98.516 L
128.528 98.939 L
134.137 99.289 L
139.8 99.568 L
145.51 99.781 L
151.263 99.93 L
157.052 100.019 L
162.873 100.051 L
168.723 100.028 L
174.599 99.953 L
180.499 99.827 L
186.426 99.653 L
192.384 99.434 L
198.376 99.175 L
204.395 98.88 L
210.428 98.551 L
216.472 98.19 L
222.529 97.798 L
228.596 97.377 L
234.67 96.928 L
240.752 96.451 L
246.84 95.948 L
252.934 95.421 L
259.032 94.869 L
265.134 94.294 L
271.239 93.696 L
277.347 93.076 L
283.456 92.434 L
289.567 91.772 L
295.677 91.089 L
301.786 90.385 L
307.897 89.661 L
314.007 88.918 L
320.112 88.155 L
326.213 87.373 L
332.313 86.571 L
338.406 85.749 L
344.492 84.909 L
350.567 84.049 L
356.624 83.171 L
362.646 82.277 L
368.603 81.372 L
374.434 80.465 L
380.029 79.576 L
385.226 78.732 L
389.839 77.967 L
393.768 77.304 L
396 76.925 L
S
GR
%%Trailer
%%Pages: 1
%%EOF
