%!PS-Adobe-3.0 EPSF-3.0
%%Creator: (MATLAB, The Mathworks, Inc. Version 9.2.0.538062 \(R2017a\). Operating System: Windows 8)
%%Title: Fotos/NACA_4412.eps
%%CreationDate: 2022-08-05T08:18:12
%%Pages: (atend)
%%BoundingBox:    21    15   298   110
%%LanguageLevel: 3
%%EndComments
%%BeginProlog
%%BeginResource: procset (Apache XML Graphics Std ProcSet) 1.2 0
%%Version: 1.2 0
%%Copyright: (Copyright 2001-2003,2010 The Apache Software Foundation. License terms: http://www.apache.org/licenses/LICENSE-2.0)
/bd{bind def}bind def
/ld{load def}bd
/GR/grestore ld
/M/moveto ld
/LJ/setlinejoin ld
/C/curveto ld
/f/fill ld
/LW/setlinewidth ld
/GC/setgray ld
/t/show ld
/N/newpath ld
/CT/concat ld
/cp/closepath ld
/S/stroke ld
/L/lineto ld
/CC/setcmykcolor ld
/A/ashow ld
/GS/gsave ld
/RC/setrgbcolor ld
/RM/rmoveto ld
/ML/setmiterlimit ld
/re {4 2 roll M
1 index 0 rlineto
0 exch rlineto
neg 0 rlineto
cp } bd
/_ctm matrix def
/_tm matrix def
/BT { _ctm currentmatrix pop matrix _tm copy pop 0 0 moveto } bd
/ET { _ctm setmatrix } bd
/iTm { _ctm setmatrix _tm concat } bd
/Tm { _tm astore pop iTm 0 0 moveto } bd
/ux 0.0 def
/uy 0.0 def
/F {
  /Tp exch def
  /Tf exch def
  Tf findfont Tp scalefont setfont
  /cf Tf def  /cs Tp def
} bd
/ULS {currentpoint /uy exch def /ux exch def} bd
/ULE {
  /Tcx currentpoint pop def
  gsave
  newpath
  cf findfont cs scalefont dup
  /FontMatrix get 0 get /Ts exch def /FontInfo get dup
  /UnderlinePosition get Ts mul /To exch def
  /UnderlineThickness get Ts mul /Tt exch def
  ux uy To add moveto  Tcx uy To add lineto
  Tt setlinewidth stroke
  grestore
} bd
/OLE {
  /Tcx currentpoint pop def
  gsave
  newpath
  cf findfont cs scalefont dup
  /FontMatrix get 0 get /Ts exch def /FontInfo get dup
  /UnderlinePosition get Ts mul /To exch def
  /UnderlineThickness get Ts mul /Tt exch def
  ux uy To add cs add moveto Tcx uy To add cs add lineto
  Tt setlinewidth stroke
  grestore
} bd
/SOE {
  /Tcx currentpoint pop def
  gsave
  newpath
  cf findfont cs scalefont dup
  /FontMatrix get 0 get /Ts exch def /FontInfo get dup
  /UnderlinePosition get Ts mul /To exch def
  /UnderlineThickness get Ts mul /Tt exch def
  ux uy To add cs 10 mul 26 idiv add moveto Tcx uy To add cs 10 mul 26 idiv add lineto
  Tt setlinewidth stroke
  grestore
} bd
/QT {
/Y22 exch store
/X22 exch store
/Y21 exch store
/X21 exch store
currentpoint
/Y21 load 2 mul add 3 div exch
/X21 load 2 mul add 3 div exch
/X21 load 2 mul /X22 load add 3 div
/Y21 load 2 mul /Y22 load add 3 div
/X22 load /Y22 load curveto
} bd
/SSPD {
dup length /d exch dict def
{
/v exch def
/k exch def
currentpagedevice k known {
/cpdv currentpagedevice k get def
v cpdv ne {
/upd false def
/nullv v type /nulltype eq def
/nullcpdv cpdv type /nulltype eq def
nullv nullcpdv or
{
/upd true def
} {
/sametype v type cpdv type eq def
sametype {
v type /arraytype eq {
/vlen v length def
/cpdvlen cpdv length def
vlen cpdvlen eq {
0 1 vlen 1 sub {
/i exch def
/obj v i get def
/cpdobj cpdv i get def
obj cpdobj ne {
/upd true def
exit
} if
} for
} {
/upd true def
} ifelse
} {
v type /dicttype eq {
v {
/dv exch def
/dk exch def
/cpddv cpdv dk get def
dv cpddv ne {
/upd true def
exit
} if
} forall
} {
/upd true def
} ifelse
} ifelse
} if
} ifelse
upd true eq {
d k v put
} if
} if
} if
} forall
d length 0 gt {
d setpagedevice
} if
} bd
/RE { % /NewFontName [NewEncodingArray] /FontName RE -
  findfont dup length dict begin
  {
    1 index /FID ne
    {def} {pop pop} ifelse
  } forall
  /Encoding exch def
  /FontName 1 index def
  currentdict definefont pop
  end
} bind def
%%EndResource
%%BeginResource: procset (Apache XML Graphics EPS ProcSet) 1.0 0
%%Version: 1.0 0
%%Copyright: (Copyright 2002-2003 The Apache Software Foundation. License terms: http://www.apache.org/licenses/LICENSE-2.0)
/BeginEPSF { %def
/b4_Inc_state save def         % Save state for cleanup
/dict_count countdictstack def % Count objects on dict stack
/op_count count 1 sub def      % Count objects on operand stack
userdict begin                 % Push userdict on dict stack
/showpage { } def              % Redefine showpage, { } = null proc
0 setgray 0 setlinecap         % Prepare graphics state
1 setlinewidth 0 setlinejoin
10 setmiterlimit [ ] 0 setdash newpath
/languagelevel where           % If level not equal to 1 then
{pop languagelevel             % set strokeadjust and
1 ne                           % overprint to their defaults.
{false setstrokeadjust false setoverprint
} if
} if
} bd
/EndEPSF { %def
count op_count sub {pop} repeat            % Clean up stacks
countdictstack dict_count sub {end} repeat
b4_Inc_state restore
} bd
%%EndResource
%FOPBeginFontDict
%%IncludeResource: font Courier-Bold
%%IncludeResource: font Helvetica
%%IncludeResource: font Courier-BoldOblique
%%IncludeResource: font Courier-Oblique
%%IncludeResource: font Times-Roman
%%IncludeResource: font Helvetica-BoldOblique
%%IncludeResource: font Helvetica-Bold
%%IncludeResource: font Helvetica-Oblique
%%IncludeResource: font Times-BoldItalic
%%IncludeResource: font Courier
%%IncludeResource: font Times-Italic
%%IncludeResource: font Times-Bold
%%IncludeResource: font Symbol
%%IncludeResource: font ZapfDingbats
%FOPEndFontDict
%%BeginResource: encoding WinAnsiEncoding
/WinAnsiEncoding [
/.notdef /.notdef /.notdef /.notdef /.notdef
/.notdef /.notdef /.notdef /.notdef /.notdef
/.notdef /.notdef /.notdef /.notdef /.notdef
/.notdef /.notdef /.notdef /.notdef /.notdef
/.notdef /.notdef /.notdef /.notdef /.notdef
/.notdef /.notdef /.notdef /.notdef /.notdef
/.notdef /.notdef /space /exclam /quotedbl
/numbersign /dollar /percent /ampersand /quotesingle
/parenleft /parenright /asterisk /plus /comma
/hyphen /period /slash /zero /one
/two /three /four /five /six
/seven /eight /nine /colon /semicolon
/less /equal /greater /question /at
/A /B /C /D /E
/F /G /H /I /J
/K /L /M /N /O
/P /Q /R /S /T
/U /V /W /X /Y
/Z /bracketleft /backslash /bracketright /asciicircum
/underscore /quoteleft /a /b /c
/d /e /f /g /h
/i /j /k /l /m
/n /o /p /q /r
/s /t /u /v /w
/x /y /z /braceleft /bar
/braceright /asciitilde /bullet /Euro /bullet
/quotesinglbase /florin /quotedblbase /ellipsis /dagger
/daggerdbl /circumflex /perthousand /Scaron /guilsinglleft
/OE /bullet /Zcaron /bullet /bullet
/quoteleft /quoteright /quotedblleft /quotedblright /bullet
/endash /emdash /asciitilde /trademark /scaron
/guilsinglright /oe /bullet /zcaron /Ydieresis
/space /exclamdown /cent /sterling /currency
/yen /brokenbar /section /dieresis /copyright
/ordfeminine /guillemotleft /logicalnot /sfthyphen /registered
/macron /degree /plusminus /twosuperior /threesuperior
/acute /mu /paragraph /middot /cedilla
/onesuperior /ordmasculine /guillemotright /onequarter /onehalf
/threequarters /questiondown /Agrave /Aacute /Acircumflex
/Atilde /Adieresis /Aring /AE /Ccedilla
/Egrave /Eacute /Ecircumflex /Edieresis /Igrave
/Iacute /Icircumflex /Idieresis /Eth /Ntilde
/Ograve /Oacute /Ocircumflex /Otilde /Odieresis
/multiply /Oslash /Ugrave /Uacute /Ucircumflex
/Udieresis /Yacute /Thorn /germandbls /agrave
/aacute /acircumflex /atilde /adieresis /aring
/ae /ccedilla /egrave /eacute /ecircumflex
/edieresis /igrave /iacute /icircumflex /idieresis
/eth /ntilde /ograve /oacute /ocircumflex
/otilde /odieresis /divide /oslash /ugrave
/uacute /ucircumflex /udieresis /yacute /thorn
/ydieresis
] def
%%EndResource
%FOPBeginFontReencode
/Courier-Bold findfont
dup length dict begin
  {1 index /FID ne {def} {pop pop} ifelse} forall
  /Encoding WinAnsiEncoding def
  currentdict
end
/Courier-Bold exch definefont pop
/Helvetica findfont
dup length dict begin
  {1 index /FID ne {def} {pop pop} ifelse} forall
  /Encoding WinAnsiEncoding def
  currentdict
end
/Helvetica exch definefont pop
/Courier-BoldOblique findfont
dup length dict begin
  {1 index /FID ne {def} {pop pop} ifelse} forall
  /Encoding WinAnsiEncoding def
  currentdict
end
/Courier-BoldOblique exch definefont pop
/Courier-Oblique findfont
dup length dict begin
  {1 index /FID ne {def} {pop pop} ifelse} forall
  /Encoding WinAnsiEncoding def
  currentdict
end
/Courier-Oblique exch definefont pop
/Times-Roman findfont
dup length dict begin
  {1 index /FID ne {def} {pop pop} ifelse} forall
  /Encoding WinAnsiEncoding def
  currentdict
end
/Times-Roman exch definefont pop
/Helvetica-BoldOblique findfont
dup length dict begin
  {1 index /FID ne {def} {pop pop} ifelse} forall
  /Encoding WinAnsiEncoding def
  currentdict
end
/Helvetica-BoldOblique exch definefont pop
/Helvetica-Bold findfont
dup length dict begin
  {1 index /FID ne {def} {pop pop} ifelse} forall
  /Encoding WinAnsiEncoding def
  currentdict
end
/Helvetica-Bold exch definefont pop
/Helvetica-Oblique findfont
dup length dict begin
  {1 index /FID ne {def} {pop pop} ifelse} forall
  /Encoding WinAnsiEncoding def
  currentdict
end
/Helvetica-Oblique exch definefont pop
/Times-BoldItalic findfont
dup length dict begin
  {1 index /FID ne {def} {pop pop} ifelse} forall
  /Encoding WinAnsiEncoding def
  currentdict
end
/Times-BoldItalic exch definefont pop
/Courier findfont
dup length dict begin
  {1 index /FID ne {def} {pop pop} ifelse} forall
  /Encoding WinAnsiEncoding def
  currentdict
end
/Courier exch definefont pop
/Times-Italic findfont
dup length dict begin
  {1 index /FID ne {def} {pop pop} ifelse} forall
  /Encoding WinAnsiEncoding def
  currentdict
end
/Times-Italic exch definefont pop
/Times-Bold findfont
dup length dict begin
  {1 index /FID ne {def} {pop pop} ifelse} forall
  /Encoding WinAnsiEncoding def
  currentdict
end
/Times-Bold exch definefont pop
%FOPEndFontReencode
%%EndProlog
%%Page: 1 1
%%PageBoundingBox: 0 0 329 119
%%BeginPageSetup
[1 0 0 -1 0 119] CT
%%EndPageSetup
GS
[0.75 0 0 0.75 0 0.5] CT
0.997 GC
N
0 0 438 158 re
f
GR
GS
[0.75 0 0 0.75 0 0.5] CT
0.997 GC
N
0 0 438 158 re
f
GR
GS
[0.75 0 0 0.75 0 0.5] CT
0.997 GC
N
57 117.18 M
396 117.18 L
396 35.82 L
57 35.82 L
cp
f
GR
GS
[0.75 0 0 0.75 0 0.5] CT
0 GC
2 setlinecap
1 LJ
0.667 LW
N
57 117.18 M
396 117.18 L
S
GR
GS
[0.75 0 0 0.75 0 0.5] CT
0 GC
2 setlinecap
1 LJ
0.667 LW
N
57 35.82 M
396 35.82 L
S
GR
GS
[0.75 0 0 0.75 0 0.5] CT
0 GC
2 setlinecap
1 LJ
0.667 LW
N
57 117.18 M
57 113.79 L
S
GR
GS
[0.75 0 0 0.75 0 0.5] CT
0 GC
2 setlinecap
1 LJ
0.667 LW
N
124.8 117.18 M
124.8 113.79 L
S
GR
GS
[0.75 0 0 0.75 0 0.5] CT
0 GC
2 setlinecap
1 LJ
0.667 LW
N
192.6 117.18 M
192.6 113.79 L
S
GR
GS
[0.75 0 0 0.75 0 0.5] CT
0 GC
2 setlinecap
1 LJ
0.667 LW
N
260.4 117.18 M
260.4 113.79 L
S
GR
GS
[0.75 0 0 0.75 0 0.5] CT
0 GC
2 setlinecap
1 LJ
0.667 LW
N
328.2 117.18 M
328.2 113.79 L
S
GR
GS
[0.75 0 0 0.75 0 0.5] CT
0 GC
2 setlinecap
1 LJ
0.667 LW
N
396 117.18 M
396 113.79 L
S
GR
GS
[0.75 0 0 0.75 0 0.5] CT
0 GC
2 setlinecap
1 LJ
0.667 LW
N
57 35.82 M
57 39.21 L
S
GR
GS
[0.75 0 0 0.75 0 0.5] CT
0 GC
2 setlinecap
1 LJ
0.667 LW
N
124.8 35.82 M
124.8 39.21 L
S
GR
GS
[0.75 0 0 0.75 0 0.5] CT
0 GC
2 setlinecap
1 LJ
0.667 LW
N
192.6 35.82 M
192.6 39.21 L
S
GR
GS
[0.75 0 0 0.75 0 0.5] CT
0 GC
2 setlinecap
1 LJ
0.667 LW
N
260.4 35.82 M
260.4 39.21 L
S
GR
GS
[0.75 0 0 0.75 0 0.5] CT
0 GC
2 setlinecap
1 LJ
0.667 LW
N
328.2 35.82 M
328.2 39.21 L
S
GR
GS
[0.75 0 0 0.75 0 0.5] CT
0 GC
2 setlinecap
1 LJ
0.667 LW
N
396 35.82 M
396 39.21 L
S
GR
GS
[0.75 0 0 0.75 42.75 92.385] CT
0 GC
/Helvetica 13.333 F
GS
[1 0 0 1 0 0] CT
-4 14 moveto 
1 -1 scale
(0) t 
GR
GR
GS
[0.75 0 0 0.75 93.6 92.385] CT
0 GC
/Helvetica 13.333 F
GS
[1 0 0 1 0 0] CT
-9.5 14 moveto 
1 -1 scale
(0.2) t 
GR
GR
GS
[0.75 0 0 0.75 144.45 92.385] CT
0 GC
/Helvetica 13.333 F
GS
[1 0 0 1 0 0] CT
-9.5 14 moveto 
1 -1 scale
(0.4) t 
GR
GR
GS
[0.75 0 0 0.75 195.3 92.385] CT
0 GC
/Helvetica 13.333 F
GS
[1 0 0 1 0 0] CT
-9.5 14 moveto 
1 -1 scale
(0.6) t 
GR
GR
GS
[0.75 0 0 0.75 246.15001 92.385] CT
0 GC
/Helvetica 13.333 F
GS
[1 0 0 1 0 0] CT
-9.5 14 moveto 
1 -1 scale
(0.8) t 
GR
GR
GS
[0.75 0 0 0.75 297 92.385] CT
0 GC
/Helvetica 13.333 F
GS
[1 0 0 1 0 0] CT
-4 14 moveto 
1 -1 scale
(1) t 
GR
GR
GS
[0.75 0 0 0.75 0 0.5] CT
0 GC
2 setlinecap
1 LJ
0.667 LW
N
57 117.18 M
57 35.82 L
S
GR
GS
[0.75 0 0 0.75 0 0.5] CT
0 GC
2 setlinecap
1 LJ
0.667 LW
N
396 117.18 M
396 35.82 L
S
GR
GS
[0.75 0 0 0.75 0 0.5] CT
0 GC
2 setlinecap
1 LJ
0.667 LW
N
57 110.4 M
60.39 110.4 L
S
GR
GS
[0.75 0 0 0.75 0 0.5] CT
0 GC
2 setlinecap
1 LJ
0.667 LW
N
57 76.5 M
60.39 76.5 L
S
GR
GS
[0.75 0 0 0.75 0 0.5] CT
0 GC
2 setlinecap
1 LJ
0.667 LW
N
57 42.6 M
60.39 42.6 L
S
GR
GS
[0.75 0 0 0.75 0 0.5] CT
0 GC
2 setlinecap
1 LJ
0.667 LW
N
396 110.4 M
392.61 110.4 L
S
GR
GS
[0.75 0 0 0.75 0 0.5] CT
0 GC
2 setlinecap
1 LJ
0.667 LW
N
396 76.5 M
392.61 76.5 L
S
GR
GS
[0.75 0 0 0.75 0 0.5] CT
0 GC
2 setlinecap
1 LJ
0.667 LW
N
396 42.6 M
392.61 42.6 L
S
GR
GS
[0.75 0 0 0.75 38.75 83.3] CT
0 GC
/Helvetica 13.333 F
GS
[1 0 0 1 0 0] CT
-23 5.5 moveto 
1 -1 scale
(-0.1) t 
GR
GR
GS
[0.75 0 0 0.75 38.75 57.875] CT
0 GC
/Helvetica 13.333 F
GS
[1 0 0 1 0 0] CT
-8 5.5 moveto 
1 -1 scale
(0) t 
GR
GR
GS
[0.75 0 0 0.75 38.75 32.45] CT
0 GC
/Helvetica 13.333 F
GS
[1 0 0 1 0 0] CT
-19 5.5 moveto 
1 -1 scale
(0.1) t 
GR
GR
GS
[0.75 0 0 0.75 129.75 17.75] CT
0 GC
/Helvetica-Bold 14.667 F
GS
[1 0 0 1 0 0] CT
0 0 moveto 
1 -1 scale
(NACA) t 
GR
GR
GS
[0.75 0 0 0.75 162.75 23] CT
0 GC
/Helvetica-Bold 11.733 F
GS
[1 0 0 1 0 0] CT
0 0 moveto 
1 -1 scale
(4) t 
GR
GR
GS
[0.75 0 0 0.75 168 17.75] CT
0 GC
/Helvetica-Bold 14.667 F
GS
[1 0 0 1 0 0] CT
0 0 moveto 
1 -1 scale
(412.mat) t 
GR
GR
GS
[0.75 0 0 0.75 0 0.5] CT
0 GC
1 LJ
1.333 LW
N
396 76.069 M
393.724 76.053 L
389.682 76.024 L
384.893 75.986 L
379.487 75.939 L
373.671 75.882 L
367.629 75.816 L
361.475 75.741 L
355.271 75.657 L
349.045 75.564 L
342.81 75.461 L
336.572 75.349 L
330.334 75.227 L
324.095 75.096 L
317.857 74.954 L
311.618 74.802 L
305.379 74.641 L
299.139 74.47 L
292.898 74.289 L
286.655 74.098 L
280.409 73.899 L
274.16 73.69 L
267.908 73.473 L
261.651 73.249 L
255.389 73.017 L
249.121 72.778 L
242.848 72.534 L
236.567 72.285 L
230.279 72.032 L
223.986 71.776 L
217.69 71.519 L
211.393 71.263 L
205.114 71.008 L
198.865 70.759 L
192.632 70.519 L
186.415 70.274 L
180.231 70.015 L
174.053 69.737 L
167.858 69.44 L
161.645 69.128 L
155.411 68.804 L
149.158 68.472 L
142.904 68.139 L
136.684 67.812 L
130.517 67.498 L
124.417 67.207 L
118.402 66.946 L
112.495 66.725 L
106.724 66.556 L
101.137 66.447 L
95.793 66.41 L
90.773 66.452 L
86.161 66.574 L
82.025 66.772 L
78.397 67.033 L
75.26 67.345 L
72.567 67.692 L
70.261 68.065 L
68.274 68.461 L
66.545 68.876 L
65.032 69.302 L
63.707 69.744 L
62.538 70.213 L
61.498 70.703 L
60.569 71.206 L
59.752 71.732 L
59.048 72.296 L
58.451 72.899 L
57.952 73.533 L
57.55 74.19 L
57.258 74.863 L
57.083 75.542 L
57.007 76.216 L
57.013 76.887 L
57.098 77.571 L
57.27 78.279 L
57.537 79.007 L
57.898 79.752 L
58.341 80.514 L
58.869 81.292 L
59.499 82.088 L
60.246 82.903 L
61.119 83.751 L
62.124 84.647 L
63.281 85.592 L
64.624 86.586 L
66.193 87.646 L
68.023 88.787 L
70.156 90.01 L
72.639 91.317 L
75.512 92.705 L
78.785 94.155 L
82.449 95.639 L
86.465 97.125 L
90.776 98.58 L
95.326 99.977 L
100.065 101.298 L
104.955 102.532 L
109.959 103.672 L
115.057 104.713 L
120.24 105.656 L
125.491 106.503 L
130.801 107.252 L
136.164 107.907 L
141.573 108.469 L
147.023 108.939 L
152.511 109.319 L
158.032 109.612 L
163.583 109.819 L
169.163 109.942 L
174.769 109.983 L
180.401 109.942 L
186.074 109.821 L
191.811 109.625 L
197.628 109.363 L
203.506 109.048 L
209.402 108.686 L
215.306 108.275 L
221.227 107.816 L
227.159 107.312 L
233.096 106.764 L
239.038 106.173 L
244.985 105.539 L
250.936 104.865 L
256.889 104.151 L
262.844 103.397 L
268.8 102.605 L
274.755 101.775 L
280.71 100.908 L
286.663 100.004 L
292.614 99.064 L
298.562 98.089 L
304.506 97.078 L
310.446 96.032 L
316.38 94.952 L
322.309 93.837 L
328.232 92.688 L
334.147 91.505 L
340.053 90.288 L
345.948 89.037 L
351.829 87.754 L
357.689 86.439 L
363.515 85.096 L
369.28 83.731 L
374.929 82.358 L
380.364 81.005 L
385.431 79.713 L
389.952 78.535 L
393.809 77.512 L
396 76.923 L
S
GR
%%Trailer
%%Pages: 1
%%EOF
