%!PS-Adobe-2.0
%%Title: plot.ps                                                                         
%%Creator: Xplot11
%%Pages: (atend)
%%BoundingBox: (atend)
%%Orientation: Landscape
%%EndComments

%%Page:    1     1
gsave  %Save current context
% Define macros for drawing
/rscal {10 div exch 10 div exch } bind def
/M { rscal moveto } bind def
/L { rscal lineto } bind def
/SG { setgray } bind def
/NP { newpath } bind def
/SL { setlinewidth } bind def
/CPSM { currentpoint stroke moveto } bind def
/CFS  { closepath fill stroke } bind def
/CO { 2 index 255 div 2 index 255 div 2 index 255 div
      setrgbcolor pop pop pop } bind def
/LAND { 0 790 translate -90 rotate } bind def

% Set up for default line type and width
 1 setlinejoin 0.25 SL [ ] 0 setdash 0 SG
% Rotate and translate for Landscape format
 612    0 translate   90 rotate
  0.25 SL
 [ ] 0 setdash
  702   622 M  7902   622 L
 7902  2421 L
  702  2421 L
  702   622 L
 7902   622 L
  702   605 M   702   638 L
  549   492 M   599   492 L
  630   467 M   630   527 L
  635   537 L
  645   543 L
  665   543 L
  675   537 L
  680   527 L
  680   467 L
  675   456 L
  665   451 L
  645   451 L
  635   456 L
  630   467 L
  723   462 M   733   462 L
  733   451 L
  723   451 L
  723   462 L
  804   530 M   817   543 L
  817   451 L
  804   451 M   830   451 L
 1302   605 M  1302   638 L
 1189   467 M  1189   527 L
 1194   537 L
 1204   543 L
 1225   543 L
 1235   537 L
 1240   527 L
 1240   467 L
 1235   456 L
 1225   451 L
 1204   451 L
 1194   456 L
 1189   467 L
 1283   462 M  1293   462 L
 1293   451 L
 1283   451 L
 1283   462 L
 1351   467 M  1351   527 L
 1356   537 L
 1366   543 L
 1387   543 L
 1397   537 L
 1402   527 L
 1402   467 L
 1397   456 L
 1387   451 L
 1366   451 L
 1356   456 L
 1351   467 L
 1902   605 M  1902   638 L
 1789   467 M  1789   527 L
 1794   537 L
 1804   543 L
 1825   543 L
 1835   537 L
 1840   527 L
 1840   467 L
 1835   456 L
 1825   451 L
 1804   451 L
 1794   456 L
 1789   467 L
 1883   462 M  1893   462 L
 1893   451 L
 1883   451 L
 1883   462 L
 1964   530 M  1976   543 L
 1976   451 L
 1964   451 M  1989   451 L
 2503   605 M  2503   638 L
 2389   467 M  2389   527 L
 2394   537 L
 2404   543 L
 2425   543 L
 2435   537 L
 2440   527 L
 2440   467 L
 2435   456 L
 2425   451 L
 2404   451 L
 2394   456 L
 2389   467 L
 2483   462 M  2493   462 L
 2493   451 L
 2483   451 L
 2483   462 L
 2551   527 M  2556   537 L
 2566   543 L
 2587   543 L
 2597   537 L
 2602   527 L
 2602   515 L
 2597   505 L
 2556   477 L
 2551   467 L
 2551   451 L
 2602   451 L
 3102   605 M  3102   638 L
 2989   467 M  2989   527 L
 2994   537 L
 3004   543 L
 3025   543 L
 3035   537 L
 3040   527 L
 3040   467 L
 3035   456 L
 3025   451 L
 3004   451 L
 2994   456 L
 2989   467 L
 3083   462 M  3093   462 L
 3093   451 L
 3083   451 L
 3083   462 L
 3154   530 M  3159   537 L
 3169   543 L
 3187   543 L
 3197   537 L
 3202   527 L
 3202   518 L
 3197   508 L
 3187   503 L
 3197   498 L
 3202   487 L
 3202   467 L
 3197   456 L
 3187   451 L
 3166   451 L
 3156   456 L
 3151   464 L
 3187   503 M  3166   503 L
 3703   605 M  3703   638 L
 3589   467 M  3589   527 L
 3594   537 L
 3604   543 L
 3625   543 L
 3635   537 L
 3640   527 L
 3640   467 L
 3635   456 L
 3625   451 L
 3604   451 L
 3594   456 L
 3589   467 L
 3683   462 M  3693   462 L
 3693   451 L
 3683   451 L
 3683   462 L
 3794   543 M  3794   451 L
 3781   451 M  3807   451 L
 3807   482 M  3751   482 L
 3751   543 L
 4303   605 M  4303   638 L
 4189   467 M  4189   527 L
 4194   537 L
 4204   543 L
 4225   543 L
 4235   537 L
 4240   527 L
 4240   467 L
 4235   456 L
 4225   451 L
 4204   451 L
 4194   456 L
 4189   467 L
 4283   462 M  4293   462 L
 4293   451 L
 4283   451 L
 4283   462 L
 4399   543 M  4351   543 L
 4351   503 L
 4387   503 L
 4397   498 L
 4402   488 L
 4402   467 L
 4397   456 L
 4387   451 L
 4366   451 L
 4356   456 L
 4351   467 L
 4902   605 M  4902   638 L
 4789   467 M  4789   527 L
 4794   537 L
 4804   543 L
 4825   543 L
 4835   537 L
 4840   527 L
 4840   467 L
 4835   456 L
 4825   451 L
 4804   451 L
 4794   456 L
 4789   467 L
 4883   462 M  4893   462 L
 4893   451 L
 4883   451 L
 4883   462 L
 5002   530 M  4997   537 L
 4987   543 L
 4966   543 L
 4956   537 L
 4951   527 L
 4951   467 L
 4956   456 L
 4966   451 L
 4987   451 L
 4997   456 L
 5002   467 L
 5002   488 L
 4997   498 L
 4987   503 L
 4966   503 L
 4956   498 L
 4951   488 L
 5503   605 M  5503   638 L
 5389   467 M  5389   527 L
 5394   537 L
 5404   543 L
 5425   543 L
 5435   537 L
 5440   527 L
 5440   467 L
 5435   456 L
 5425   451 L
 5404   451 L
 5394   456 L
 5389   467 L
 5483   462 M  5493   462 L
 5493   451 L
 5483   451 L
 5483   462 L
 5551   543 M  5602   543 L
 5602   531 L
 5571   467 L
 5571   451 L
 6102   605 M  6102   638 L
 5989   467 M  5989   527 L
 5994   537 L
 6004   543 L
 6025   543 L
 6035   537 L
 6040   527 L
 6040   467 L
 6035   456 L
 6025   451 L
 6004   451 L
 5994   456 L
 5989   467 L
 6083   462 M  6093   462 L
 6093   451 L
 6083   451 L
 6083   462 L
 6190   503 M  6162   503 L
 6151   516 L
 6151   527 L
 6156   537 L
 6166   543 L
 6187   543 L
 6197   537 L
 6202   527 L
 6202   516 L
 6190   503 L
 6202   491 L
 6202   467 L
 6197   456 L
 6187   451 L
 6166   451 L
 6156   456 L
 6151   467 L
 6151   491 L
 6162   503 L
 6703   605 M  6703   638 L
 6589   467 M  6589   527 L
 6594   537 L
 6604   543 L
 6625   543 L
 6635   537 L
 6640   527 L
 6640   467 L
 6635   456 L
 6625   451 L
 6604   451 L
 6594   456 L
 6589   467 L
 6683   462 M  6693   462 L
 6693   451 L
 6683   451 L
 6683   462 L
 6751   464 M  6756   456 L
 6766   451 L
 6787   451 L
 6797   456 L
 6802   467 L
 6802   527 L
 6797   537 L
 6787   543 L
 6766   543 L
 6756   537 L
 6751   527 L
 6751   506 L
 6756   496 L
 6766   491 L
 6787   491 L
 6797   496 L
 6802   506 L
 7302   605 M  7302   638 L
 7202   530 M  7214   543 L
 7214   451 L
 7202   451 M  7227   451 L
 7283   462 M  7293   462 L
 7293   451 L
 7283   451 L
 7283   462 L
 7351   467 M  7351   527 L
 7356   537 L
 7366   543 L
 7387   543 L
 7397   537 L
 7402   527 L
 7402   467 L
 7397   456 L
 7387   451 L
 7366   451 L
 7356   456 L
 7351   467 L
 7902   605 M  7902   638 L
 7802   530 M  7814   543 L
 7814   451 L
 7802   451 M  7827   451 L
 7883   462 M  7893   462 L
 7893   451 L
 7883   451 L
 7883   462 L
 7964   530 M  7976   543 L
 7976   451 L
 7964   451 M  7989   451 L
  702   622 M   702  2421 L
  686   622 M   719   622 L
  330   622 M   381   622 L
  411   596 M   411   657 L
  416   667 L
  426   672 L
  446   672 L
  456   667 L
  462   657 L
  462   596 L
  456   586 L
  446   581 L
  426   581 L
  416   586 L
  411   596 L
  505   591 M   515   591 L
  515   581 L
  505   581 L
  505   591 L
  586   659 M   598   672 L
  598   581 L
  586   581 M   611   581 L
  686  1222 M   719  1222 L
  411  1196 M   411  1257 L
  416  1267 L
  426  1272 L
  446  1272 L
  456  1267 L
  462  1257 L
  462  1196 L
  456  1186 L
  446  1181 L
  426  1181 L
  416  1186 L
  411  1196 L
  505  1191 M   515  1191 L
  515  1181 L
  505  1181 L
  505  1191 L
  573  1196 M   573  1257 L
  578  1267 L
  588  1272 L
  608  1272 L
  618  1267 L
  624  1257 L
  624  1196 L
  618  1186 L
  608  1181 L
  588  1181 L
  578  1186 L
  573  1196 L
  686  1822 M   719  1822 L
  411  1796 M   411  1857 L
  416  1867 L
  426  1872 L
  446  1872 L
  456  1867 L
  462  1857 L
  462  1796 L
  456  1786 L
  446  1781 L
  426  1781 L
  416  1786 L
  411  1796 L
  505  1791 M   515  1791 L
  515  1781 L
  505  1781 L
  505  1791 L
  586  1859 M   598  1872 L
  598  1781 L
  586  1781 M   611  1781 L
  686  2422 M   719  2422 L
  411  2396 M   411  2457 L
  416  2467 L
  426  2472 L
  446  2472 L
  456  2467 L
  462  2457 L
  462  2396 L
  456  2386 L
  446  2381 L
  426  2381 L
  416  2386 L
  411  2396 L
  505  2391 M   515  2391 L
  515  2381 L
  505  2381 L
  505  2391 L
  573  2457 M   578  2467 L
  588  2472 L
  608  2472 L
  618  2467 L
  624  2457 L
  624  2444 L
  618  2434 L
  578  2406 L
  573  2396 L
  573  2381 L
  624  2381 L
 CPSM
 [  1  3  1  3  1  3  1  3
 ] 0 setdash
  702   622 M  7903   622 L
  702  1222 M  7903  1222 L
  702  1822 M  7903  1822 L
  702  2422 M  7903  2422 L
  702   622 M   702  2422 L
 1303   622 M  1303  2422 L
 1902   622 M  1902  2422 L
 2503   622 M  2503  2422 L
 3103   622 M  3103  2422 L
 3703   622 M  3703  2422 L
 4303   622 M  4303  2422 L
 4903   622 M  4903  2422 L
 5503   622 M  5503  2422 L
 6103   622 M  6103  2422 L
 6703   622 M  6703  2422 L
 7302   622 M  7302  2422 L
 7902   622 M  7902  2422 L
 CPSM
  0.50 SL
 [ ] 0 setdash
 7302  1222 M  7301  1222 L
 7300  1222 L
 7299  1223 L
 7298  1223 L
 7297  1223 L
 7296  1224 L
 7295  1224 L
 7294  1224 L
 7293  1225 L
 7292  1225 L
 7291  1225 L
 7290  1226 L
 7289  1226 L
 7288  1226 L
 7287  1227 L
 7286  1227 L
 7284  1228 L
 7283  1228 L
 7282  1228 L
 7281  1229 L
 7278  1230 L
 7275  1231 L
 7272  1232 L
 7269  1233 L
 7266  1234 L
 7263  1235 L
 7261  1236 L
 7258  1237 L
 7255  1238 L
 7252  1239 L
 7249  1240 L
 7246  1241 L
 7243  1242 L
 7240  1243 L
 7237  1245 L
 7234  1246 L
 7231  1247 L
 7228  1248 L
 7225  1249 L
 7222  1250 L
 7218  1252 L
 7213  1253 L
 7209  1255 L
 7205  1257 L
 7200  1258 L
 7196  1260 L
 7191  1262 L
 7187  1263 L
 7183  1265 L
 7178  1267 L
 7174  1268 L
 7169  1270 L
 7165  1272 L
 7161  1273 L
 7156  1275 L
 7152  1277 L
 7147  1279 L
 7143  1280 L
 7139  1282 L
 7134  1284 L
 7129  1286 L
 7123  1288 L
 7118  1290 L
 7112  1292 L
 7107  1294 L
 7101  1296 L
 7096  1298 L
 7090  1301 L
 7085  1303 L
 7079  1305 L
 7074  1307 L
 7068  1309 L
 7063  1311 L
 7057  1313 L
 7051  1315 L
 7046  1317 L
 7040  1319 L
 7035  1321 L
 7029  1323 L
 7024  1325 L
 7017  1328 L
 7010  1330 L
 7004  1332 L
 6997  1335 L
 6991  1337 L
 6984  1339 L
 6977  1342 L
 6971  1344 L
 6964  1346 L
 6957  1349 L
 6951  1351 L
 6944  1353 L
 6937  1356 L
 6931  1358 L
 6924  1360 L
 6917  1362 L
 6911  1365 L
 6904  1367 L
 6897  1369 L
 6890  1371 L
 6882  1374 L
 6875  1376 L
 6867  1379 L
 6859  1381 L
 6851  1384 L
 6843  1387 L
 6835  1389 L
 6827  1392 L
 6819  1394 L
 6811  1397 L
 6803  1399 L
 6795  1402 L
 6787  1404 L
 6779  1407 L
 6771  1409 L
 6763  1412 L
 6755  1414 L
 6747  1417 L
 6739  1419 L
 6731  1421 L
 6722  1424 L
 6713  1427 L
 6704  1430 L
 6695  1433 L
 6685  1436 L
 6676  1438 L
 6667  1441 L
 6658  1444 L
 6648  1447 L
 6639  1450 L
 6630  1452 L
 6621  1455 L
 6612  1458 L
 6602  1461 L
 6593  1464 L
 6584  1466 L
 6575  1469 L
 6565  1472 L
 6556  1475 L
 6547  1477 L
 6537  1481 L
 6526  1484 L
 6516  1487 L
 6506  1490 L
 6495  1493 L
 6485  1496 L
 6475  1499 L
 6464  1502 L
 6454  1505 L
 6444  1508 L
 6433  1512 L
 6423  1515 L
 6413  1518 L
 6402  1521 L
 6392  1524 L
 6382  1527 L
 6371  1530 L
 6361  1533 L
 6351  1536 L
 6340  1539 L
 6329  1543 L
 6318  1546 L
 6307  1549 L
 6295  1553 L
 6284  1556 L
 6273  1560 L
 6262  1563 L
 6250  1566 L
 6239  1570 L
 6228  1573 L
 6216  1576 L
 6205  1580 L
 6194  1583 L
 6183  1586 L
 6171  1590 L
 6160  1593 L
 6149  1596 L
 6137  1600 L
 6126  1603 L
 6115  1606 L
 6103  1610 L
 6091  1614 L
 6079  1617 L
 6067  1621 L
 6054  1624 L
 6042  1628 L
 6030  1631 L
 6018  1635 L
 6006  1638 L
 5994  1642 L
 5982  1646 L
 5970  1649 L
 5958  1653 L
 5946  1656 L
 5934  1660 L
 5922  1663 L
 5910  1667 L
 5897  1670 L
 5885  1674 L
 5873  1677 L
 5861  1681 L
 5848  1685 L
 5835  1689 L
 5823  1692 L
 5810  1696 L
 5797  1700 L
 5785  1703 L
 5772  1707 L
 5759  1711 L
 5746  1714 L
 5734  1718 L
 5721  1722 L
 5708  1725 L
 5696  1729 L
 5683  1732 L
 5670  1736 L
 5658  1740 L
 5645  1743 L
 5632  1747 L
 5619  1751 L
 5606  1754 L
 5593  1758 L
 5580  1762 L
 5567  1766 L
 5554  1769 L
 5541  1773 L
 5528  1777 L
 5514  1780 L
 5501  1784 L
 5488  1788 L
 5475  1791 L
 5462  1795 L
 5449  1799 L
 5435  1802 L
 5422  1806 L
 5409  1809 L
 5396  1813 L
 5383  1817 L
 5370  1820 L
 5356  1824 L
 5343  1828 L
 5330  1831 L
 5316  1835 L
 5303  1838 L
 5289  1842 L
 5276  1846 L
 5262  1849 L
 5249  1853 L
 5235  1856 L
 5222  1860 L
 5209  1863 L
 5195  1867 L
 5182  1870 L
 5168  1874 L
 5155  1877 L
 5141  1880 L
 5128  1884 L
 5114  1887 L
 5101  1891 L
 5087  1894 L
 5074  1897 L
 5060  1901 L
 5046  1904 L
 5033  1907 L
 5019  1911 L
 5006  1914 L
 4992  1917 L
 4978  1920 L
 4965  1924 L
 4951  1927 L
 4938  1930 L
 4924  1933 L
 4910  1936 L
 4897  1939 L
 4883  1942 L
 4869  1945 L
 4856  1949 L
 4842  1952 L
 4828  1955 L
 4815  1957 L
 4801  1960 L
 4787  1963 L
 4774  1966 L
 4760  1969 L
 4747  1972 L
 4733  1975 L
 4719  1977 L
 4706  1980 L
 4692  1983 L
 4678  1985 L
 4665  1988 L
 4651  1991 L
 4637  1993 L
 4624  1996 L
 4610  1998 L
 4596  2001 L
 4583  2003 L
 4569  2006 L
 4555  2008 L
 4542  2010 L
 4528  2013 L
 4515  2015 L
 4501  2017 L
 4488  2020 L
 4474  2022 L
 4461  2024 L
 4447  2026 L
 4434  2028 L
 4420  2030 L
 4407  2032 L
 4393  2034 L
 4380  2036 L
 4366  2038 L
 4353  2040 L
 4339  2042 L
 4326  2044 L
 4312  2046 L
 4299  2047 L
 4285  2049 L
 4272  2051 L
 4258  2053 L
 4245  2054 L
 4232  2056 L
 4218  2057 L
 4205  2059 L
 4192  2060 L
 4179  2062 L
 4165  2063 L
 4152  2065 L
 4139  2066 L
 4125  2067 L
 4112  2069 L
 4099  2070 L
 4085  2071 L
 4072  2072 L
 4059  2073 L
 4046  2075 L
 4032  2076 L
 4019  2077 L
 4006  2078 L
 3992  2079 L
 3979  2080 L
 3966  2081 L
 3953  2081 L
 3940  2082 L
 3927  2083 L
 3914  2084 L
 3901  2085 L
 3888  2085 L
 3875  2086 L
 3862  2087 L
 3849  2087 L
 3836  2088 L
 3822  2088 L
 3809  2089 L
 3796  2089 L
 3783  2090 L
 3770  2090 L
 3757  2091 L
 3744  2091 L
 3731  2091 L
 3718  2092 L
 3705  2092 L
 3693  2092 L
 3680  2092 L
 3667  2092 L
 3654  2092 L
 3641  2093 L
 3629  2093 L
 3616  2093 L
 3603  2093 L
 3590  2093 L
 3577  2092 L
 3565  2092 L
 3552  2092 L
 3539  2092 L
 3526  2092 L
 3513  2092 L
 3500  2091 L
 3488  2091 L
 3475  2091 L
 3463  2090 L
 3450  2090 L
 3438  2090 L
 3425  2089 L
 3413  2089 L
 3400  2088 L
 3388  2088 L
 3375  2087 L
 3363  2086 L
 3350  2086 L
 3338  2085 L
 3325  2084 L
 3313  2084 L
 3300  2083 L
 3288  2082 L
 3275  2081 L
 3263  2081 L
 3251  2080 L
 3238  2079 L
 3226  2078 L
 3214  2077 L
 3202  2076 L
 3190  2075 L
 3178  2074 L
 3166  2073 L
 3153  2072 L
 3141  2071 L
 3129  2069 L
 3117  2068 L
 3105  2067 L
 3093  2066 L
 3081  2064 L
 3069  2063 L
 3057  2062 L
 3045  2060 L
 3033  2059 L
 3021  2058 L
 3009  2056 L
 2997  2055 L
 2985  2053 L
 2973  2052 L
 2962  2050 L
 2950  2049 L
 2938  2047 L
 2927  2045 L
 2915  2044 L
 2904  2042 L
 2892  2040 L
 2880  2039 L
 2869  2037 L
 2857  2035 L
 2846  2033 L
 2834  2031 L
 2822  2030 L
 2811  2028 L
 2799  2026 L
 2788  2024 L
 2776  2022 L
 2765  2020 L
 2753  2018 L
 2742  2016 L
 2731  2014 L
 2720  2012 L
 2709  2010 L
 2698  2007 L
 2687  2005 L
 2676  2003 L
 2665  2001 L
 2654  1999 L
 2643  1997 L
 2632  1994 L
 2621  1992 L
 2610  1990 L
 2599  1987 L
 2588  1985 L
 2577  1982 L
 2566  1980 L
 2555  1978 L
 2544  1975 L
 2533  1973 L
 2523  1970 L
 2513  1968 L
 2502  1965 L
 2492  1963 L
 2481  1960 L
 2471  1958 L
 2461  1955 L
 2450  1952 L
 2440  1950 L
 2430  1947 L
 2419  1944 L
 2409  1942 L
 2398  1939 L
 2388  1936 L
 2378  1933 L
 2367  1930 L
 2357  1928 L
 2347  1925 L
 2337  1922 L
 2327  1919 L
 2317  1916 L
 2308  1913 L
 2298  1910 L
 2288  1908 L
 2279  1905 L
 2269  1902 L
 2259  1899 L
 2250  1896 L
 2240  1893 L
 2231  1890 L
 2221  1887 L
 2211  1884 L
 2202  1880 L
 2192  1877 L
 2183  1874 L
 2173  1871 L
 2164  1868 L
 2154  1864 L
 2145  1861 L
 CPSM
 2145  1861 M  2136  1858 L
 2127  1855 L
 2118  1852 L
 2109  1848 L
 2100  1845 L
 2092  1842 L
 2083  1839 L
 2074  1836 L
 2065  1832 L
 2057  1829 L
 2048  1826 L
 2039  1822 L
 2030  1819 L
 2022  1815 L
 2013  1812 L
 2004  1808 L
 1996  1805 L
 1987  1801 L
 1978  1798 L
 1970  1794 L
 1962  1791 L
 1954  1787 L
 1946  1784 L
 1938  1780 L
 1930  1777 L
 1922  1773 L
 1914  1770 L
 1906  1766 L
 1898  1763 L
 1891  1759 L
 1883  1756 L
 1875  1752 L
 1867  1748 L
 1859  1745 L
 1852  1741 L
 1844  1737 L
 1836  1733 L
 1828  1730 L
 1821  1726 L
 1813  1722 L
 1806  1718 L
 1799  1715 L
 1792  1711 L
 1785  1708 L
 1778  1704 L
 1771  1700 L
 1764  1697 L
 1757  1693 L
 1750  1689 L
 1744  1685 L
 1737  1682 L
 1730  1678 L
 1723  1674 L
 1716  1670 L
 1709  1666 L
 1703  1662 L
 1696  1658 L
 1689  1654 L
 1682  1650 L
 1676  1646 L
 1670  1643 L
 1664  1639 L
 1658  1635 L
 1652  1631 L
 1646  1628 L
 1640  1624 L
 1634  1620 L
 1628  1616 L
 1622  1612 L
 1616  1609 L
 1611  1605 L
 1605  1601 L
 1599  1597 L
 1593  1593 L
 1587  1589 L
 1582  1585 L
 1576  1581 L
 1570  1577 L
 1565  1572 L
 1559  1568 L
 1554  1565 L
 1549  1561 L
 1544  1557 L
 1539  1553 L
 1534  1550 L
 1529  1546 L
 1525  1542 L
 1520  1538 L
 1515  1534 L
 1510  1530 L
 1505  1526 L
 1500  1522 L
 1496  1518 L
 1491  1514 L
 1486  1510 L
 1482  1506 L
 1477  1502 L
 1472  1498 L
 1468  1494 L
 1463  1490 L
 1459  1486 L
 1455  1482 L
 1452  1479 L
 1448  1475 L
 1444  1471 L
 1440  1468 L
 1436  1464 L
 1432  1460 L
 1429  1456 L
 1425  1452 L
 1421  1448 L
 1417  1445 L
 1414  1441 L
 1410  1437 L
 1407  1433 L
 1403  1429 L
 1400  1425 L
 1396  1421 L
 1393  1416 L
 1389  1412 L
 1386  1409 L
 1383  1405 L
 1380  1402 L
 1378  1398 L
 1375  1394 L
 1372  1391 L
 1369  1387 L
 1367  1384 L
 1364  1380 L
 1361  1376 L
 1359  1372 L
 1356  1369 L
 1354  1365 L
 1351  1361 L
 1349  1357 L
 1346  1353 L
 1344  1349 L
 1342  1346 L
 1339  1342 L
 1337  1338 L
 1335  1334 L
 1333  1331 L
 1332  1328 L
 1330  1324 L
 1328  1321 L
 1326  1317 L
 1325  1314 L
 1323  1311 L
 1322  1307 L
 1320  1304 L
 1319  1300 L
 1317  1297 L
 1316  1293 L
 1315  1289 L
 1313  1286 L
 1312  1282 L
 1311  1279 L
 1310  1275 L
 1309  1271 L
 1308  1268 L
 1307  1265 L
 1307  1263 L
 1306  1261 L
 1306  1258 L
 1305  1256 L
 1305  1254 L
 1304  1251 L
 1304  1249 L
 1304  1247 L
 1303  1244 L
 1303  1242 L
 1303  1240 L
 1303  1237 L
 1303  1235 L
 1302  1233 L
 1302  1230 L
 1302  1228 L
 1302  1226 L
 1303  1223 L
 1303  1221 L
 1303  1220 L
 1303  1219 L
 1303  1218 L
 1303  1217 L
 1303  1217 L
 1303  1216 L
 1303  1215 L
 1303  1214 L
 1304  1213 L
 1304  1212 L
 1304  1212 L
 1304  1211 L
 1304  1210 L
 1304  1209 L
 1304  1208 L
 1305  1208 L
 1305  1207 L
 1305  1206 L
 1305  1205 L
 1305  1204 L
 1306  1204 L
 1306  1203 L
 1306  1203 L
 1306  1202 L
 1306  1202 L
 1306  1201 L
 1306  1201 L
 1307  1200 L
 1307  1200 L
 1307  1199 L
 1307  1199 L
 1307  1198 L
 1307  1198 L
 1308  1197 L
 1308  1197 L
 1308  1196 L
 1308  1196 L
 1308  1195 L
 1309  1195 L
 1309  1194 L
 1309  1194 L
 1309  1194 L
 1309  1193 L
 1310  1193 L
 1310  1192 L
 1310  1192 L
 1310  1191 L
 1310  1191 L
 1311  1190 L
 1311  1190 L
 1311  1190 L
 1311  1189 L
 1311  1189 L
 1312  1188 L
 1312  1188 L
 1312  1187 L
 1312  1187 L
 1313  1187 L
 1313  1186 L
 1313  1186 L
 1313  1185 L
 1313  1185 L
 1313  1185 L
 1314  1185 L
 1314  1185 L
 1314  1184 L
 1314  1184 L
 1314  1184 L
 1314  1184 L
 1314  1184 L
 1314  1184 L
 1315  1183 L
 1315  1183 L
 1315  1183 L
 1315  1183 L
 1315  1183 L
 1315  1182 L
 1315  1182 L
 1315  1182 L
 1316  1182 L
 1316  1182 L
 1316  1181 L
 1316  1181 L
 1316  1181 L
 1316  1181 L
 1316  1181 L
 1317  1180 L
 1317  1180 L
 1317  1180 L
 1317  1180 L
 1317  1180 L
 1317  1180 L
 1317  1179 L
 1317  1179 L
 1318  1179 L
 1318  1179 L
 1318  1179 L
 1318  1179 L
 1318  1178 L
 1318  1178 L
 1318  1178 L
 1319  1178 L
 1319  1178 L
 1319  1177 L
 1319  1177 L
 1319  1177 L
 1319  1177 L
 1319  1177 L
 1320  1177 L
 1320  1176 L
 1320  1176 L
 1320  1176 L
 1320  1176 L
 1320  1176 L
 1320  1176 L
 1321  1176 L
 1321  1175 L
 1321  1175 L
 1321  1175 L
 1321  1175 L
 1321  1175 L
 1322  1175 L
 1322  1174 L
 1322  1174 L
 1322  1174 L
 1322  1174 L
 1322  1174 L
 1323  1174 L
 1323  1173 L
 1323  1173 L
 1323  1173 L
 1323  1173 L
 1323  1173 L
 1324  1173 L
 1324  1173 L
 1324  1172 L
 1324  1172 L
 1324  1172 L
 1324  1172 L
 1325  1172 L
 1325  1172 L
 1325  1172 L
 1325  1171 L
 1325  1171 L
 1325  1171 L
 1326  1171 L
 1326  1171 L
 1326  1171 L
 1326  1171 L
 1326  1170 L
 1327  1170 L
 1327  1170 L
 1327  1170 L
 1327  1170 L
 1327  1170 L
 1328  1170 L
 1328  1169 L
 1328  1169 L
 1328  1169 L
 1328  1169 L
 1328  1169 L
 1329  1169 L
 1329  1169 L
 1329  1168 L
 1329  1168 L
 1330  1168 L
 1330  1168 L
 1330  1168 L
 1330  1168 L
 1330  1168 L
 1331  1167 L
 1331  1167 L
 1331  1167 L
 1331  1167 L
 1331  1167 L
 1332  1167 L
 1332  1167 L
 1332  1167 L
 1332  1166 L
 1332  1166 L
 1333  1166 L
 1333  1166 L
 1334  1165 L
 1334  1165 L
 1335  1165 L
 1335  1165 L
 1336  1164 L
 1336  1164 L
 1337  1164 L
 1337  1164 L
 1338  1163 L
 1338  1163 L
 1339  1163 L
 1339  1163 L
 1340  1162 L
 1340  1162 L
 1341  1162 L
 1341  1162 L
 1342  1161 L
 1342  1161 L
 1343  1161 L
 1343  1161 L
 1344  1160 L
 1344  1160 L
 1345  1160 L
 1345  1160 L
 1346  1159 L
 1346  1159 L
 1347  1159 L
 1348  1159 L
 1348  1158 L
 1349  1158 L
 1349  1158 L
 1350  1158 L
 1350  1157 L
 1351  1157 L
 1351  1157 L
 1352  1157 L
 1352  1157 L
 1353  1156 L
 1354  1156 L
 1355  1156 L
 1356  1155 L
 1357  1155 L
 1358  1155 L
 1359  1154 L
 1360  1154 L
 1361  1154 L
 1362  1153 L
 1363  1153 L
 1363  1153 L
 1364  1152 L
 1365  1152 L
 1366  1152 L
 1367  1151 L
 1368  1151 L
 1369  1151 L
 1370  1151 L
 1371  1150 L
 1372  1150 L
 1373  1150 L
 1374  1150 L
 1375  1149 L
 1376  1149 L
 1377  1149 L
 1378  1149 L
 1378  1148 L
 1379  1148 L
 1380  1148 L
 1381  1148 L
 1382  1147 L
 1383  1147 L
 1384  1147 L
 1385  1147 L
 1386  1146 L
 1387  1146 L
 1387  1146 L
 1388  1146 L
 1389  1146 L
 1390  1145 L
 1395  1144 L
 1399  1144 L
 1404  1143 L
 1408  1142 L
 1413  1141 L
 1417  1140 L
 1422  1140 L
 1426  1139 L
 1431  1138 L
 1436  1138 L
 1440  1137 L
 1445  1137 L
 1449  1136 L
 1454  1136 L
 1459  1135 L
 1463  1135 L
 1468  1135 L
 1472  1134 L
 1477  1134 L
 1482  1134 L
 1488  1133 L
 1494  1133 L
 1500  1133 L
 1506  1132 L
 1512  1132 L
 1518  1132 L
 1525  1132 L
 1531  1132 L
 1537  1132 L
 1543  1131 L
 1549  1131 L
 1555  1131 L
 1561  1131 L
 1567  1131 L
 1574  1131 L
 1580  1131 L
 1586  1132 L
 1592  1132 L
 1598  1132 L
 1604  1132 L
 1612  1132 L
 1620  1132 L
 1628  1133 L
 1635  1133 L
 1643  1133 L
 1651  1134 L
 1659  1134 L
 1666  1134 L
 1674  1135 L
 1682  1135 L
 1689  1136 L
 1697  1136 L
 1705  1137 L
 1713  1137 L
 1720  1138 L
 1728  1138 L
 1736  1139 L
 1744  1139 L
 1751  1140 L
 1759  1141 L
 CPSM
 1759  1141 M  1769  1141 L
 1778  1142 L
 1787  1143 L
 1797  1144 L
 1806  1145 L
 1816  1146 L
 1825  1146 L
 1835  1147 L
 1844  1148 L
 1853  1149 L
 1863  1150 L
 1872  1151 L
 1882  1152 L
 1891  1153 L
 1900  1154 L
 1910  1155 L
 1919  1156 L
 1929  1157 L
 1938  1158 L
 1947  1160 L
 1959  1161 L
 1970  1162 L
 1981  1164 L
 1992  1165 L
 2003  1166 L
 2015  1168 L
 2026  1169 L
 2037  1171 L
 2048  1172 L
 2059  1174 L
 2071  1175 L
 2082  1176 L
 2093  1178 L
 2104  1179 L
 2115  1181 L
 2127  1182 L
 2138  1184 L
 2149  1186 L
 2160  1187 L
 2171  1189 L
 2184  1190 L
 2197  1192 L
 2211  1194 L
 2224  1196 L
 2237  1198 L
 2250  1200 L
 2263  1201 L
 2276  1203 L
 2289  1205 L
 2302  1207 L
 2315  1209 L
 2328  1211 L
 2341  1213 L
 2355  1215 L
 2368  1216 L
 2381  1218 L
 2394  1220 L
 2407  1222 L
 2420  1224 L
 2433  1226 L
 2448  1228 L
 2463  1230 L
 2478  1232 L
 2493  1234 L
 2508  1236 L
 2523  1238 L
 2538  1240 L
 2552  1242 L
 2567  1244 L
 2582  1247 L
 2597  1249 L
 2612  1251 L
 2627  1253 L
 2642  1255 L
 2657  1257 L
 2672  1259 L
 2687  1261 L
 2702  1263 L
 2717  1265 L
 2732  1267 L
 2748  1269 L
 2765  1271 L
 2781  1273 L
 2798  1275 L
 2814  1277 L
 2831  1279 L
 2848  1281 L
 2864  1284 L
 2881  1286 L
 2897  1288 L
 2914  1290 L
 2930  1292 L
 2947  1294 L
 2963  1296 L
 2980  1298 L
 2996  1300 L
 3013  1301 L
 3030  1303 L
 3046  1305 L
 3063  1307 L
 3081  1309 L
 3098  1311 L
 3116  1313 L
 3134  1315 L
 3152  1317 L
 3170  1319 L
 3188  1321 L
 3206  1323 L
 3224  1325 L
 3241  1327 L
 3259  1329 L
 3277  1330 L
 3295  1332 L
 3313  1334 L
 3331  1336 L
 3349  1337 L
 3367  1339 L
 3385  1341 L
 3402  1342 L
 3420  1344 L
 3439  1346 L
 3458  1347 L
 3477  1349 L
 3496  1351 L
 3514  1352 L
 3533  1354 L
 3552  1355 L
 3571  1357 L
 3589  1358 L
 3608  1360 L
 3627  1361 L
 3646  1363 L
 3665  1364 L
 3683  1366 L
 3702  1367 L
 3721  1368 L
 3740  1369 L
 3759  1371 L
 3778  1372 L
 3796  1373 L
 3816  1374 L
 3835  1376 L
 3854  1377 L
 3873  1378 L
 3892  1379 L
 3911  1380 L
 3931  1381 L
 3950  1382 L
 3969  1383 L
 3988  1384 L
 4007  1385 L
 4026  1386 L
 4046  1387 L
 4065  1388 L
 4084  1389 L
 4103  1390 L
 4122  1391 L
 4141  1391 L
 4161  1392 L
 4180  1393 L
 4199  1394 L
 4218  1394 L
 4237  1395 L
 4256  1396 L
 4275  1397 L
 4295  1397 L
 4314  1398 L
 4333  1398 L
 4352  1399 L
 4371  1400 L
 4390  1400 L
 4409  1401 L
 4429  1401 L
 4448  1402 L
 4467  1402 L
 4486  1403 L
 4505  1403 L
 4524  1403 L
 4543  1404 L
 4563  1404 L
 4581  1404 L
 4600  1405 L
 4619  1405 L
 4638  1405 L
 4657  1406 L
 4675  1406 L
 4694  1406 L
 4713  1406 L
 4732  1406 L
 4751  1407 L
 4770  1407 L
 4788  1407 L
 4807  1407 L
 4826  1407 L
 4845  1407 L
 4864  1407 L
 4883  1407 L
 4901  1407 L
 4920  1407 L
 4939  1407 L
 4957  1407 L
 4976  1407 L
 4994  1407 L
 5012  1407 L
 5030  1407 L
 5049  1406 L
 5067  1406 L
 5085  1406 L
 5103  1406 L
 5122  1406 L
 5140  1405 L
 5158  1405 L
 5176  1405 L
 5195  1404 L
 5213  1404 L
 5231  1404 L
 5249  1403 L
 5268  1403 L
 5286  1403 L
 5304  1402 L
 5322  1402 L
 5339  1401 L
 5356  1401 L
 5374  1400 L
 5391  1400 L
 5408  1399 L
 5426  1399 L
 5443  1398 L
 5461  1397 L
 5478  1397 L
 5495  1396 L
 5513  1395 L
 5530  1395 L
 5548  1394 L
 5565  1393 L
 5582  1393 L
 5600  1392 L
 5617  1391 L
 5634  1390 L
 5652  1390 L
 5668  1389 L
 5684  1388 L
 5700  1387 L
 5717  1386 L
 5733  1386 L
 5749  1385 L
 5765  1384 L
 5781  1383 L
 5797  1382 L
 5814  1381 L
 5830  1380 L
 5846  1379 L
 5862  1378 L
 5878  1377 L
 5895  1376 L
 5911  1375 L
 5927  1374 L
 5943  1373 L
 5959  1372 L
 5975  1371 L
 5990  1370 L
 6005  1369 L
 6020  1368 L
 6035  1367 L
 6049  1366 L
 6064  1365 L
 6079  1364 L
 6094  1363 L
 6108  1362 L
 6123  1361 L
 6138  1359 L
 6153  1358 L
 6167  1357 L
 6182  1356 L
 6197  1355 L
 6212  1354 L
 6226  1352 L
 6241  1351 L
 6256  1350 L
 6270  1349 L
 6284  1348 L
 6297  1346 L
 6310  1345 L
 6323  1344 L
 6336  1343 L
 6349  1342 L
 6363  1341 L
 6376  1339 L
 6389  1338 L
 6402  1337 L
 6415  1336 L
 6428  1334 L
 6441  1333 L
 6455  1332 L
 6468  1331 L
 6481  1329 L
 6494  1328 L
 6507  1327 L
 6520  1325 L
 6533  1324 L
 6545  1323 L
 6556  1322 L
 6568  1321 L
 6579  1319 L
 6590  1318 L
 6602  1317 L
 6613  1316 L
 6624  1315 L
 6636  1313 L
 6647  1312 L
 6659  1311 L
 6670  1310 L
 6681  1308 L
 6693  1307 L
 6704  1306 L
 6716  1304 L
 6727  1303 L
 6738  1302 L
 6750  1300 L
 6761  1299 L
 6771  1298 L
 6780  1297 L
 6790  1296 L
 6799  1295 L
 6809  1294 L
 6818  1292 L
 6828  1291 L
 6837  1290 L
 6847  1289 L
 6856  1288 L
 6866  1287 L
 6875  1285 L
 6885  1284 L
 6894  1283 L
 6904  1282 L
 6913  1281 L
 6923  1279 L
 6932  1278 L
 6942  1277 L
 6951  1276 L
 6959  1275 L
 6967  1274 L
 6974  1273 L
 6982  1272 L
 6989  1271 L
 6997  1270 L
 7004  1269 L
 7012  1268 L
 7019  1266 L
 7027  1265 L
 7035  1264 L
 7042  1263 L
 7050  1262 L
 7057  1261 L
 7065  1260 L
 7072  1259 L
 7080  1258 L
 7088  1257 L
 7095  1256 L
 7103  1255 L
 7108  1254 L
 7114  1253 L
 7119  1252 L
 7125  1251 L
 7130  1251 L
 7136  1250 L
 7141  1249 L
 7147  1248 L
 7152  1247 L
 7158  1246 L
 7163  1246 L
 7169  1245 L
 7174  1244 L
 7180  1243 L
 7185  1242 L
 7191  1241 L
 7196  1240 L
 7202  1239 L
 7207  1238 L
 7213  1238 L
 7216  1237 L
 7220  1236 L
 7223  1236 L
 7226  1235 L
 7230  1235 L
 7233  1234 L
 7236  1234 L
 7240  1233 L
 7243  1232 L
 7246  1232 L
 7250  1231 L
 7253  1231 L
 7256  1230 L
 7260  1229 L
 7263  1229 L
 7267  1228 L
 7270  1228 L
 7273  1227 L
 7277  1226 L
 7280  1226 L
 7281  1226 L
 7282  1225 L
 7283  1225 L
 7284  1225 L
 7286  1225 L
 7287  1225 L
 7288  1224 L
 7289  1224 L
 7290  1224 L
 7291  1224 L
 7292  1223 L
 7293  1223 L
 7295  1223 L
 7296  1223 L
 7297  1223 L
 7298  1222 L
 7299  1222 L
 7300  1222 L
 7301  1222 L
 7302  1222 L
 7281  1229 M  7279  1223 L
 7222  1250 M  7220  1244 L
 7134  1284 M  7132  1278 L
 7024  1325 M  7022  1319 L
 6890  1371 M  6888  1365 L
 6731  1421 M  6730  1415 L
 6547  1477 M  6545  1471 L
 6340  1539 M  6339  1533 L
 6115  1606 M  6113  1600 L
 5873  1677 M  5872  1671 L
 5619  1751 M  5618  1745 L
 5356  1824 M  5355  1818 L
 5087  1894 M  5086  1888 L
 4815  1957 M  4813  1951 L
 4542  2010 M  4541  2004 L
 4272  2051 M  4271  2045 L
 4006  2078 M  4005  2072 L
 3744  2091 M  3744  2085 L
 3488  2091 M  3488  2085 L
 3238  2079 M  3239  2072 L
 2997  2055 M  2997  2048 L
 2765  2020 M  2766  2014 L
 2544  1975 M  2545  1969 L
 2337  1922 M  2338  1916 L
 2145  1861 M  2147  1855 L
 1970  1794 M  1972  1788 L
 1813  1722 M  1816  1716 L
 1676  1646 M  1679  1641 L
 1559  1568 M  1563  1563 L
 1463  1490 M  1467  1485 L
 1389  1412 M  1394  1408 L
 1337  1338 M  1342  1335 L
 1308  1268 M  1314  1266 L
 1303  1221 M  1309  1221 L
 1305  1204 M  1311  1206 L
 1309  1194 M  1315  1197 L
 1313  1186 M  1319  1189 L
 1316  1182 M  1321  1185 L
 1318  1178 M  1323  1182 L
 1321  1175 M  1326  1179 L
 1325  1172 M  1328  1177 L
 1328  1169 M  1332  1174 L
 1332  1166 M  1336  1172 L
 1342  1161 M  1345  1167 L
 1353  1156 M  1355  1162 L
 1372  1150 M  1374  1156 L
 1390  1145 M  1392  1152 L
 1482  1134 M  1482  1140 L
 1604  1132 M  1604  1138 L
 1759  1141 M  1759  1147 L
 1947  1160 M  1947  1166 L
 2171  1189 M  2170  1195 L
 2433  1226 M  2432  1232 L
 2732  1267 M  2731  1273 L
 3063  1307 M  3062  1313 L
 3420  1344 M  3420  1350 L
 3796  1373 M  3796  1379 L
 4180  1393 M  4180  1399 L
 4563  1404 M  4562  1410 L
 4939  1407 M  4939  1413 L
 5304  1402 M  5304  1408 L
 5652  1390 M  5652  1396 L
 5975  1371 M  5976  1377 L
 6270  1349 M  6271  1355 L
 6533  1324 M  6534  1330 L
 6761  1299 M  6762  1305 L
 6951  1276 M  6952  1282 L
 7103  1255 M  7104  1261 L
 7213  1238 M  7214  1244 L
 7280  1226 M  7281  1232 L
 CPSM
  0.75 SL
 1232  2685 M  1279  2685 L
 1232  2666 M  1279  2666 L
  854  2637 M   882  2698 L
  910  2637 L
  854  2637 L
  975  2682 M   935  2682 L
  939  2700 L
  942  2712 L
  948  2719 L
  956  2723 L
  966  2723 L
  972  2719 L
  975  2712 L
  977  2700 L
  975  2682 L
  972  2661 L
  967  2647 L
  961  2641 L
  955  2637 L
  946  2637 L
  940  2641 L
  936  2647 L
  934  2661 L
  935  2682 L
 1014  2667 M  1014  2607 L
  996  2667 M  1032  2667 L
 1083  2607 M  1050  2607 L
 1050  2667 L
 1083  2667 L
 1050  2640 M  1076  2640 L
 1430  2711 M  1425  2718 L
 1416  2723 L
 1397  2723 L
 1388  2718 L
 1383  2708 L
 1383  2652 L
 1388  2642 L
 1397  2637 L
 1416  2637 L
 1425  2642 L
 1430  2652 L
 1430  2672 L
 1425  2681 L
 1416  2686 L
 1397  2686 L
 1388  2681 L
 1383  2672 L
 1470  2647 M  1480  2647 L
 1480  2637 L
 1470  2637 L
 1470  2647 L
 1534  2649 M  1539  2642 L
 1548  2637 L
 1567  2637 L
 1577  2642 L
 1581  2652 L
 1581  2708 L
 1577  2718 L
 1567  2723 L
 1548  2723 L
 1539  2718 L
 1534  2708 L
 1534  2688 L
 1539  2679 L
 1548  2674 L
 1567  2674 L
 1577  2679 L
 1581  2688 L
 1610  2649 M  1614  2642 L
 1624  2637 L
 1643  2637 L
 1652  2642 L
 1657  2652 L
 1657  2708 L
 1652  2718 L
 1643  2723 L
 1624  2723 L
 1614  2718 L
 1610  2708 L
 1610  2688 L
 1614  2679 L
 1624  2674 L
 1643  2674 L
 1652  2679 L
 1657  2688 L
 1697  2732 M  1707  2732 L
 1714  2727 L
 1718  2720 L
 1718  2711 L
 1714  2704 L
 1707  2699 L
 1697  2699 L
 1690  2704 L
 1685  2711 L
 1685  2720 L
 1690  2727 L
 1697  2732 L
  934  2845 M   934  2789 L
  934  2831 M   939  2841 L
  948  2845 L
  965  2845 L
  974  2841 L
  979  2831 L
 1232  2836 M  1279  2836 L
 1232  2817 M  1279  2817 L
 1001  2818 M  1001  2758 L
 1034  2758 L
 1083  2758 M  1050  2758 L
 1050  2818 L
 1083  2818 L
 1050  2792 M  1076  2792 L
 1383  2803 M  1383  2860 L
 1388  2869 L
 1397  2874 L
 1416  2874 L
 1425  2869 L
 1430  2860 L
 1430  2803 L
 1425  2793 L
 1416  2789 L
 1397  2789 L
 1388  2793 L
 1383  2803 L
 1470  2798 M  1480  2798 L
 1480  2789 L
 1470  2789 L
 1470  2798 L
 1534  2803 M  1534  2860 L
 1539  2869 L
 1548  2874 L
 1567  2874 L
 1577  2869 L
 1581  2860 L
 1581  2803 L
 1577  2793 L
 1567  2789 L
 1548  2789 L
 1539  2793 L
 1534  2803 L
 1622  2862 M  1633  2874 L
 1633  2789 L
 1622  2789 M  1645  2789 L
 1685  2801 M  1690  2793 L
 1699  2789 L
 1718  2789 L
 1728  2793 L
 1733  2803 L
 1733  2860 L
 1728  2869 L
 1718  2874 L
 1699  2874 L
 1690  2869 L
 1685  2860 L
 1685  2839 L
 1690  2830 L
 1699  2825 L
 1718  2825 L
 1728  2830 L
 1733  2839 L
 1801  2874 M  1801  2789 L
 1789  2789 M  1813  2789 L
 1813  2817 M  1761  2817 L
 1761  2874 L
 1839  2862 M  1844  2869 L
 1853  2874 L
 1870  2874 L
 1879  2869 L
 1884  2860 L
 1884  2851 L
 1879  2842 L
 1870  2837 L
 1879  2832 L
 1884  2822 L
 1884  2803 L
 1879  2793 L
 1870  2789 L
 1851  2789 L
 1841  2793 L
 1837  2801 L
 1870  2837 M  1851  2837 L
  750  2982 M   745  2992 L
  736  2997 L
  717  2997 L
  707  2992 L
  702  2982 L
  702  2954 L
  707  2945 L
  717  2940 L
  736  2940 L
  745  2945 L
  750  2954 L
  783  2997 M   809  2997 L
  819  2991 L
  825  2980 L
  825  2940 L
  825  2971 M   792  2971 L
  783  2966 L
  778  2956 L
  778  2954 L
  783  2945 L
  792  2940 L
  811  2940 L
  821  2945 L
  825  2954 L
  851  2997 M   851  2940 L
  851  2984 M   855  2992 L
  862  2997 L
  867  2997 L
  874  2992 L
  877  2984 L
  881  2992 L
  888  2997 L
  893  2997 L
  900  2992 L
  903  2984 L
  903  2940 L
  877  2984 M   877  2949 L
  932  3025 M   932  2940 L
  932  2982 M   936  2992 L
  946  2997 L
  965  2997 L
  974  2992 L
  979  2982 L
  979  2954 L
  974  2945 L
  965  2940 L
  946  2940 L
  936  2945 L
  932  2954 L
 1052  2952 M  1047  2945 L
 1038  2940 L
 1019  2940 L
 1010  2945 L
 1005  2954 L
 1005  2982 L
 1010  2992 L
 1019  2997 L
 1038  2997 L
 1047  2992 L
 1052  2982 L
 1052  2969 L
 1005  2969 L
 1085  2997 M  1085  2940 L
 1085  2982 M  1090  2992 L
 1099  2997 L
 1116  2997 L
 1125  2992 L
 1130  2982 L
 1232  2987 M  1279  2987 L
 1232  2968 M  1279  2968 L
 1383  2954 M  1383  3011 L
 1388  3020 L
 1397  3025 L
 1416  3025 L
 1425  3020 L
 1430  3011 L
 1430  2954 L
 1425  2945 L
 1416  2940 L
 1397  2940 L
 1388  2945 L
 1383  2954 L
 1470  2949 M  1480  2949 L
 1480  2940 L
 1470  2940 L
 1470  2949 L
 1534  2954 M  1534  3011 L
 1539  3020 L
 1548  3025 L
 1567  3025 L
 1577  3020 L
 1581  3011 L
 1581  2954 L
 1577  2945 L
 1567  2940 L
 1548  2940 L
 1539  2945 L
 1534  2954 L
 1646  2988 M  1620  2988 L
 1610  3000 L
 1610  3011 L
 1614  3020 L
 1624  3025 L
 1643  3025 L
 1652  3020 L
 1657  3011 L
 1657  3000 L
 1646  2988 L
 1657  2977 L
 1657  2954 L
 1652  2945 L
 1643  2940 L
 1624  2940 L
 1614  2945 L
 1610  2954 L
 1610  2977 L
 1620  2988 L
 1725  3025 M  1725  2940 L
 1714  2940 M  1737  2940 L
 1737  2968 M  1685  2968 L
 1685  3025 L
 1761  3011 M  1766  3020 L
 1775  3025 L
 1794  3025 L
 1803  3020 L
 1808  3011 L
 1808  2999 L
 1803  2990 L
 1766  2964 L
 1761  2954 L
 1761  2940 L
 1808  2940 L
 1837  2952 M  1841  2945 L
 1851  2940 L
 1870  2940 L
 1879  2945 L
 1884  2954 L
 1884  3011 L
 1879  3020 L
 1870  3025 L
 1851  3025 L
 1841  3020 L
 1837  3011 L
 1837  2991 L
 1841  2981 L
 1851  2977 L
 1870  2977 L
 1879  2981 L
 1884  2991 L
  712  3171 M   712  3105 L
  717  3096 L
  726  3091 L
  740  3091 L
  750  3096 L
  754  3105 L
  702  3150 M   733  3150 L
  778  3176 M   778  3091 L
  778  3134 M   783  3143 L
  792  3148 L
  811  3148 L
  821  3143 L
  825  3134 L
  825  3091 L
  863  3091 M   896  3091 L
  882  3091 M   882  3145 L
  869  3145 L
  874  3163 M   874  3167 L
  876  3169 L
  880  3169 L
  882  3167 L
  882  3163 L
  880  3161 L
  876  3161 L
  874  3163 L
  977  3134 M   972  3143 L
  962  3148 L
  943  3148 L
  934  3143 L
  929  3134 L
  929  3105 L
  934  3096 L
  943  3091 L
  962  3091 L
  972  3096 L
  977  3105 L
 1007  3176 M  1007  3091 L
 1007  3124 M  1047  3153 L
 1018  3131 M  1055  3091 L
 1092  3101 M  1102  3101 L
 1102  3091 L
 1092  3091 L
 1092  3101 L
 1232  3138 M  1279  3138 L
 1232  3119 M  1279  3119 L
 1383  3105 M  1383  3162 L
 1388  3171 L
 1397  3176 L
 1416  3176 L
 1425  3171 L
 1430  3162 L
 1430  3105 L
 1425  3096 L
 1416  3091 L
 1397  3091 L
 1388  3096 L
 1383  3105 L
 1470  3101 M  1480  3101 L
 1480  3091 L
 1470  3091 L
 1470  3101 L
 1546  3164 M  1558  3176 L
 1558  3091 L
 1546  3091 M  1570  3091 L
 1610  3162 M  1614  3171 L
 1624  3176 L
 1643  3176 L
 1652  3171 L
 1657  3162 L
 1657  3150 L
 1652  3141 L
 1614  3115 L
 1610  3105 L
 1610  3091 L
 1657  3091 L
 1730  3176 M  1685  3176 L
 1685  3140 L
 1718  3140 L
 1728  3135 L
 1733  3125 L
 1733  3105 L
 1728  3096 L
 1718  3091 L
 1699  3091 L
 1690  3096 L
 1685  3105 L
 1798  3140 M  1772  3140 L
 1761  3151 L
 1761  3162 L
 1766  3171 L
 1775  3176 L
 1794  3176 L
 1803  3171 L
 1808  3162 L
 1808  3151 L
 1798  3140 L
 1808  3128 L
 1808  3105 L
 1803  3096 L
 1794  3091 L
 1775  3091 L
 1766  3096 L
 1761  3105 L
 1761  3128 L
 1772  3140 L
 1837  3103 M  1841  3096 L
 1851  3091 L
 1870  3091 L
 1879  3096 L
 1884  3105 L
 1884  3162 L
 1879  3171 L
 1870  3176 L
 1851  3176 L
 1841  3171 L
 1837  3162 L
 1837  3142 L
 1841  3132 L
 1851  3128 L
 1870  3128 L
 1879  3132 L
 1884  3142 L
  783  3299 M   809  3299 L
  819  3293 L
  825  3282 L
  825  3242 L
  825  3273 M   792  3273 L
  783  3268 L
  778  3259 L
  778  3256 L
  783  3247 L
  792  3242 L
  811  3242 L
  821  3247 L
  825  3256 L
  858  3299 M   858  3242 L
  858  3285 M   863  3294 L
  873  3299 L
  889  3299 L
  899  3294 L
  903  3285 L
  977  3254 M   972  3247 L
  962  3242 L
  943  3242 L
  934  3247 L
  929  3256 L
  929  3285 L
  934  3294 L
  943  3299 L
  962  3299 L
  972  3294 L
  977  3285 L
  977  3272 L
  929  3272 L
 1010  3299 M  1036  3299 L
 1046  3293 L
 1052  3282 L
 1052  3242 L
 1052  3273 M  1019  3273 L
 1010  3268 L
 1005  3259 L
 1005  3256 L
 1010  3247 L
 1019  3242 L
 1038  3242 L
 1047  3247 L
 1052  3256 L
 1232  3290 M  1279  3290 L
 1232  3271 M  1279  3271 L
 1383  3256 M  1383  3313 L
 1388  3323 L
 CPSM
 1388  3323 M  1397  3327 L
 1416  3327 L
 1425  3323 L
 1430  3313 L
 1430  3256 L
 1425  3247 L
 1416  3242 L
 1397  3242 L
 1388  3247 L
 1383  3256 L
 1470  3252 M  1480  3252 L
 1480  3242 L
 1470  3242 L
 1470  3252 L
 1534  3256 M  1534  3313 L
 1539  3323 L
 1548  3327 L
 1567  3327 L
 1577  3323 L
 1581  3313 L
 1581  3256 L
 1577  3247 L
 1567  3242 L
 1548  3242 L
 1539  3247 L
 1534  3256 L
 1646  3291 M  1620  3291 L
 1610  3303 L
 1610  3313 L
 1614  3323 L
 1624  3327 L
 1643  3327 L
 1652  3323 L
 1657  3313 L
 1657  3303 L
 1646  3291 L
 1657  3279 L
 1657  3256 L
 1652  3247 L
 1643  3242 L
 1624  3242 L
 1614  3247 L
 1610  3256 L
 1610  3279 L
 1620  3291 L
 1697  3316 M  1709  3327 L
 1709  3242 L
 1697  3242 M  1721  3242 L
 1798  3291 M  1772  3291 L
 1761  3303 L
 1761  3313 L
 1766  3323 L
 1775  3327 L
 1794  3327 L
 1803  3323 L
 1808  3313 L
 1808  3303 L
 1798  3291 L
 1808  3279 L
 1808  3256 L
 1803  3247 L
 1794  3242 L
 1775  3242 L
 1766  3247 L
 1761  3256 L
 1761  3279 L
 1772  3291 L
 1837  3327 M  1884  3327 L
 1884  3317 L
 1855  3256 L
 1855  3242 L
 1430  3405 M  1425  3398 L
 1416  3393 L
 1397  3393 L
 1388  3398 L
 1383  3408 L
 1383  3436 L
 1388  3445 L
 1397  3450 L
 1416  3450 L
 1425  3445 L
 1430  3436 L
 1430  3423 L
 1383  3423 L
 1499  3479 M  1499  3393 L
 1487  3393 M  1510  3393 L
 1510  3422 M  1459  3422 L
 1459  3479 L
 1534  3464 M  1539  3474 L
 1548  3479 L
 1567  3479 L
 1577  3474 L
 1581  3464 L
 1581  3453 L
 1577  3443 L
 1539  3417 L
 1534  3408 L
 1534  3393 L
 1581  3393 L
 1612  3467 M  1617  3474 L
 1626  3479 L
 1643  3479 L
 1652  3474 L
 1657  3464 L
 1657  3456 L
 1652  3447 L
 1643  3442 L
 1652  3437 L
 1657  3427 L
 1657  3408 L
 1652  3398 L
 1643  3393 L
 1624  3393 L
 1614  3398 L
 1610  3405 L
 1643  3442 M  1624  3442 L
 1676  3375 M  1751  3375 L
 1806  3479 M  1806  3393 L
 1806  3436 M  1801  3445 L
 1792  3450 L
 1773  3450 L
 1763  3445 L
 1759  3436 L
 1759  3408 L
 1763  3398 L
 1773  3393 L
 1792  3393 L
 1801  3398 L
 1806  3408 L
 1841  3450 M  1867  3450 L
 1878  3444 L
 1884  3434 L
 1884  3393 L
 1884  3424 M  1851  3424 L
 1841  3419 L
 1836  3410 L
 1836  3408 L
 1841  3398 L
 1851  3393 L
 1870  3393 L
 1879  3398 L
 1884  3408 L
 1959  3405 M  1955  3398 L
 1945  3393 L
 1926  3393 L
 1917  3398 L
 1912  3408 L
 1912  3436 L
 1917  3445 L
 1926  3450 L
 1945  3450 L
 1955  3445 L
 1959  3436 L
 1959  3423 L
 1912  3423 L
 2000  3467 M  2011  3479 L
 2011  3393 L
 2000  3393 M  2023  3393 L
 2075  3467 M  2087  3479 L
 2087  3393 L
 2075  3393 M  2099  3393 L
stroke showpage grestore
%%BoundingBox:       33      45     798     347

