%!PS-Adobe-3.0 EPSF-3.0
%%Creator: (MATLAB, The Mathworks, Inc. Version 9.2.0.538062 \(R2017a\). Operating System: Windows 8)
%%Title: C:/Documents/Tucano/ARD_CODES/05-XFOIL/FIG_Curvas1.eps
%%CreationDate: 2022-08-06T16:51:46
%%Pages: (atend)
%%BoundingBox: 0 0 420 308
%%LanguageLevel: 3
%%EndComments
%%BeginProlog
%%BeginResource: procset (Apache XML Graphics Std ProcSet) 1.2 0
%%Version: 1.2 0
%%Copyright: (Copyright 2001-2003,2010 The Apache Software Foundation. License terms: http://www.apache.org/licenses/LICENSE-2.0)
/bd{bind def}bind def
/ld{load def}bd
/GR/grestore ld
/M/moveto ld
/LJ/setlinejoin ld
/C/curveto ld
/f/fill ld
/LW/setlinewidth ld
/GC/setgray ld
/t/show ld
/N/newpath ld
/CT/concat ld
/cp/closepath ld
/S/stroke ld
/L/lineto ld
/CC/setcmykcolor ld
/A/ashow ld
/GS/gsave ld
/RC/setrgbcolor ld
/RM/rmoveto ld
/ML/setmiterlimit ld
/re {4 2 roll M
1 index 0 rlineto
0 exch rlineto
neg 0 rlineto
cp } bd
/_ctm matrix def
/_tm matrix def
/BT { _ctm currentmatrix pop matrix _tm copy pop 0 0 moveto } bd
/ET { _ctm setmatrix } bd
/iTm { _ctm setmatrix _tm concat } bd
/Tm { _tm astore pop iTm 0 0 moveto } bd
/ux 0.0 def
/uy 0.0 def
/F {
  /Tp exch def
  /Tf exch def
  Tf findfont Tp scalefont setfont
  /cf Tf def  /cs Tp def
} bd
/ULS {currentpoint /uy exch def /ux exch def} bd
/ULE {
  /Tcx currentpoint pop def
  gsave
  newpath
  cf findfont cs scalefont dup
  /FontMatrix get 0 get /Ts exch def /FontInfo get dup
  /UnderlinePosition get Ts mul /To exch def
  /UnderlineThickness get Ts mul /Tt exch def
  ux uy To add moveto  Tcx uy To add lineto
  Tt setlinewidth stroke
  grestore
} bd
/OLE {
  /Tcx currentpoint pop def
  gsave
  newpath
  cf findfont cs scalefont dup
  /FontMatrix get 0 get /Ts exch def /FontInfo get dup
  /UnderlinePosition get Ts mul /To exch def
  /UnderlineThickness get Ts mul /Tt exch def
  ux uy To add cs add moveto Tcx uy To add cs add lineto
  Tt setlinewidth stroke
  grestore
} bd
/SOE {
  /Tcx currentpoint pop def
  gsave
  newpath
  cf findfont cs scalefont dup
  /FontMatrix get 0 get /Ts exch def /FontInfo get dup
  /UnderlinePosition get Ts mul /To exch def
  /UnderlineThickness get Ts mul /Tt exch def
  ux uy To add cs 10 mul 26 idiv add moveto Tcx uy To add cs 10 mul 26 idiv add lineto
  Tt setlinewidth stroke
  grestore
} bd
/QT {
/Y22 exch store
/X22 exch store
/Y21 exch store
/X21 exch store
currentpoint
/Y21 load 2 mul add 3 div exch
/X21 load 2 mul add 3 div exch
/X21 load 2 mul /X22 load add 3 div
/Y21 load 2 mul /Y22 load add 3 div
/X22 load /Y22 load curveto
} bd
/SSPD {
dup length /d exch dict def
{
/v exch def
/k exch def
currentpagedevice k known {
/cpdv currentpagedevice k get def
v cpdv ne {
/upd false def
/nullv v type /nulltype eq def
/nullcpdv cpdv type /nulltype eq def
nullv nullcpdv or
{
/upd true def
} {
/sametype v type cpdv type eq def
sametype {
v type /arraytype eq {
/vlen v length def
/cpdvlen cpdv length def
vlen cpdvlen eq {
0 1 vlen 1 sub {
/i exch def
/obj v i get def
/cpdobj cpdv i get def
obj cpdobj ne {
/upd true def
exit
} if
} for
} {
/upd true def
} ifelse
} {
v type /dicttype eq {
v {
/dv exch def
/dk exch def
/cpddv cpdv dk get def
dv cpddv ne {
/upd true def
exit
} if
} forall
} {
/upd true def
} ifelse
} ifelse
} if
} ifelse
upd true eq {
d k v put
} if
} if
} if
} forall
d length 0 gt {
d setpagedevice
} if
} bd
/RE { % /NewFontName [NewEncodingArray] /FontName RE -
  findfont dup length dict begin
  {
    1 index /FID ne
    {def} {pop pop} ifelse
  } forall
  /Encoding exch def
  /FontName 1 index def
  currentdict definefont pop
  end
} bind def
%%EndResource
%%BeginResource: procset (Apache XML Graphics EPS ProcSet) 1.0 0
%%Version: 1.0 0
%%Copyright: (Copyright 2002-2003 The Apache Software Foundation. License terms: http://www.apache.org/licenses/LICENSE-2.0)
/BeginEPSF { %def
/b4_Inc_state save def         % Save state for cleanup
/dict_count countdictstack def % Count objects on dict stack
/op_count count 1 sub def      % Count objects on operand stack
userdict begin                 % Push userdict on dict stack
/showpage { } def              % Redefine showpage, { } = null proc
0 setgray 0 setlinecap         % Prepare graphics state
1 setlinewidth 0 setlinejoin
10 setmiterlimit [ ] 0 setdash newpath
/languagelevel where           % If level not equal to 1 then
{pop languagelevel             % set strokeadjust and
1 ne                           % overprint to their defaults.
{false setstrokeadjust false setoverprint
} if
} if
} bd
/EndEPSF { %def
count op_count sub {pop} repeat            % Clean up stacks
countdictstack dict_count sub {end} repeat
b4_Inc_state restore
} bd
%%EndResource
%FOPBeginFontDict
%%IncludeResource: font Courier-Bold
%%IncludeResource: font Helvetica
%%IncludeResource: font Courier-BoldOblique
%%IncludeResource: font Courier-Oblique
%%IncludeResource: font Times-Roman
%%IncludeResource: font Helvetica-BoldOblique
%%IncludeResource: font Helvetica-Bold
%%IncludeResource: font Helvetica-Oblique
%%IncludeResource: font Times-BoldItalic
%%IncludeResource: font Courier
%%IncludeResource: font Times-Italic
%%IncludeResource: font Times-Bold
%%IncludeResource: font Symbol
%%IncludeResource: font ZapfDingbats
%FOPEndFontDict
%%BeginResource: encoding WinAnsiEncoding
/WinAnsiEncoding [
/.notdef /.notdef /.notdef /.notdef /.notdef
/.notdef /.notdef /.notdef /.notdef /.notdef
/.notdef /.notdef /.notdef /.notdef /.notdef
/.notdef /.notdef /.notdef /.notdef /.notdef
/.notdef /.notdef /.notdef /.notdef /.notdef
/.notdef /.notdef /.notdef /.notdef /.notdef
/.notdef /.notdef /space /exclam /quotedbl
/numbersign /dollar /percent /ampersand /quotesingle
/parenleft /parenright /asterisk /plus /comma
/hyphen /period /slash /zero /one
/two /three /four /five /six
/seven /eight /nine /colon /semicolon
/less /equal /greater /question /at
/A /B /C /D /E
/F /G /H /I /J
/K /L /M /N /O
/P /Q /R /S /T
/U /V /W /X /Y
/Z /bracketleft /backslash /bracketright /asciicircum
/underscore /quoteleft /a /b /c
/d /e /f /g /h
/i /j /k /l /m
/n /o /p /q /r
/s /t /u /v /w
/x /y /z /braceleft /bar
/braceright /asciitilde /bullet /Euro /bullet
/quotesinglbase /florin /quotedblbase /ellipsis /dagger
/daggerdbl /circumflex /perthousand /Scaron /guilsinglleft
/OE /bullet /Zcaron /bullet /bullet
/quoteleft /quoteright /quotedblleft /quotedblright /bullet
/endash /emdash /asciitilde /trademark /scaron
/guilsinglright /oe /bullet /zcaron /Ydieresis
/space /exclamdown /cent /sterling /currency
/yen /brokenbar /section /dieresis /copyright
/ordfeminine /guillemotleft /logicalnot /sfthyphen /registered
/macron /degree /plusminus /twosuperior /threesuperior
/acute /mu /paragraph /middot /cedilla
/onesuperior /ordmasculine /guillemotright /onequarter /onehalf
/threequarters /questiondown /Agrave /Aacute /Acircumflex
/Atilde /Adieresis /Aring /AE /Ccedilla
/Egrave /Eacute /Ecircumflex /Edieresis /Igrave
/Iacute /Icircumflex /Idieresis /Eth /Ntilde
/Ograve /Oacute /Ocircumflex /Otilde /Odieresis
/multiply /Oslash /Ugrave /Uacute /Ucircumflex
/Udieresis /Yacute /Thorn /germandbls /agrave
/aacute /acircumflex /atilde /adieresis /aring
/ae /ccedilla /egrave /eacute /ecircumflex
/edieresis /igrave /iacute /icircumflex /idieresis
/eth /ntilde /ograve /oacute /ocircumflex
/otilde /odieresis /divide /oslash /ugrave
/uacute /ucircumflex /udieresis /yacute /thorn
/ydieresis
] def
%%EndResource
%FOPBeginFontReencode
/Courier-Bold findfont
dup length dict begin
  {1 index /FID ne {def} {pop pop} ifelse} forall
  /Encoding WinAnsiEncoding def
  currentdict
end
/Courier-Bold exch definefont pop
/Helvetica findfont
dup length dict begin
  {1 index /FID ne {def} {pop pop} ifelse} forall
  /Encoding WinAnsiEncoding def
  currentdict
end
/Helvetica exch definefont pop
/Courier-BoldOblique findfont
dup length dict begin
  {1 index /FID ne {def} {pop pop} ifelse} forall
  /Encoding WinAnsiEncoding def
  currentdict
end
/Courier-BoldOblique exch definefont pop
/Courier-Oblique findfont
dup length dict begin
  {1 index /FID ne {def} {pop pop} ifelse} forall
  /Encoding WinAnsiEncoding def
  currentdict
end
/Courier-Oblique exch definefont pop
/Times-Roman findfont
dup length dict begin
  {1 index /FID ne {def} {pop pop} ifelse} forall
  /Encoding WinAnsiEncoding def
  currentdict
end
/Times-Roman exch definefont pop
/Helvetica-BoldOblique findfont
dup length dict begin
  {1 index /FID ne {def} {pop pop} ifelse} forall
  /Encoding WinAnsiEncoding def
  currentdict
end
/Helvetica-BoldOblique exch definefont pop
/Helvetica-Bold findfont
dup length dict begin
  {1 index /FID ne {def} {pop pop} ifelse} forall
  /Encoding WinAnsiEncoding def
  currentdict
end
/Helvetica-Bold exch definefont pop
/Helvetica-Oblique findfont
dup length dict begin
  {1 index /FID ne {def} {pop pop} ifelse} forall
  /Encoding WinAnsiEncoding def
  currentdict
end
/Helvetica-Oblique exch definefont pop
/Times-BoldItalic findfont
dup length dict begin
  {1 index /FID ne {def} {pop pop} ifelse} forall
  /Encoding WinAnsiEncoding def
  currentdict
end
/Times-BoldItalic exch definefont pop
/Courier findfont
dup length dict begin
  {1 index /FID ne {def} {pop pop} ifelse} forall
  /Encoding WinAnsiEncoding def
  currentdict
end
/Courier exch definefont pop
/Times-Italic findfont
dup length dict begin
  {1 index /FID ne {def} {pop pop} ifelse} forall
  /Encoding WinAnsiEncoding def
  currentdict
end
/Times-Italic exch definefont pop
/Times-Bold findfont
dup length dict begin
  {1 index /FID ne {def} {pop pop} ifelse} forall
  /Encoding WinAnsiEncoding def
  currentdict
end
/Times-Bold exch definefont pop
%FOPEndFontReencode
%%EndProlog
%%Page: 1 1
%%PageBoundingBox: 0 0 420 308
%%BeginPageSetup
[1 0 0 -1 0 308] CT
%%EndPageSetup
GS
[0.75 0 0 0.75 0 0.5] CT
N
0 0 M
560 0 L
560 410 L
0 410 L
0 0 L
cp
clip
1 GC
N
0 0 560 410 re
f
GR
GS
[0.75 0 0 0.75 0 0.5] CT
1 GC
N
0 0 560 410 re
f
GR
GS
[0.75 0 0 0.75 0 0.5] CT
1 GC
N
73 365 M
260 365 L
260 31 L
73 31 L
cp
f
GR
GS
[0.75 0 0 0.75 0 0.5] CT
0.873 GC
1 LJ
0.667 LW
N
73 365 M
73 31 L
S
GR
GS
[0.75 0 0 0.75 0 0.5] CT
0.873 GC
1 LJ
0.667 LW
N
135.333 365 M
135.333 31 L
S
GR
GS
[0.75 0 0 0.75 0 0.5] CT
0.873 GC
1 LJ
0.667 LW
N
197.667 365 M
197.667 31 L
S
GR
GS
[0.75 0 0 0.75 0 0.5] CT
0.873 GC
1 LJ
0.667 LW
N
260 365 M
260 31 L
S
GR
GS
[0.75 0 0 0.75 0 0.5] CT
0.873 GC
1 LJ
0.667 LW
N
260 365 M
73 365 L
S
GR
GS
[0.75 0 0 0.75 0 0.5] CT
0.873 GC
1 LJ
0.667 LW
N
260 331.6 M
73 331.6 L
S
GR
GS
[0.75 0 0 0.75 0 0.5] CT
0.873 GC
1 LJ
0.667 LW
N
260 298.2 M
73 298.2 L
S
GR
GS
[0.75 0 0 0.75 0 0.5] CT
0.873 GC
1 LJ
0.667 LW
N
260 264.8 M
73 264.8 L
S
GR
GS
[0.75 0 0 0.75 0 0.5] CT
0.873 GC
1 LJ
0.667 LW
N
260 231.4 M
73 231.4 L
S
GR
GS
[0.75 0 0 0.75 0 0.5] CT
0.873 GC
1 LJ
0.667 LW
N
260 198 M
73 198 L
S
GR
GS
[0.75 0 0 0.75 0 0.5] CT
0.873 GC
1 LJ
0.667 LW
N
260 164.6 M
73 164.6 L
S
GR
GS
[0.75 0 0 0.75 0 0.5] CT
0.873 GC
1 LJ
0.667 LW
N
260 131.2 M
73 131.2 L
S
GR
GS
[0.75 0 0 0.75 0 0.5] CT
0.873 GC
1 LJ
0.667 LW
N
260 97.8 M
73 97.8 L
S
GR
GS
[0.75 0 0 0.75 0 0.5] CT
0.873 GC
1 LJ
0.667 LW
N
260 64.4 M
73 64.4 L
S
GR
GS
[0.75 0 0 0.75 0 0.5] CT
0.873 GC
1 LJ
0.667 LW
N
260 31 M
73 31 L
S
GR
GS
[0.75 0 0 0.75 0 0.5] CT
0.149 GC
2 setlinecap
1 LJ
0.667 LW
N
73 365 M
260 365 L
S
GR
GS
[0.75 0 0 0.75 0 0.5] CT
0.149 GC
2 setlinecap
1 LJ
0.667 LW
N
73 31 M
260 31 L
S
GR
GS
[0.75 0 0 0.75 0 0.5] CT
0.149 GC
2 setlinecap
1 LJ
0.667 LW
N
73 365 M
73 361.66 L
S
GR
GS
[0.75 0 0 0.75 0 0.5] CT
0.149 GC
2 setlinecap
1 LJ
0.667 LW
N
135.333 365 M
135.333 361.66 L
S
GR
GS
[0.75 0 0 0.75 0 0.5] CT
0.149 GC
2 setlinecap
1 LJ
0.667 LW
N
197.667 365 M
197.667 361.66 L
S
GR
GS
[0.75 0 0 0.75 0 0.5] CT
0.149 GC
2 setlinecap
1 LJ
0.667 LW
N
260 365 M
260 361.66 L
S
GR
GS
[0.75 0 0 0.75 0 0.5] CT
0.149 GC
2 setlinecap
1 LJ
0.667 LW
N
73 31 M
73 34.34 L
S
GR
GS
[0.75 0 0 0.75 0 0.5] CT
0.149 GC
2 setlinecap
1 LJ
0.667 LW
N
135.333 31 M
135.333 34.34 L
S
GR
GS
[0.75 0 0 0.75 0 0.5] CT
0.149 GC
2 setlinecap
1 LJ
0.667 LW
N
197.667 31 M
197.667 34.34 L
S
GR
GS
[0.75 0 0 0.75 0 0.5] CT
0.149 GC
2 setlinecap
1 LJ
0.667 LW
N
260 31 M
260 34.34 L
S
GR
GS
[0.75 0 0 0.75 54.75 278.24998] CT
0.149 GC
/Helvetica 13.333 F
GS
[1 0 0 1 0 0] CT
-9.5 14 moveto 
1 -1 scale
(-10) t 
GR
GR
GS
[0.75 0 0 0.75 101.5 278.24998] CT
0.149 GC
/Helvetica 13.333 F
GS
[1 0 0 1 0 0] CT
-4 14 moveto 
1 -1 scale
(0) t 
GR
GR
GS
[0.75 0 0 0.75 148.25 278.24998] CT
0.149 GC
/Helvetica 13.333 F
GS
[1 0 0 1 0 0] CT
-7.5 14 moveto 
1 -1 scale
(10) t 
GR
GR
GS
[0.75 0 0 0.75 195 278.24998] CT
0.149 GC
/Helvetica 13.333 F
GS
[1 0 0 1 0 0] CT
-7.5 14 moveto 
1 -1 scale
(20) t 
GR
GR
GS
[0.75 0 0 0.75 114 304.25] CT
0.149 GC
N
3.016 0.172 M
2.313 0.172 1.758 -0.164 QT
1.203 -0.5 0.898 -1.07 QT
0.594 -1.641 0.594 -2.375 QT
0.594 -3.391 1.164 -4.391 QT
1.734 -5.391 2.68 -6.008 QT
3.625 -6.625 4.656 -6.625 QT
5.406 -6.625 5.984 -6.227 QT
6.563 -5.828 6.867 -5.164 QT
7.172 -4.5 7.172 -3.75 QT
7.188 -2.75 L
7.703 -3.453 8.055 -4.219 QT
8.406 -4.984 8.594 -5.813 QT
8.625 -5.891 8.719 -5.891 QT
8.891 -5.891 L
9.031 -5.891 9.031 -5.75 QT
9.031 -5.75 9.016 -5.719 QT
8.844 -5.031 8.578 -4.391 QT
8.313 -3.75 7.961 -3.164 QT
7.609 -2.578 7.188 -2.094 QT
7.188 -0.234 7.625 -0.234 QT
7.891 -0.234 8.07 -0.398 QT
8.25 -0.563 8.391 -0.805 QT
8.531 -1.047 8.563 -1.047 QT
8.75 -1.047 L
8.859 -1.047 8.859 -0.906 QT
8.859 -0.531 8.43 -0.18 QT
8 0.172 7.594 0.172 QT
7.047 0.172 6.688 -0.18 QT
6.328 -0.531 6.203 -1.094 QT
5.5 -0.5 4.68 -0.164 QT
3.859 0.172 3.016 0.172 QT
cp
3.047 -0.234 M
4.656 -0.234 6.125 -1.547 QT
6.109 -1.641 6.102 -1.766 QT
6.094 -1.891 6.094 -1.906 QT
6.094 -3.516 L
6.094 -6.234 4.625 -6.234 QT
3.75 -6.234 3.086 -5.484 QT
2.422 -4.734 2.094 -3.695 QT
1.766 -2.656 1.766 -1.781 QT
1.766 -1.141 2.094 -0.688 QT
2.422 -0.234 3.047 -0.234 QT
cp
f
GR
GS
[0.75 0 0 0.75 121.5 304.25] CT
0.149 GC
/Helvetica 14.667 F
GS
[1 0 0 1 0 0] CT
0 0 moveto 
1 -1 scale
( [\260]) t 
GR
GR
GS
[0.75 0 0 0.75 0 0.5] CT
0.149 GC
2 setlinecap
1 LJ
0.667 LW
N
73 365 M
73 31 L
S
GR
GS
[0.75 0 0 0.75 0 0.5] CT
0.149 GC
2 setlinecap
1 LJ
0.667 LW
N
260 365 M
260 31 L
S
GR
GS
[0.75 0 0 0.75 0 0.5] CT
0.149 GC
2 setlinecap
1 LJ
0.667 LW
N
73 365 M
76.34 365 L
S
GR
GS
[0.75 0 0 0.75 0 0.5] CT
0.149 GC
2 setlinecap
1 LJ
0.667 LW
N
73 331.6 M
76.34 331.6 L
S
GR
GS
[0.75 0 0 0.75 0 0.5] CT
0.149 GC
2 setlinecap
1 LJ
0.667 LW
N
73 298.2 M
76.34 298.2 L
S
GR
GS
[0.75 0 0 0.75 0 0.5] CT
0.149 GC
2 setlinecap
1 LJ
0.667 LW
N
73 264.8 M
76.34 264.8 L
S
GR
GS
[0.75 0 0 0.75 0 0.5] CT
0.149 GC
2 setlinecap
1 LJ
0.667 LW
N
73 231.4 M
76.34 231.4 L
S
GR
GS
[0.75 0 0 0.75 0 0.5] CT
0.149 GC
2 setlinecap
1 LJ
0.667 LW
N
73 198 M
76.34 198 L
S
GR
GS
[0.75 0 0 0.75 0 0.5] CT
0.149 GC
2 setlinecap
1 LJ
0.667 LW
N
73 164.6 M
76.34 164.6 L
S
GR
GS
[0.75 0 0 0.75 0 0.5] CT
0.149 GC
2 setlinecap
1 LJ
0.667 LW
N
73 131.2 M
76.34 131.2 L
S
GR
GS
[0.75 0 0 0.75 0 0.5] CT
0.149 GC
2 setlinecap
1 LJ
0.667 LW
N
73 97.8 M
76.34 97.8 L
S
GR
GS
[0.75 0 0 0.75 0 0.5] CT
0.149 GC
2 setlinecap
1 LJ
0.667 LW
N
73 64.4 M
76.34 64.4 L
S
GR
GS
[0.75 0 0 0.75 0 0.5] CT
0.149 GC
2 setlinecap
1 LJ
0.667 LW
N
73 31 M
76.34 31 L
S
GR
GS
[0.75 0 0 0.75 0 0.5] CT
0.149 GC
2 setlinecap
1 LJ
0.667 LW
N
260 365 M
256.66 365 L
S
GR
GS
[0.75 0 0 0.75 0 0.5] CT
0.149 GC
2 setlinecap
1 LJ
0.667 LW
N
260 331.6 M
256.66 331.6 L
S
GR
GS
[0.75 0 0 0.75 0 0.5] CT
0.149 GC
2 setlinecap
1 LJ
0.667 LW
N
260 298.2 M
256.66 298.2 L
S
GR
GS
[0.75 0 0 0.75 0 0.5] CT
0.149 GC
2 setlinecap
1 LJ
0.667 LW
N
260 264.8 M
256.66 264.8 L
S
GR
GS
[0.75 0 0 0.75 0 0.5] CT
0.149 GC
2 setlinecap
1 LJ
0.667 LW
N
260 231.4 M
256.66 231.4 L
S
GR
GS
[0.75 0 0 0.75 0 0.5] CT
0.149 GC
2 setlinecap
1 LJ
0.667 LW
N
260 198 M
256.66 198 L
S
GR
GS
[0.75 0 0 0.75 0 0.5] CT
0.149 GC
2 setlinecap
1 LJ
0.667 LW
N
260 164.6 M
256.66 164.6 L
S
GR
GS
[0.75 0 0 0.75 0 0.5] CT
0.149 GC
2 setlinecap
1 LJ
0.667 LW
N
260 131.2 M
256.66 131.2 L
S
GR
GS
[0.75 0 0 0.75 0 0.5] CT
0.149 GC
2 setlinecap
1 LJ
0.667 LW
N
260 97.8 M
256.66 97.8 L
S
GR
GS
[0.75 0 0 0.75 0 0.5] CT
0.149 GC
2 setlinecap
1 LJ
0.667 LW
N
260 64.4 M
256.66 64.4 L
S
GR
GS
[0.75 0 0 0.75 0 0.5] CT
0.149 GC
2 setlinecap
1 LJ
0.667 LW
N
260 31 M
256.66 31 L
S
GR
GS
[0.75 0 0 0.75 50.75 274.25] CT
0.149 GC
/Helvetica 13.333 F
GS
[1 0 0 1 0 0] CT
-19 5.5 moveto 
1 -1 scale
(0.6) t 
GR
GR
GS
[0.75 0 0 0.75 50.75 249.2] CT
0.149 GC
/Helvetica 13.333 F
GS
[1 0 0 1 0 0] CT
-19 5.5 moveto 
1 -1 scale
(0.8) t 
GR
GR
GS
[0.75 0 0 0.75 50.75 224.15001] CT
0.149 GC
/Helvetica 13.333 F
GS
[1 0 0 1 0 0] CT
-8 5.5 moveto 
1 -1 scale
(1) t 
GR
GR
GS
[0.75 0 0 0.75 50.75 199.09999] CT
0.149 GC
/Helvetica 13.333 F
GS
[1 0 0 1 0 0] CT
-19 5.5 moveto 
1 -1 scale
(1.2) t 
GR
GR
GS
[0.75 0 0 0.75 50.75 174.05001] CT
0.149 GC
/Helvetica 13.333 F
GS
[1 0 0 1 0 0] CT
-19 5.5 moveto 
1 -1 scale
(1.4) t 
GR
GR
GS
[0.75 0 0 0.75 50.75 149] CT
0.149 GC
/Helvetica 13.333 F
GS
[1 0 0 1 0 0] CT
-19 5.5 moveto 
1 -1 scale
(1.6) t 
GR
GR
GS
[0.75 0 0 0.75 50.75 123.95] CT
0.149 GC
/Helvetica 13.333 F
GS
[1 0 0 1 0 0] CT
-19 5.5 moveto 
1 -1 scale
(1.8) t 
GR
GR
GS
[0.75 0 0 0.75 50.75 98.9] CT
0.149 GC
/Helvetica 13.333 F
GS
[1 0 0 1 0 0] CT
-8 5.5 moveto 
1 -1 scale
(2) t 
GR
GR
GS
[0.75 0 0 0.75 50.75 73.85] CT
0.149 GC
/Helvetica 13.333 F
GS
[1 0 0 1 0 0] CT
-19 5.5 moveto 
1 -1 scale
(2.2) t 
GR
GR
GS
[0.75 0 0 0.75 50.75 48.79999] CT
0.149 GC
/Helvetica 13.333 F
GS
[1 0 0 1 0 0] CT
-19 5.5 moveto 
1 -1 scale
(2.4) t 
GR
GR
GS
[0.75 0 0 0.75 50.75 23.75001] CT
0.149 GC
/Helvetica 13.333 F
GS
[1 0 0 1 0 0] CT
-19 5.5 moveto 
1 -1 scale
(2.6) t 
GR
GR
GS
[0 -0.75 0.75 0 26.25 153.5] CT
0.149 GC
/Helvetica 14.667 F
GS
[1 0 0 1 0 0] CT
0 0 moveto 
1 -1 scale
(c) t 
GR
GR
GS
[0 -0.75 0.75 0 31.5 147.5] CT
0.149 GC
/Helvetica 11.733 F
GS
[1 0 0 1 0 0] CT
0 0 moveto 
1 -1 scale
(l) t 
GR
GR
GS
[0.75 0 0 0.75 120 14] CT
/Helvetica-Bold 14.667 F
GS
[1 0 0 1 0 0] CT
0 0 moveto 
1 -1 scale
(c) t 
GR
GR
GS
[0.75 0 0 0.75 126.75 19.25] CT
/Helvetica-Bold 11.733 F
GS
[1 0 0 1 0 0] CT
0 0 moveto 
1 -1 scale
(l) t 
GR
GR
GS
[0.75 0 0 0.75 0 0.5] CT
[10 6] 0 setdash
2 LJ
1.333 LW
N
116.633 364.198 M
119.75 351.54 L
122.867 343.056 L
125.983 322.916 L
129.1 261.026 L
132.217 249.753 L
135.333 238.414 L
138.45 228.277 L
141.567 218.374 L
144.683 208.237 L
147.8 198 L
150.917 187.763 L
154.033 178.845 L
157.15 169.911 L
160.267 160.809 L
163.383 153.094 L
166.5 144.109 L
169.617 135.108 L
172.733 127.342 L
175.85 119.577 L
178.967 111.778 L
182.083 103.845 L
185.2 95.529 L
188.317 87.329 L
191.433 81.668 L
194.55 76.04 L
197.667 70.178 L
200.783 63.699 L
203.9 55.749 L
207.017 52.109 L
210.133 53.461 L
213.25 52.827 L
216.367 48.802 L
219.483 40.252 L
222.6 46.13 L
225.717 52.877 L
228.833 40.519 L
231.95 57.252 L
235.067 56.618 L
238.183 112.078 L
241.3 92.857 L
244.417 88.832 L
247.533 101.257 L
S
GR
GS
[0.75 0 0 0.75 0 0.5] CT
0 0 1 RC
1 LJ
2 LW
N
116.633 354.646 M
119.75 347.281 L
122.867 306.216 L
125.983 295.194 L
129.1 284.439 L
132.217 274.052 L
135.333 263.714 L
138.45 253.511 L
141.567 243.14 L
144.683 233.12 L
147.8 223.735 L
150.917 214.333 L
154.033 204.814 L
157.15 195.528 L
160.267 186.477 L
163.383 178.929 L
166.5 169.911 L
169.617 160.842 L
172.733 151.824 L
175.85 143.909 L
178.967 135.926 L
182.083 127.726 L
185.2 119.243 L
188.317 110.676 L
191.433 104.129 L
194.55 97.433 L
197.667 90.151 L
200.783 82.119 L
203.9 75.756 L
207.017 71.932 L
210.133 67.606 L
213.25 60.576 L
216.367 61.361 L
219.483 60.943 L
222.6 55.232 L
225.717 61.127 L
228.833 59.774 L
231.95 67.072 L
235.067 69.794 L
238.183 76.791 L
241.3 87.496 L
244.417 97.099 L
247.533 103.929 L
S
GR
GS
[0.75 0 0 0.75 0 0.5] CT
1 GC
N
84 76 M
84 40 L
190 40 L
190 76 L
cp
f
GR
GS
[0.75 0 0 0.75 98.25 37.89726] CT
/Helvetica 12 F
GS
[1 0 0 1 0 0] CT
0 5 moveto 
1 -1 scale
(Pr\351vio) t 
GR
GR
GS
[0.75 0 0 0.75 0 0.5] CT
[10 6] 0 setdash
2 LJ
1.333 LW
N
88 49.863 M
128 49.863 L
S
GR
GS
[0.75 0 0 0.75 98.25 50.10274] CT
/Helvetica 12 F
GS
[1 0 0 1 0 0] CT
0 5 moveto 
1 -1 scale
(Otimizado) t 
GR
GR
GS
[0.75 0 0 0.75 0 0.5] CT
0 0 1 RC
1 LJ
2 LW
N
88 66.137 M
128 66.137 L
S
GR
GS
[0.75 0 0 0.75 0 0.5] CT
0.149 GC
10.0 ML
0.667 LW
N
84 76 M
84 40 L
190 40 L
190 76 L
cp
S
GR
GS
[0.75 0 0 0.75 0 0.5] CT
1 GC
N
335 158 M
507 158 L
507 43 L
335 43 L
cp
f
GR
GS
[0.75 0 0 0.75 0 0.5] CT
0.873 GC
1 LJ
0.667 LW
N
335 158 M
335 43 L
S
GR
GS
[0.75 0 0 0.75 0 0.5] CT
0.873 GC
1 LJ
0.667 LW
N
392.333 158 M
392.333 43 L
S
GR
GS
[0.75 0 0 0.75 0 0.5] CT
0.873 GC
1 LJ
0.667 LW
N
449.667 158 M
449.667 43 L
S
GR
GS
[0.75 0 0 0.75 0 0.5] CT
0.873 GC
1 LJ
0.667 LW
N
507 158 M
507 43 L
S
GR
GS
[0.75 0 0 0.75 0 0.5] CT
0.873 GC
1 LJ
0.667 LW
N
507 158 M
335 158 L
S
GR
GS
[0.75 0 0 0.75 0 0.5] CT
0.873 GC
1 LJ
0.667 LW
N
507 119.667 M
335 119.667 L
S
GR
GS
[0.75 0 0 0.75 0 0.5] CT
0.873 GC
1 LJ
0.667 LW
N
507 81.333 M
335 81.333 L
S
GR
GS
[0.75 0 0 0.75 0 0.5] CT
0.873 GC
1 LJ
0.667 LW
N
507 43 M
335 43 L
S
GR
GS
[0.75 0 0 0.75 0 0.5] CT
0.149 GC
2 setlinecap
1 LJ
0.667 LW
N
335 158 M
507 158 L
S
GR
GS
[0.75 0 0 0.75 0 0.5] CT
0.149 GC
2 setlinecap
1 LJ
0.667 LW
N
335 43 M
507 43 L
S
GR
GS
[0.75 0 0 0.75 0 0.5] CT
0.149 GC
2 setlinecap
1 LJ
0.667 LW
N
335 158 M
335 156.28 L
S
GR
GS
[0.75 0 0 0.75 0 0.5] CT
0.149 GC
2 setlinecap
1 LJ
0.667 LW
N
392.333 158 M
392.333 156.28 L
S
GR
GS
[0.75 0 0 0.75 0 0.5] CT
0.149 GC
2 setlinecap
1 LJ
0.667 LW
N
449.667 158 M
449.667 156.28 L
S
GR
GS
[0.75 0 0 0.75 0 0.5] CT
0.149 GC
2 setlinecap
1 LJ
0.667 LW
N
507 158 M
507 156.28 L
S
GR
GS
[0.75 0 0 0.75 0 0.5] CT
0.149 GC
2 setlinecap
1 LJ
0.667 LW
N
335 43 M
335 44.72 L
S
GR
GS
[0.75 0 0 0.75 0 0.5] CT
0.149 GC
2 setlinecap
1 LJ
0.667 LW
N
392.333 43 M
392.333 44.72 L
S
GR
GS
[0.75 0 0 0.75 0 0.5] CT
0.149 GC
2 setlinecap
1 LJ
0.667 LW
N
449.667 43 M
449.667 44.72 L
S
GR
GS
[0.75 0 0 0.75 0 0.5] CT
0.149 GC
2 setlinecap
1 LJ
0.667 LW
N
507 43 M
507 44.72 L
S
GR
GS
[0.75 0 0 0.75 251.25 123] CT
0.149 GC
/Helvetica 13.333 F
GS
[1 0 0 1 0 0] CT
-9.5 14 moveto 
1 -1 scale
(-10) t 
GR
GR
GS
[0.75 0 0 0.75 294.25001 123] CT
0.149 GC
/Helvetica 13.333 F
GS
[1 0 0 1 0 0] CT
-4 14 moveto 
1 -1 scale
(0) t 
GR
GR
GS
[0.75 0 0 0.75 337.24999 123] CT
0.149 GC
/Helvetica 13.333 F
GS
[1 0 0 1 0 0] CT
-7.5 14 moveto 
1 -1 scale
(10) t 
GR
GR
GS
[0.75 0 0 0.75 380.25 123] CT
0.149 GC
/Helvetica 13.333 F
GS
[1 0 0 1 0 0] CT
-7.5 14 moveto 
1 -1 scale
(20) t 
GR
GR
GS
[0.75 0 0 0.75 304.5 149] CT
0.149 GC
N
/f368136476{3.016 0.172 M
2.313 0.172 1.758 -0.164 QT
1.203 -0.5 0.898 -1.07 QT
0.594 -1.641 0.594 -2.375 QT
0.594 -3.391 1.164 -4.391 QT
1.734 -5.391 2.68 -6.008 QT
3.625 -6.625 4.656 -6.625 QT
5.406 -6.625 5.984 -6.227 QT
6.563 -5.828 6.867 -5.164 QT
7.172 -4.5 7.172 -3.75 QT
7.188 -2.75 L
7.703 -3.453 8.055 -4.219 QT
8.406 -4.984 8.594 -5.813 QT
8.625 -5.891 8.719 -5.891 QT
8.891 -5.891 L
9.031 -5.891 9.031 -5.75 QT
9.031 -5.75 9.016 -5.719 QT
8.844 -5.031 8.578 -4.391 QT
8.313 -3.75 7.961 -3.164 QT
7.609 -2.578 7.188 -2.094 QT
7.188 -0.234 7.625 -0.234 QT
7.891 -0.234 8.07 -0.398 QT
8.25 -0.563 8.391 -0.805 QT
8.531 -1.047 8.563 -1.047 QT
8.75 -1.047 L
8.859 -1.047 8.859 -0.906 QT
8.859 -0.531 8.43 -0.18 QT
8 0.172 7.594 0.172 QT
7.047 0.172 6.688 -0.18 QT
6.328 -0.531 6.203 -1.094 QT
5.5 -0.5 4.68 -0.164 QT
3.859 0.172 3.016 0.172 QT
cp
3.047 -0.234 M
4.656 -0.234 6.125 -1.547 QT
6.109 -1.641 6.102 -1.766 QT
6.094 -1.891 6.094 -1.906 QT
6.094 -3.516 L
6.094 -6.234 4.625 -6.234 QT
3.75 -6.234 3.086 -5.484 QT
2.422 -4.734 2.094 -3.695 QT
1.766 -2.656 1.766 -1.781 QT
1.766 -1.141 2.094 -0.688 QT
2.422 -0.234 3.047 -0.234 QT
cp}def
f368136476
f
GR
GS
[0.75 0 0 0.75 312 149] CT
0.149 GC
/Helvetica 14.667 F
GS
[1 0 0 1 0 0] CT
0 0 moveto 
1 -1 scale
( [\260]) t 
GR
GR
GS
[0.75 0 0 0.75 0 0.5] CT
0.149 GC
2 setlinecap
1 LJ
0.667 LW
N
335 158 M
335 43 L
S
GR
GS
[0.75 0 0 0.75 0 0.5] CT
0.149 GC
2 setlinecap
1 LJ
0.667 LW
N
507 158 M
507 43 L
S
GR
GS
[0.75 0 0 0.75 0 0.5] CT
0.149 GC
2 setlinecap
1 LJ
0.667 LW
N
335 158 M
336.72 158 L
S
GR
GS
[0.75 0 0 0.75 0 0.5] CT
0.149 GC
2 setlinecap
1 LJ
0.667 LW
N
335 119.667 M
336.72 119.667 L
S
GR
GS
[0.75 0 0 0.75 0 0.5] CT
0.149 GC
2 setlinecap
1 LJ
0.667 LW
N
335 81.333 M
336.72 81.333 L
S
GR
GS
[0.75 0 0 0.75 0 0.5] CT
0.149 GC
2 setlinecap
1 LJ
0.667 LW
N
335 43 M
336.72 43 L
S
GR
GS
[0.75 0 0 0.75 0 0.5] CT
0.149 GC
2 setlinecap
1 LJ
0.667 LW
N
507 158 M
505.28 158 L
S
GR
GS
[0.75 0 0 0.75 0 0.5] CT
0.149 GC
2 setlinecap
1 LJ
0.667 LW
N
507 119.667 M
505.28 119.667 L
S
GR
GS
[0.75 0 0 0.75 0 0.5] CT
0.149 GC
2 setlinecap
1 LJ
0.667 LW
N
507 81.333 M
505.28 81.333 L
S
GR
GS
[0.75 0 0 0.75 0 0.5] CT
0.149 GC
2 setlinecap
1 LJ
0.667 LW
N
507 43 M
505.28 43 L
S
GR
GS
[0.75 0 0 0.75 247.24999 119] CT
0.149 GC
/Helvetica 13.333 F
GS
[1 0 0 1 0 0] CT
-8 5.5 moveto 
1 -1 scale
(0) t 
GR
GR
GS
[0.75 0 0 0.75 247.24999 90.25] CT
0.149 GC
/Helvetica 13.333 F
GS
[1 0 0 1 0 0] CT
-26 5.5 moveto 
1 -1 scale
(0.05) t 
GR
GR
GS
[0.75 0 0 0.75 247.24999 61.5] CT
0.149 GC
/Helvetica 13.333 F
GS
[1 0 0 1 0 0] CT
-19 5.5 moveto 
1 -1 scale
(0.1) t 
GR
GR
GS
[0.75 0 0 0.75 247.24999 32.75] CT
0.149 GC
/Helvetica 13.333 F
GS
[1 0 0 1 0 0] CT
-26 5.5 moveto 
1 -1 scale
(0.15) t 
GR
GR
GS
[0 -0.75 0.75 0 217.5 81.5] CT
0.149 GC
/Helvetica 14.667 F
GS
[1 0 0 1 0 0] CT
0 0 moveto 
1 -1 scale
(c) t 
GR
GR
GS
[0 -0.75 0.75 0 222.75 75.5] CT
0.149 GC
/Helvetica 11.733 F
GS
[1 0 0 1 0 0] CT
0 0 moveto 
1 -1 scale
(d) t 
GR
GR
GS
[0.75 0 0 0.75 309 23] CT
/Helvetica-Bold 14.667 F
GS
[1 0 0 1 0 0] CT
0 0 moveto 
1 -1 scale
(c) t 
GR
GR
GS
[0.75 0 0 0.75 315.75 28.25] CT
/Helvetica-Bold 11.733 F
GS
[1 0 0 1 0 0] CT
0 0 moveto 
1 -1 scale
(d) t 
GR
GR
GS
[0.75 0 0 0.75 0 0.5] CT
[10 6] 0 setdash
2 LJ
1.333 LW
N
375.133 117.788 M
378 122.542 L
380.867 124.811 L
383.733 129.426 L
386.6 143.111 L
389.467 143.265 L
392.333 143.035 L
395.2 143.012 L
398.067 142.897 L
400.933 142.736 L
403.8 142.498 L
406.667 141.816 L
409.533 141.517 L
412.4 141.118 L
415.267 140.727 L
418.133 140.574 L
421 140.068 L
423.867 139.178 L
426.733 138.58 L
429.6 137.898 L
432.467 137.239 L
435.333 136.702 L
438.2 136.135 L
441.067 135.031 L
443.933 134.157 L
446.8 133.152 L
449.667 132.271 L
452.533 131.512 L
455.4 130.806 L
458.267 129.189 L
461.133 127.188 L
464 125.309 L
466.867 124.052 L
469.733 123.692 L
472.6 119.383 L
475.467 114.4 L
478.333 116.945 L
481.2 106.135 L
484.067 102.984 L
486.933 59.046 L
489.8 69.097 L
492.667 67.227 L
495.533 52.507 L
S
GR
GS
[0.75 0 0 0.75 0 0.5] CT
0 0 1 RC
1 LJ
2 LW
N
375.133 133.175 M
378 132.631 L
380.867 144.3 L
383.733 144.468 L
386.6 144.599 L
389.467 144.698 L
392.333 144.683 L
395.2 144.468 L
398.067 144.208 L
400.933 144.093 L
403.8 143.809 L
406.667 143.525 L
409.533 143.042 L
412.4 142.529 L
415.267 142.199 L
418.133 142.161 L
421 141.708 L
423.867 141.195 L
426.733 140.313 L
429.6 139.83 L
432.467 139.324 L
435.333 138.864 L
438.2 138.335 L
441.067 137.4 L
443.933 136.725 L
446.8 136.073 L
449.667 135.506 L
452.533 134.977 L
455.4 133.865 L
458.267 132.8 L
461.133 132.225 L
464 131.719 L
466.867 129.932 L
469.733 128.353 L
472.6 127.816 L
475.467 124.121 L
478.333 122.235 L
481.2 115.948 L
484.067 110.651 L
486.933 101.98 L
489.8 89.682 L
492.667 77.515 L
495.533 67.142 L
S
GR
GS
[0.75 0 0 0.75 0 0.5] CT
1 GC
N
335 353 M
507 353 L
507 238 L
335 238 L
cp
f
GR
GS
[0.75 0 0 0.75 0 0.5] CT
0.873 GC
1 LJ
0.667 LW
N
335 353 M
335 238 L
S
GR
GS
[0.75 0 0 0.75 0 0.5] CT
0.873 GC
1 LJ
0.667 LW
N
392.333 353 M
392.333 238 L
S
GR
GS
[0.75 0 0 0.75 0 0.5] CT
0.873 GC
1 LJ
0.667 LW
N
449.667 353 M
449.667 238 L
S
GR
GS
[0.75 0 0 0.75 0 0.5] CT
0.873 GC
1 LJ
0.667 LW
N
507 353 M
507 238 L
S
GR
GS
[0.75 0 0 0.75 0 0.5] CT
0.873 GC
1 LJ
0.667 LW
N
507 353 M
335 353 L
S
GR
GS
[0.75 0 0 0.75 0 0.5] CT
0.873 GC
1 LJ
0.667 LW
N
507 314.667 M
335 314.667 L
S
GR
GS
[0.75 0 0 0.75 0 0.5] CT
0.873 GC
1 LJ
0.667 LW
N
507 276.333 M
335 276.333 L
S
GR
GS
[0.75 0 0 0.75 0 0.5] CT
0.873 GC
1 LJ
0.667 LW
N
507 238 M
335 238 L
S
GR
GS
[0.75 0 0 0.75 0 0.5] CT
0.149 GC
2 setlinecap
1 LJ
0.667 LW
N
335 353 M
507 353 L
S
GR
GS
[0.75 0 0 0.75 0 0.5] CT
0.149 GC
2 setlinecap
1 LJ
0.667 LW
N
335 238 M
507 238 L
S
GR
GS
[0.75 0 0 0.75 0 0.5] CT
0.149 GC
2 setlinecap
1 LJ
0.667 LW
N
335 353 M
335 351.28 L
S
GR
GS
[0.75 0 0 0.75 0 0.5] CT
0.149 GC
2 setlinecap
1 LJ
0.667 LW
N
392.333 353 M
392.333 351.28 L
S
GR
GS
[0.75 0 0 0.75 0 0.5] CT
0.149 GC
2 setlinecap
1 LJ
0.667 LW
N
449.667 353 M
449.667 351.28 L
S
GR
GS
[0.75 0 0 0.75 0 0.5] CT
0.149 GC
2 setlinecap
1 LJ
0.667 LW
N
507 353 M
507 351.28 L
S
GR
GS
[0.75 0 0 0.75 0 0.5] CT
0.149 GC
2 setlinecap
1 LJ
0.667 LW
N
335 238 M
335 239.72 L
S
GR
GS
[0.75 0 0 0.75 0 0.5] CT
0.149 GC
2 setlinecap
1 LJ
0.667 LW
N
392.333 238 M
392.333 239.72 L
S
GR
GS
[0.75 0 0 0.75 0 0.5] CT
0.149 GC
2 setlinecap
1 LJ
0.667 LW
N
449.667 238 M
449.667 239.72 L
S
GR
GS
[0.75 0 0 0.75 0 0.5] CT
0.149 GC
2 setlinecap
1 LJ
0.667 LW
N
507 238 M
507 239.72 L
S
GR
GS
[0.75 0 0 0.75 251.25 269.25001] CT
0.149 GC
/Helvetica 13.333 F
GS
[1 0 0 1 0 0] CT
-9.5 14 moveto 
1 -1 scale
(-10) t 
GR
GR
GS
[0.75 0 0 0.75 294.25001 269.25001] CT
0.149 GC
/Helvetica 13.333 F
GS
[1 0 0 1 0 0] CT
-4 14 moveto 
1 -1 scale
(0) t 
GR
GR
GS
[0.75 0 0 0.75 337.24999 269.25001] CT
0.149 GC
/Helvetica 13.333 F
GS
[1 0 0 1 0 0] CT
-7.5 14 moveto 
1 -1 scale
(10) t 
GR
GR
GS
[0.75 0 0 0.75 380.25 269.25001] CT
0.149 GC
/Helvetica 13.333 F
GS
[1 0 0 1 0 0] CT
-7.5 14 moveto 
1 -1 scale
(20) t 
GR
GR
GS
[0.75 0 0 0.75 304.5 295.25] CT
0.149 GC
N
f368136476
f
GR
GS
[0.75 0 0 0.75 312 295.25] CT
0.149 GC
/Helvetica 14.667 F
GS
[1 0 0 1 0 0] CT
0 0 moveto 
1 -1 scale
( [\260]) t 
GR
GR
GS
[0.75 0 0 0.75 0 0.5] CT
0.149 GC
2 setlinecap
1 LJ
0.667 LW
N
335 353 M
335 238 L
S
GR
GS
[0.75 0 0 0.75 0 0.5] CT
0.149 GC
2 setlinecap
1 LJ
0.667 LW
N
507 353 M
507 238 L
S
GR
GS
[0.75 0 0 0.75 0 0.5] CT
0.149 GC
2 setlinecap
1 LJ
0.667 LW
N
335 353 M
336.72 353 L
S
GR
GS
[0.75 0 0 0.75 0 0.5] CT
0.149 GC
2 setlinecap
1 LJ
0.667 LW
N
335 314.667 M
336.72 314.667 L
S
GR
GS
[0.75 0 0 0.75 0 0.5] CT
0.149 GC
2 setlinecap
1 LJ
0.667 LW
N
335 276.333 M
336.72 276.333 L
S
GR
GS
[0.75 0 0 0.75 0 0.5] CT
0.149 GC
2 setlinecap
1 LJ
0.667 LW
N
335 238 M
336.72 238 L
S
GR
GS
[0.75 0 0 0.75 0 0.5] CT
0.149 GC
2 setlinecap
1 LJ
0.667 LW
N
507 353 M
505.28 353 L
S
GR
GS
[0.75 0 0 0.75 0 0.5] CT
0.149 GC
2 setlinecap
1 LJ
0.667 LW
N
507 314.667 M
505.28 314.667 L
S
GR
GS
[0.75 0 0 0.75 0 0.5] CT
0.149 GC
2 setlinecap
1 LJ
0.667 LW
N
507 276.333 M
505.28 276.333 L
S
GR
GS
[0.75 0 0 0.75 0 0.5] CT
0.149 GC
2 setlinecap
1 LJ
0.667 LW
N
507 238 M
505.28 238 L
S
GR
GS
[0.75 0 0 0.75 247.24999 265.25] CT
0.149 GC
/Helvetica 13.333 F
GS
[1 0 0 1 0 0] CT
-23 5.5 moveto 
1 -1 scale
(-0.3) t 
GR
GR
GS
[0.75 0 0 0.75 247.24999 236.49999] CT
0.149 GC
/Helvetica 13.333 F
GS
[1 0 0 1 0 0] CT
-30 5.5 moveto 
1 -1 scale
(-0.25) t 
GR
GR
GS
[0.75 0 0 0.75 247.24999 207.75001] CT
0.149 GC
/Helvetica 13.333 F
GS
[1 0 0 1 0 0] CT
-23 5.5 moveto 
1 -1 scale
(-0.2) t 
GR
GR
GS
[0.75 0 0 0.75 247.24999 179] CT
0.149 GC
/Helvetica 13.333 F
GS
[1 0 0 1 0 0] CT
-30 5.5 moveto 
1 -1 scale
(-0.15) t 
GR
GR
GS
[0 -0.75 0.75 0 214.5 228.5] CT
0.149 GC
/Helvetica 14.667 F
GS
[1 0 0 1 0 0] CT
0 0 moveto 
1 -1 scale
(c) t 
GR
GR
GS
[0 -0.75 0.75 0 219.75 222.5] CT
0.149 GC
/Helvetica 11.733 F
GS
[1 0 0 1 0 0] CT
0 0 moveto 
1 -1 scale
(m) t 
GR
GR
GS
[0.75 0 0 0.75 308.25 169.25] CT
/Helvetica-Bold 14.667 F
GS
[1 0 0 1 0 0] CT
0 0 moveto 
1 -1 scale
(c) t 
GR
GR
GS
[0.75 0 0 0.75 315 174.5] CT
/Helvetica-Bold 11.733 F
GS
[1 0 0 1 0 0] CT
0 0 moveto 
1 -1 scale
(m) t 
GR
GR
GS
[0.75 0 0 0.75 0 0.5] CT
[10 6] 0 setdash
2 LJ
1.333 LW
N
375.133 244.823 M
378 258.47 L
380.867 261.23 L
383.733 279.553 L
386.6 343.493 L
389.467 345.487 L
392.333 347.557 L
395.2 348.4 L
398.067 349.013 L
400.933 349.933 L
403.8 351.007 L
406.667 352.157 L
409.533 351.927 L
412.4 351.697 L
415.267 351.773 L
418.133 350.393 L
421 350.317 L
423.867 350.47 L
426.733 349.473 L
429.6 348.477 L
432.467 347.557 L
435.333 346.713 L
438.2 346.33 L
441.067 346.023 L
443.933 343.493 L
446.8 340.963 L
449.667 338.663 L
452.533 336.9 L
455.4 336.44 L
458.267 332.683 L
461.133 325.17 L
464 319.573 L
466.867 316.66 L
469.733 316.737 L
472.6 308.457 L
475.467 301.327 L
478.333 302.4 L
481.2 294.35 L
484.067 292.587 L
486.933 295.883 L
489.8 292.97 L
492.667 292.97 L
495.533 296.42 L
S
GR
GS
[0.75 0 0 0.75 0 0.5] CT
0 0 1 RC
1 LJ
2 LW
N
375.133 278.557 M
378 276.947 L
380.867 317.81 L
383.733 319.42 L
386.6 320.8 L
389.467 321.72 L
392.333 322.563 L
395.2 323.33 L
398.067 324.403 L
400.933 325.093 L
403.8 325.093 L
406.667 325.093 L
409.533 325.323 L
412.4 325.323 L
415.267 325.17 L
418.133 323.483 L
421 323.33 L
423.867 323.253 L
426.733 323.253 L
429.6 322.257 L
432.467 321.337 L
435.333 320.57 L
438.2 320.11 L
441.067 319.957 L
443.933 317.963 L
446.8 316.123 L
449.667 314.82 L
452.533 314.13 L
455.4 312.367 L
458.267 308.457 L
461.133 304.777 L
464 303.397 L
466.867 296.42 L
469.733 290.823 L
472.6 288.83 L
475.467 280.933 L
478.333 277.56 L
481.2 272.73 L
484.067 270.66 L
486.933 269.663 L
489.8 270.353 L
492.667 272.04 L
495.533 274.033 L
S
GR
%%Trailer
%%Pages: 1
%%EOF
