%!PS-Adobe-3.0 EPSF-3.0
%%Creator: (MATLAB, The Mathworks, Inc. Version 9.2.0.538062 \(R2017a\). Operating System: Windows 8)
%%Title: C:/Documents/Tucano/ARD_CODES/05-XFOIL/FIG_Curvas2.eps
%%CreationDate: 2022-08-06T16:51:10
%%Pages: (atend)
%%BoundingBox: 0 0 419 308
%%LanguageLevel: 3
%%EndComments
%%BeginProlog
%%BeginResource: procset (Apache XML Graphics Std ProcSet) 1.2 0
%%Version: 1.2 0
%%Copyright: (Copyright 2001-2003,2010 The Apache Software Foundation. License terms: http://www.apache.org/licenses/LICENSE-2.0)
/bd{bind def}bind def
/ld{load def}bd
/GR/grestore ld
/M/moveto ld
/LJ/setlinejoin ld
/C/curveto ld
/f/fill ld
/LW/setlinewidth ld
/GC/setgray ld
/t/show ld
/N/newpath ld
/CT/concat ld
/cp/closepath ld
/S/stroke ld
/L/lineto ld
/CC/setcmykcolor ld
/A/ashow ld
/GS/gsave ld
/RC/setrgbcolor ld
/RM/rmoveto ld
/ML/setmiterlimit ld
/re {4 2 roll M
1 index 0 rlineto
0 exch rlineto
neg 0 rlineto
cp } bd
/_ctm matrix def
/_tm matrix def
/BT { _ctm currentmatrix pop matrix _tm copy pop 0 0 moveto } bd
/ET { _ctm setmatrix } bd
/iTm { _ctm setmatrix _tm concat } bd
/Tm { _tm astore pop iTm 0 0 moveto } bd
/ux 0.0 def
/uy 0.0 def
/F {
  /Tp exch def
  /Tf exch def
  Tf findfont Tp scalefont setfont
  /cf Tf def  /cs Tp def
} bd
/ULS {currentpoint /uy exch def /ux exch def} bd
/ULE {
  /Tcx currentpoint pop def
  gsave
  newpath
  cf findfont cs scalefont dup
  /FontMatrix get 0 get /Ts exch def /FontInfo get dup
  /UnderlinePosition get Ts mul /To exch def
  /UnderlineThickness get Ts mul /Tt exch def
  ux uy To add moveto  Tcx uy To add lineto
  Tt setlinewidth stroke
  grestore
} bd
/OLE {
  /Tcx currentpoint pop def
  gsave
  newpath
  cf findfont cs scalefont dup
  /FontMatrix get 0 get /Ts exch def /FontInfo get dup
  /UnderlinePosition get Ts mul /To exch def
  /UnderlineThickness get Ts mul /Tt exch def
  ux uy To add cs add moveto Tcx uy To add cs add lineto
  Tt setlinewidth stroke
  grestore
} bd
/SOE {
  /Tcx currentpoint pop def
  gsave
  newpath
  cf findfont cs scalefont dup
  /FontMatrix get 0 get /Ts exch def /FontInfo get dup
  /UnderlinePosition get Ts mul /To exch def
  /UnderlineThickness get Ts mul /Tt exch def
  ux uy To add cs 10 mul 26 idiv add moveto Tcx uy To add cs 10 mul 26 idiv add lineto
  Tt setlinewidth stroke
  grestore
} bd
/QT {
/Y22 exch store
/X22 exch store
/Y21 exch store
/X21 exch store
currentpoint
/Y21 load 2 mul add 3 div exch
/X21 load 2 mul add 3 div exch
/X21 load 2 mul /X22 load add 3 div
/Y21 load 2 mul /Y22 load add 3 div
/X22 load /Y22 load curveto
} bd
/SSPD {
dup length /d exch dict def
{
/v exch def
/k exch def
currentpagedevice k known {
/cpdv currentpagedevice k get def
v cpdv ne {
/upd false def
/nullv v type /nulltype eq def
/nullcpdv cpdv type /nulltype eq def
nullv nullcpdv or
{
/upd true def
} {
/sametype v type cpdv type eq def
sametype {
v type /arraytype eq {
/vlen v length def
/cpdvlen cpdv length def
vlen cpdvlen eq {
0 1 vlen 1 sub {
/i exch def
/obj v i get def
/cpdobj cpdv i get def
obj cpdobj ne {
/upd true def
exit
} if
} for
} {
/upd true def
} ifelse
} {
v type /dicttype eq {
v {
/dv exch def
/dk exch def
/cpddv cpdv dk get def
dv cpddv ne {
/upd true def
exit
} if
} forall
} {
/upd true def
} ifelse
} ifelse
} if
} ifelse
upd true eq {
d k v put
} if
} if
} if
} forall
d length 0 gt {
d setpagedevice
} if
} bd
/RE { % /NewFontName [NewEncodingArray] /FontName RE -
  findfont dup length dict begin
  {
    1 index /FID ne
    {def} {pop pop} ifelse
  } forall
  /Encoding exch def
  /FontName 1 index def
  currentdict definefont pop
  end
} bind def
%%EndResource
%%BeginResource: procset (Apache XML Graphics EPS ProcSet) 1.0 0
%%Version: 1.0 0
%%Copyright: (Copyright 2002-2003 The Apache Software Foundation. License terms: http://www.apache.org/licenses/LICENSE-2.0)
/BeginEPSF { %def
/b4_Inc_state save def         % Save state for cleanup
/dict_count countdictstack def % Count objects on dict stack
/op_count count 1 sub def      % Count objects on operand stack
userdict begin                 % Push userdict on dict stack
/showpage { } def              % Redefine showpage, { } = null proc
0 setgray 0 setlinecap         % Prepare graphics state
1 setlinewidth 0 setlinejoin
10 setmiterlimit [ ] 0 setdash newpath
/languagelevel where           % If level not equal to 1 then
{pop languagelevel             % set strokeadjust and
1 ne                           % overprint to their defaults.
{false setstrokeadjust false setoverprint
} if
} if
} bd
/EndEPSF { %def
count op_count sub {pop} repeat            % Clean up stacks
countdictstack dict_count sub {end} repeat
b4_Inc_state restore
} bd
%%EndResource
%FOPBeginFontDict
%%IncludeResource: font Courier-Bold
%%IncludeResource: font Helvetica
%%IncludeResource: font Courier-BoldOblique
%%IncludeResource: font Courier-Oblique
%%IncludeResource: font Times-Roman
%%IncludeResource: font Helvetica-BoldOblique
%%IncludeResource: font Helvetica-Bold
%%IncludeResource: font Helvetica-Oblique
%%IncludeResource: font Times-BoldItalic
%%IncludeResource: font Courier
%%IncludeResource: font Times-Italic
%%IncludeResource: font Times-Bold
%%IncludeResource: font Symbol
%%IncludeResource: font ZapfDingbats
%FOPEndFontDict
%%BeginResource: encoding WinAnsiEncoding
/WinAnsiEncoding [
/.notdef /.notdef /.notdef /.notdef /.notdef
/.notdef /.notdef /.notdef /.notdef /.notdef
/.notdef /.notdef /.notdef /.notdef /.notdef
/.notdef /.notdef /.notdef /.notdef /.notdef
/.notdef /.notdef /.notdef /.notdef /.notdef
/.notdef /.notdef /.notdef /.notdef /.notdef
/.notdef /.notdef /space /exclam /quotedbl
/numbersign /dollar /percent /ampersand /quotesingle
/parenleft /parenright /asterisk /plus /comma
/hyphen /period /slash /zero /one
/two /three /four /five /six
/seven /eight /nine /colon /semicolon
/less /equal /greater /question /at
/A /B /C /D /E
/F /G /H /I /J
/K /L /M /N /O
/P /Q /R /S /T
/U /V /W /X /Y
/Z /bracketleft /backslash /bracketright /asciicircum
/underscore /quoteleft /a /b /c
/d /e /f /g /h
/i /j /k /l /m
/n /o /p /q /r
/s /t /u /v /w
/x /y /z /braceleft /bar
/braceright /asciitilde /bullet /Euro /bullet
/quotesinglbase /florin /quotedblbase /ellipsis /dagger
/daggerdbl /circumflex /perthousand /Scaron /guilsinglleft
/OE /bullet /Zcaron /bullet /bullet
/quoteleft /quoteright /quotedblleft /quotedblright /bullet
/endash /emdash /asciitilde /trademark /scaron
/guilsinglright /oe /bullet /zcaron /Ydieresis
/space /exclamdown /cent /sterling /currency
/yen /brokenbar /section /dieresis /copyright
/ordfeminine /guillemotleft /logicalnot /sfthyphen /registered
/macron /degree /plusminus /twosuperior /threesuperior
/acute /mu /paragraph /middot /cedilla
/onesuperior /ordmasculine /guillemotright /onequarter /onehalf
/threequarters /questiondown /Agrave /Aacute /Acircumflex
/Atilde /Adieresis /Aring /AE /Ccedilla
/Egrave /Eacute /Ecircumflex /Edieresis /Igrave
/Iacute /Icircumflex /Idieresis /Eth /Ntilde
/Ograve /Oacute /Ocircumflex /Otilde /Odieresis
/multiply /Oslash /Ugrave /Uacute /Ucircumflex
/Udieresis /Yacute /Thorn /germandbls /agrave
/aacute /acircumflex /atilde /adieresis /aring
/ae /ccedilla /egrave /eacute /ecircumflex
/edieresis /igrave /iacute /icircumflex /idieresis
/eth /ntilde /ograve /oacute /ocircumflex
/otilde /odieresis /divide /oslash /ugrave
/uacute /ucircumflex /udieresis /yacute /thorn
/ydieresis
] def
%%EndResource
%FOPBeginFontReencode
/Courier-Bold findfont
dup length dict begin
  {1 index /FID ne {def} {pop pop} ifelse} forall
  /Encoding WinAnsiEncoding def
  currentdict
end
/Courier-Bold exch definefont pop
/Helvetica findfont
dup length dict begin
  {1 index /FID ne {def} {pop pop} ifelse} forall
  /Encoding WinAnsiEncoding def
  currentdict
end
/Helvetica exch definefont pop
/Courier-BoldOblique findfont
dup length dict begin
  {1 index /FID ne {def} {pop pop} ifelse} forall
  /Encoding WinAnsiEncoding def
  currentdict
end
/Courier-BoldOblique exch definefont pop
/Courier-Oblique findfont
dup length dict begin
  {1 index /FID ne {def} {pop pop} ifelse} forall
  /Encoding WinAnsiEncoding def
  currentdict
end
/Courier-Oblique exch definefont pop
/Times-Roman findfont
dup length dict begin
  {1 index /FID ne {def} {pop pop} ifelse} forall
  /Encoding WinAnsiEncoding def
  currentdict
end
/Times-Roman exch definefont pop
/Helvetica-BoldOblique findfont
dup length dict begin
  {1 index /FID ne {def} {pop pop} ifelse} forall
  /Encoding WinAnsiEncoding def
  currentdict
end
/Helvetica-BoldOblique exch definefont pop
/Helvetica-Bold findfont
dup length dict begin
  {1 index /FID ne {def} {pop pop} ifelse} forall
  /Encoding WinAnsiEncoding def
  currentdict
end
/Helvetica-Bold exch definefont pop
/Helvetica-Oblique findfont
dup length dict begin
  {1 index /FID ne {def} {pop pop} ifelse} forall
  /Encoding WinAnsiEncoding def
  currentdict
end
/Helvetica-Oblique exch definefont pop
/Times-BoldItalic findfont
dup length dict begin
  {1 index /FID ne {def} {pop pop} ifelse} forall
  /Encoding WinAnsiEncoding def
  currentdict
end
/Times-BoldItalic exch definefont pop
/Courier findfont
dup length dict begin
  {1 index /FID ne {def} {pop pop} ifelse} forall
  /Encoding WinAnsiEncoding def
  currentdict
end
/Courier exch definefont pop
/Times-Italic findfont
dup length dict begin
  {1 index /FID ne {def} {pop pop} ifelse} forall
  /Encoding WinAnsiEncoding def
  currentdict
end
/Times-Italic exch definefont pop
/Times-Bold findfont
dup length dict begin
  {1 index /FID ne {def} {pop pop} ifelse} forall
  /Encoding WinAnsiEncoding def
  currentdict
end
/Times-Bold exch definefont pop
%FOPEndFontReencode
%%EndProlog
%%Page: 1 1
%%PageBoundingBox: 0 0 419 308
%%BeginPageSetup
[1 0 0 -1 0 308] CT
%%EndPageSetup
GS
[0.75 0 0 0.75 0 0.5] CT
N
0 0 M
559 0 L
559 410 L
0 410 L
0 0 L
cp
clip
1 GC
N
0 0 559 410 re
f
GR
GS
[0.75 0 0 0.75 0 0.5] CT
1 GC
N
0 0 559 410 re
f
GR
GS
[0.75 0 0 0.75 0 0.5] CT
1 GC
N
73 365 M
260 365 L
260 31 L
73 31 L
cp
f
GR
GS
[0.75 0 0 0.75 0 0.5] CT
0.873 GC
1 LJ
0.667 LW
N
73 365 M
73 31 L
S
GR
GS
[0.75 0 0 0.75 0 0.5] CT
0.873 GC
1 LJ
0.667 LW
N
135.333 365 M
135.333 31 L
S
GR
GS
[0.75 0 0 0.75 0 0.5] CT
0.873 GC
1 LJ
0.667 LW
N
197.667 365 M
197.667 31 L
S
GR
GS
[0.75 0 0 0.75 0 0.5] CT
0.873 GC
1 LJ
0.667 LW
N
260 365 M
260 31 L
S
GR
GS
[0.75 0 0 0.75 0 0.5] CT
0.873 GC
1 LJ
0.667 LW
N
260 365 M
73 365 L
S
GR
GS
[0.75 0 0 0.75 0 0.5] CT
0.873 GC
1 LJ
0.667 LW
N
260 327.889 M
73 327.889 L
S
GR
GS
[0.75 0 0 0.75 0 0.5] CT
0.873 GC
1 LJ
0.667 LW
N
260 290.778 M
73 290.778 L
S
GR
GS
[0.75 0 0 0.75 0 0.5] CT
0.873 GC
1 LJ
0.667 LW
N
260 253.667 M
73 253.667 L
S
GR
GS
[0.75 0 0 0.75 0 0.5] CT
0.873 GC
1 LJ
0.667 LW
N
260 216.556 M
73 216.556 L
S
GR
GS
[0.75 0 0 0.75 0 0.5] CT
0.873 GC
1 LJ
0.667 LW
N
260 179.444 M
73 179.444 L
S
GR
GS
[0.75 0 0 0.75 0 0.5] CT
0.873 GC
1 LJ
0.667 LW
N
260 142.333 M
73 142.333 L
S
GR
GS
[0.75 0 0 0.75 0 0.5] CT
0.873 GC
1 LJ
0.667 LW
N
260 105.222 M
73 105.222 L
S
GR
GS
[0.75 0 0 0.75 0 0.5] CT
0.873 GC
1 LJ
0.667 LW
N
260 68.111 M
73 68.111 L
S
GR
GS
[0.75 0 0 0.75 0 0.5] CT
0.873 GC
1 LJ
0.667 LW
N
260 31 M
73 31 L
S
GR
GS
[0.75 0 0 0.75 0 0.5] CT
0.149 GC
2 setlinecap
1 LJ
0.667 LW
N
73 365 M
260 365 L
S
GR
GS
[0.75 0 0 0.75 0 0.5] CT
0.149 GC
2 setlinecap
1 LJ
0.667 LW
N
73 31 M
260 31 L
S
GR
GS
[0.75 0 0 0.75 0 0.5] CT
0.149 GC
2 setlinecap
1 LJ
0.667 LW
N
73 365 M
73 361.66 L
S
GR
GS
[0.75 0 0 0.75 0 0.5] CT
0.149 GC
2 setlinecap
1 LJ
0.667 LW
N
135.333 365 M
135.333 361.66 L
S
GR
GS
[0.75 0 0 0.75 0 0.5] CT
0.149 GC
2 setlinecap
1 LJ
0.667 LW
N
197.667 365 M
197.667 361.66 L
S
GR
GS
[0.75 0 0 0.75 0 0.5] CT
0.149 GC
2 setlinecap
1 LJ
0.667 LW
N
260 365 M
260 361.66 L
S
GR
GS
[0.75 0 0 0.75 0 0.5] CT
0.149 GC
2 setlinecap
1 LJ
0.667 LW
N
73 31 M
73 34.34 L
S
GR
GS
[0.75 0 0 0.75 0 0.5] CT
0.149 GC
2 setlinecap
1 LJ
0.667 LW
N
135.333 31 M
135.333 34.34 L
S
GR
GS
[0.75 0 0 0.75 0 0.5] CT
0.149 GC
2 setlinecap
1 LJ
0.667 LW
N
197.667 31 M
197.667 34.34 L
S
GR
GS
[0.75 0 0 0.75 0 0.5] CT
0.149 GC
2 setlinecap
1 LJ
0.667 LW
N
260 31 M
260 34.34 L
S
GR
GS
[0.75 0 0 0.75 54.75 278.25001] CT
0.149 GC
/Helvetica 13.333 F
GS
[1 0 0 1 0 0] CT
-9.5 14 moveto 
1 -1 scale
(-10) t 
GR
GR
GS
[0.75 0 0 0.75 101.5 278.25001] CT
0.149 GC
/Helvetica 13.333 F
GS
[1 0 0 1 0 0] CT
-4 14 moveto 
1 -1 scale
(0) t 
GR
GR
GS
[0.75 0 0 0.75 148.25 278.25001] CT
0.149 GC
/Helvetica 13.333 F
GS
[1 0 0 1 0 0] CT
-7.5 14 moveto 
1 -1 scale
(10) t 
GR
GR
GS
[0.75 0 0 0.75 195 278.25001] CT
0.149 GC
/Helvetica 13.333 F
GS
[1 0 0 1 0 0] CT
-7.5 14 moveto 
1 -1 scale
(20) t 
GR
GR
GS
[0.75 0 0 0.75 114 304.25] CT
0.149 GC
N
3.016 0.172 M
2.313 0.172 1.758 -0.164 QT
1.203 -0.5 0.898 -1.07 QT
0.594 -1.641 0.594 -2.375 QT
0.594 -3.391 1.164 -4.391 QT
1.734 -5.391 2.68 -6.008 QT
3.625 -6.625 4.656 -6.625 QT
5.406 -6.625 5.984 -6.227 QT
6.563 -5.828 6.867 -5.164 QT
7.172 -4.5 7.172 -3.75 QT
7.188 -2.75 L
7.703 -3.453 8.055 -4.219 QT
8.406 -4.984 8.594 -5.813 QT
8.625 -5.891 8.719 -5.891 QT
8.891 -5.891 L
9.031 -5.891 9.031 -5.75 QT
9.031 -5.75 9.016 -5.719 QT
8.844 -5.031 8.578 -4.391 QT
8.313 -3.75 7.961 -3.164 QT
7.609 -2.578 7.188 -2.094 QT
7.188 -0.234 7.625 -0.234 QT
7.891 -0.234 8.07 -0.398 QT
8.25 -0.563 8.391 -0.805 QT
8.531 -1.047 8.563 -1.047 QT
8.75 -1.047 L
8.859 -1.047 8.859 -0.906 QT
8.859 -0.531 8.43 -0.18 QT
8 0.172 7.594 0.172 QT
7.047 0.172 6.688 -0.18 QT
6.328 -0.531 6.203 -1.094 QT
5.5 -0.5 4.68 -0.164 QT
3.859 0.172 3.016 0.172 QT
cp
3.047 -0.234 M
4.656 -0.234 6.125 -1.547 QT
6.109 -1.641 6.102 -1.766 QT
6.094 -1.891 6.094 -1.906 QT
6.094 -3.516 L
6.094 -6.234 4.625 -6.234 QT
3.75 -6.234 3.086 -5.484 QT
2.422 -4.734 2.094 -3.695 QT
1.766 -2.656 1.766 -1.781 QT
1.766 -1.141 2.094 -0.688 QT
2.422 -0.234 3.047 -0.234 QT
cp
f
GR
GS
[0.75 0 0 0.75 121.5 304.25] CT
0.149 GC
/Helvetica 14.667 F
GS
[1 0 0 1 0 0] CT
0 0 moveto 
1 -1 scale
( [\260]) t 
GR
GR
GS
[0.75 0 0 0.75 0 0.5] CT
0.149 GC
2 setlinecap
1 LJ
0.667 LW
N
73 365 M
73 31 L
S
GR
GS
[0.75 0 0 0.75 0 0.5] CT
0.149 GC
2 setlinecap
1 LJ
0.667 LW
N
260 365 M
260 31 L
S
GR
GS
[0.75 0 0 0.75 0 0.5] CT
0.149 GC
2 setlinecap
1 LJ
0.667 LW
N
73 365 M
76.34 365 L
S
GR
GS
[0.75 0 0 0.75 0 0.5] CT
0.149 GC
2 setlinecap
1 LJ
0.667 LW
N
73 327.889 M
76.34 327.889 L
S
GR
GS
[0.75 0 0 0.75 0 0.5] CT
0.149 GC
2 setlinecap
1 LJ
0.667 LW
N
73 290.778 M
76.34 290.778 L
S
GR
GS
[0.75 0 0 0.75 0 0.5] CT
0.149 GC
2 setlinecap
1 LJ
0.667 LW
N
73 253.667 M
76.34 253.667 L
S
GR
GS
[0.75 0 0 0.75 0 0.5] CT
0.149 GC
2 setlinecap
1 LJ
0.667 LW
N
73 216.556 M
76.34 216.556 L
S
GR
GS
[0.75 0 0 0.75 0 0.5] CT
0.149 GC
2 setlinecap
1 LJ
0.667 LW
N
73 179.444 M
76.34 179.444 L
S
GR
GS
[0.75 0 0 0.75 0 0.5] CT
0.149 GC
2 setlinecap
1 LJ
0.667 LW
N
73 142.333 M
76.34 142.333 L
S
GR
GS
[0.75 0 0 0.75 0 0.5] CT
0.149 GC
2 setlinecap
1 LJ
0.667 LW
N
73 105.222 M
76.34 105.222 L
S
GR
GS
[0.75 0 0 0.75 0 0.5] CT
0.149 GC
2 setlinecap
1 LJ
0.667 LW
N
73 68.111 M
76.34 68.111 L
S
GR
GS
[0.75 0 0 0.75 0 0.5] CT
0.149 GC
2 setlinecap
1 LJ
0.667 LW
N
73 31 M
76.34 31 L
S
GR
GS
[0.75 0 0 0.75 0 0.5] CT
0.149 GC
2 setlinecap
1 LJ
0.667 LW
N
260 365 M
256.66 365 L
S
GR
GS
[0.75 0 0 0.75 0 0.5] CT
0.149 GC
2 setlinecap
1 LJ
0.667 LW
N
260 327.889 M
256.66 327.889 L
S
GR
GS
[0.75 0 0 0.75 0 0.5] CT
0.149 GC
2 setlinecap
1 LJ
0.667 LW
N
260 290.778 M
256.66 290.778 L
S
GR
GS
[0.75 0 0 0.75 0 0.5] CT
0.149 GC
2 setlinecap
1 LJ
0.667 LW
N
260 253.667 M
256.66 253.667 L
S
GR
GS
[0.75 0 0 0.75 0 0.5] CT
0.149 GC
2 setlinecap
1 LJ
0.667 LW
N
260 216.556 M
256.66 216.556 L
S
GR
GS
[0.75 0 0 0.75 0 0.5] CT
0.149 GC
2 setlinecap
1 LJ
0.667 LW
N
260 179.444 M
256.66 179.444 L
S
GR
GS
[0.75 0 0 0.75 0 0.5] CT
0.149 GC
2 setlinecap
1 LJ
0.667 LW
N
260 142.333 M
256.66 142.333 L
S
GR
GS
[0.75 0 0 0.75 0 0.5] CT
0.149 GC
2 setlinecap
1 LJ
0.667 LW
N
260 105.222 M
256.66 105.222 L
S
GR
GS
[0.75 0 0 0.75 0 0.5] CT
0.149 GC
2 setlinecap
1 LJ
0.667 LW
N
260 68.111 M
256.66 68.111 L
S
GR
GS
[0.75 0 0 0.75 0 0.5] CT
0.149 GC
2 setlinecap
1 LJ
0.667 LW
N
260 31 M
256.66 31 L
S
GR
GS
[0.75 0 0 0.75 50.75 274.25] CT
0.149 GC
/Helvetica 13.333 F
GS
[1 0 0 1 0 0] CT
-19 5.5 moveto 
1 -1 scale
(0.4) t 
GR
GR
GS
[0.75 0 0 0.75 50.75 246.41666] CT
0.149 GC
/Helvetica 13.333 F
GS
[1 0 0 1 0 0] CT
-19 5.5 moveto 
1 -1 scale
(0.6) t 
GR
GR
GS
[0.75 0 0 0.75 50.75 218.58333] CT
0.149 GC
/Helvetica 13.333 F
GS
[1 0 0 1 0 0] CT
-19 5.5 moveto 
1 -1 scale
(0.8) t 
GR
GR
GS
[0.75 0 0 0.75 50.75 190.75] CT
0.149 GC
/Helvetica 13.333 F
GS
[1 0 0 1 0 0] CT
-8 5.5 moveto 
1 -1 scale
(1) t 
GR
GR
GS
[0.75 0 0 0.75 50.75 162.91666] CT
0.149 GC
/Helvetica 13.333 F
GS
[1 0 0 1 0 0] CT
-19 5.5 moveto 
1 -1 scale
(1.2) t 
GR
GR
GS
[0.75 0 0 0.75 50.75 135.08333] CT
0.149 GC
/Helvetica 13.333 F
GS
[1 0 0 1 0 0] CT
-19 5.5 moveto 
1 -1 scale
(1.4) t 
GR
GR
GS
[0.75 0 0 0.75 50.75 107.25] CT
0.149 GC
/Helvetica 13.333 F
GS
[1 0 0 1 0 0] CT
-19 5.5 moveto 
1 -1 scale
(1.6) t 
GR
GR
GS
[0.75 0 0 0.75 50.75 79.41667] CT
0.149 GC
/Helvetica 13.333 F
GS
[1 0 0 1 0 0] CT
-19 5.5 moveto 
1 -1 scale
(1.8) t 
GR
GR
GS
[0.75 0 0 0.75 50.75 51.58334] CT
0.149 GC
/Helvetica 13.333 F
GS
[1 0 0 1 0 0] CT
-8 5.5 moveto 
1 -1 scale
(2) t 
GR
GR
GS
[0.75 0 0 0.75 50.75 23.74999] CT
0.149 GC
/Helvetica 13.333 F
GS
[1 0 0 1 0 0] CT
-19 5.5 moveto 
1 -1 scale
(2.2) t 
GR
GR
GS
[0 -0.75 0.75 0 26.25 153.5] CT
0.149 GC
/Helvetica 14.667 F
GS
[1 0 0 1 0 0] CT
0 0 moveto 
1 -1 scale
(c) t 
GR
GR
GS
[0 -0.75 0.75 0 31.5 147.5] CT
0.149 GC
/Helvetica 11.733 F
GS
[1 0 0 1 0 0] CT
0 0 moveto 
1 -1 scale
(l) t 
GR
GR
GS
[0.75 0 0 0.75 120 14] CT
/Helvetica-Bold 14.667 F
GS
[1 0 0 1 0 0] CT
0 0 moveto 
1 -1 scale
(c) t 
GR
GR
GS
[0.75 0 0 0.75 126.75 19.25] CT
/Helvetica-Bold 11.733 F
GS
[1 0 0 1 0 0] CT
0 0 moveto 
1 -1 scale
(l) t 
GR
GR
GS
[0.75 0 0 0.75 0 0.5] CT
[10 6] 0 setdash
2 LJ
1.333 LW
N
116.633 349.228 M
119.75 338.558 L
122.867 327.759 L
125.983 317.219 L
129.1 306.587 L
132.217 295.806 L
138.45 275.006 L
141.567 264.392 L
144.683 257.025 L
147.8 246.968 L
150.917 236.688 L
154.033 226.204 L
157.15 216.092 L
160.267 206.35 L
163.383 196.311 L
166.5 185.957 L
169.617 176.457 L
172.733 167.198 L
175.85 157.475 L
178.967 147.195 L
182.083 138.901 L
185.2 130.068 L
188.317 120.493 L
191.433 111.568 L
194.55 104.127 L
197.667 95.425 L
200.783 86.852 L
203.9 81.378 L
207.017 76.554 L
210.133 73.845 L
213.25 72.305 L
216.367 70.078 L
219.483 69.354 L
222.6 69.948 L
225.717 71.915 L
228.833 75.886 L
231.95 81.954 L
235.067 89.84 L
238.183 98.932 L
241.3 107.597 L
244.417 115.836 L
247.533 123.277 L
S
GR
GS
[0.75 0 0 0.75 0 0.5] CT
0 0 1 RC
1 LJ
2 LW
N
116.633 359.211 M
119.75 347.892 L
122.867 336.647 L
125.983 325.495 L
129.1 314.38 L
132.217 303.377 L
135.333 292.281 L
138.45 281.426 L
141.567 270.756 L
144.683 260.18 L
147.8 249.677 L
150.917 240.733 L
154.033 230.25 L
157.15 219.896 L
160.267 209.653 L
163.383 199.54 L
166.5 189.52 L
169.617 179.667 L
172.733 169.925 L
175.85 160.332 L
178.967 150.943 L
182.083 141.517 L
185.2 132.555 L
188.317 123.629 L
191.433 114.982 L
194.55 106.688 L
197.667 98.078 L
200.783 90.934 L
203.9 84.087 L
207.017 77.723 L
210.133 73.659 L
213.25 68.501 L
216.367 65.049 L
219.483 63.305 L
222.6 61.524 L
225.717 60.856 L
228.833 60.355 L
231.95 61.301 L
235.067 63.101 L
238.183 65.235 L
241.3 68.612 L
244.417 72.36 L
247.533 77.612 L
S
GR
GS
[0.75 0 0 0.75 0 0.5] CT
1 GC
N
80 79 M
80 41 L
186 41 L
186 79 L
cp
f
GR
GS
[0.75 0 0 0.75 95.25 39.05822] CT
/Helvetica 12 F
GS
[1 0 0 1 0 0] CT
0 5 moveto 
1 -1 scale
(Pr\351vio) t 
GR
GR
GS
[0.75 0 0 0.75 0 0.5] CT
[10 6] 0 setdash
2 LJ
1.333 LW
N
84 51.411 M
124 51.411 L
S
GR
GS
[0.75 0 0 0.75 95.25 51.94178] CT
/Helvetica 12 F
GS
[1 0 0 1 0 0] CT
0 5 moveto 
1 -1 scale
(Otimizado) t 
GR
GR
GS
[0.75 0 0 0.75 0 0.5] CT
0 0 1 RC
1 LJ
2 LW
N
84 68.589 M
124 68.589 L
S
GR
GS
[0.75 0 0 0.75 0 0.5] CT
0.149 GC
10.0 ML
0.667 LW
N
80 79 M
80 41 L
186 41 L
186 79 L
cp
S
GR
GS
[0.75 0 0 0.75 0 0.5] CT
1 GC
N
333 158 M
506 158 L
506 43 L
333 43 L
cp
f
GR
GS
[0.75 0 0 0.75 0 0.5] CT
0.873 GC
1 LJ
0.667 LW
N
333 158 M
333 43 L
S
GR
GS
[0.75 0 0 0.75 0 0.5] CT
0.873 GC
1 LJ
0.667 LW
N
390.667 158 M
390.667 43 L
S
GR
GS
[0.75 0 0 0.75 0 0.5] CT
0.873 GC
1 LJ
0.667 LW
N
448.333 158 M
448.333 43 L
S
GR
GS
[0.75 0 0 0.75 0 0.5] CT
0.873 GC
1 LJ
0.667 LW
N
506 158 M
506 43 L
S
GR
GS
[0.75 0 0 0.75 0 0.5] CT
0.873 GC
1 LJ
0.667 LW
N
506 158 M
333 158 L
S
GR
GS
[0.75 0 0 0.75 0 0.5] CT
0.873 GC
1 LJ
0.667 LW
N
506 119.667 M
333 119.667 L
S
GR
GS
[0.75 0 0 0.75 0 0.5] CT
0.873 GC
1 LJ
0.667 LW
N
506 81.333 M
333 81.333 L
S
GR
GS
[0.75 0 0 0.75 0 0.5] CT
0.873 GC
1 LJ
0.667 LW
N
506 43 M
333 43 L
S
GR
GS
[0.75 0 0 0.75 0 0.5] CT
0.149 GC
2 setlinecap
1 LJ
0.667 LW
N
333 158 M
506 158 L
S
GR
GS
[0.75 0 0 0.75 0 0.5] CT
0.149 GC
2 setlinecap
1 LJ
0.667 LW
N
333 43 M
506 43 L
S
GR
GS
[0.75 0 0 0.75 0 0.5] CT
0.149 GC
2 setlinecap
1 LJ
0.667 LW
N
333 158 M
333 156.27 L
S
GR
GS
[0.75 0 0 0.75 0 0.5] CT
0.149 GC
2 setlinecap
1 LJ
0.667 LW
N
390.667 158 M
390.667 156.27 L
S
GR
GS
[0.75 0 0 0.75 0 0.5] CT
0.149 GC
2 setlinecap
1 LJ
0.667 LW
N
448.333 158 M
448.333 156.27 L
S
GR
GS
[0.75 0 0 0.75 0 0.5] CT
0.149 GC
2 setlinecap
1 LJ
0.667 LW
N
506 158 M
506 156.27 L
S
GR
GS
[0.75 0 0 0.75 0 0.5] CT
0.149 GC
2 setlinecap
1 LJ
0.667 LW
N
333 43 M
333 44.73 L
S
GR
GS
[0.75 0 0 0.75 0 0.5] CT
0.149 GC
2 setlinecap
1 LJ
0.667 LW
N
390.667 43 M
390.667 44.73 L
S
GR
GS
[0.75 0 0 0.75 0 0.5] CT
0.149 GC
2 setlinecap
1 LJ
0.667 LW
N
448.333 43 M
448.333 44.73 L
S
GR
GS
[0.75 0 0 0.75 0 0.5] CT
0.149 GC
2 setlinecap
1 LJ
0.667 LW
N
506 43 M
506 44.73 L
S
GR
GS
[0.75 0 0 0.75 249.75 123] CT
0.149 GC
/Helvetica 13.333 F
GS
[1 0 0 1 0 0] CT
-9.5 14 moveto 
1 -1 scale
(-10) t 
GR
GR
GS
[0.75 0 0 0.75 292.99999 123] CT
0.149 GC
/Helvetica 13.333 F
GS
[1 0 0 1 0 0] CT
-4 14 moveto 
1 -1 scale
(0) t 
GR
GR
GS
[0.75 0 0 0.75 336.25001 123] CT
0.149 GC
/Helvetica 13.333 F
GS
[1 0 0 1 0 0] CT
-7.5 14 moveto 
1 -1 scale
(10) t 
GR
GR
GS
[0.75 0 0 0.75 379.5 123] CT
0.149 GC
/Helvetica 13.333 F
GS
[1 0 0 1 0 0] CT
-7.5 14 moveto 
1 -1 scale
(20) t 
GR
GR
GS
[0.75 0 0 0.75 303.75 149] CT
0.149 GC
N
/f368136476{3.016 0.172 M
2.313 0.172 1.758 -0.164 QT
1.203 -0.5 0.898 -1.07 QT
0.594 -1.641 0.594 -2.375 QT
0.594 -3.391 1.164 -4.391 QT
1.734 -5.391 2.68 -6.008 QT
3.625 -6.625 4.656 -6.625 QT
5.406 -6.625 5.984 -6.227 QT
6.563 -5.828 6.867 -5.164 QT
7.172 -4.5 7.172 -3.75 QT
7.188 -2.75 L
7.703 -3.453 8.055 -4.219 QT
8.406 -4.984 8.594 -5.813 QT
8.625 -5.891 8.719 -5.891 QT
8.891 -5.891 L
9.031 -5.891 9.031 -5.75 QT
9.031 -5.75 9.016 -5.719 QT
8.844 -5.031 8.578 -4.391 QT
8.313 -3.75 7.961 -3.164 QT
7.609 -2.578 7.188 -2.094 QT
7.188 -0.234 7.625 -0.234 QT
7.891 -0.234 8.07 -0.398 QT
8.25 -0.563 8.391 -0.805 QT
8.531 -1.047 8.563 -1.047 QT
8.75 -1.047 L
8.859 -1.047 8.859 -0.906 QT
8.859 -0.531 8.43 -0.18 QT
8 0.172 7.594 0.172 QT
7.047 0.172 6.688 -0.18 QT
6.328 -0.531 6.203 -1.094 QT
5.5 -0.5 4.68 -0.164 QT
3.859 0.172 3.016 0.172 QT
cp
3.047 -0.234 M
4.656 -0.234 6.125 -1.547 QT
6.109 -1.641 6.102 -1.766 QT
6.094 -1.891 6.094 -1.906 QT
6.094 -3.516 L
6.094 -6.234 4.625 -6.234 QT
3.75 -6.234 3.086 -5.484 QT
2.422 -4.734 2.094 -3.695 QT
1.766 -2.656 1.766 -1.781 QT
1.766 -1.141 2.094 -0.688 QT
2.422 -0.234 3.047 -0.234 QT
cp}def
f368136476
f
GR
GS
[0.75 0 0 0.75 311.25 149] CT
0.149 GC
/Helvetica 14.667 F
GS
[1 0 0 1 0 0] CT
0 0 moveto 
1 -1 scale
( [\260]) t 
GR
GR
GS
[0.75 0 0 0.75 0 0.5] CT
0.149 GC
2 setlinecap
1 LJ
0.667 LW
N
333 158 M
333 43 L
S
GR
GS
[0.75 0 0 0.75 0 0.5] CT
0.149 GC
2 setlinecap
1 LJ
0.667 LW
N
506 158 M
506 43 L
S
GR
GS
[0.75 0 0 0.75 0 0.5] CT
0.149 GC
2 setlinecap
1 LJ
0.667 LW
N
333 158 M
334.73 158 L
S
GR
GS
[0.75 0 0 0.75 0 0.5] CT
0.149 GC
2 setlinecap
1 LJ
0.667 LW
N
333 119.667 M
334.73 119.667 L
S
GR
GS
[0.75 0 0 0.75 0 0.5] CT
0.149 GC
2 setlinecap
1 LJ
0.667 LW
N
333 81.333 M
334.73 81.333 L
S
GR
GS
[0.75 0 0 0.75 0 0.5] CT
0.149 GC
2 setlinecap
1 LJ
0.667 LW
N
333 43 M
334.73 43 L
S
GR
GS
[0.75 0 0 0.75 0 0.5] CT
0.149 GC
2 setlinecap
1 LJ
0.667 LW
N
506 158 M
504.27 158 L
S
GR
GS
[0.75 0 0 0.75 0 0.5] CT
0.149 GC
2 setlinecap
1 LJ
0.667 LW
N
506 119.667 M
504.27 119.667 L
S
GR
GS
[0.75 0 0 0.75 0 0.5] CT
0.149 GC
2 setlinecap
1 LJ
0.667 LW
N
506 81.333 M
504.27 81.333 L
S
GR
GS
[0.75 0 0 0.75 0 0.5] CT
0.149 GC
2 setlinecap
1 LJ
0.667 LW
N
506 43 M
504.27 43 L
S
GR
GS
[0.75 0 0 0.75 245.74999 119] CT
0.149 GC
/Helvetica 13.333 F
GS
[1 0 0 1 0 0] CT
-8 5.5 moveto 
1 -1 scale
(0) t 
GR
GR
GS
[0.75 0 0 0.75 245.74999 90.25] CT
0.149 GC
/Helvetica 13.333 F
GS
[1 0 0 1 0 0] CT
-26 5.5 moveto 
1 -1 scale
(0.05) t 
GR
GR
GS
[0.75 0 0 0.75 245.74999 61.5] CT
0.149 GC
/Helvetica 13.333 F
GS
[1 0 0 1 0 0] CT
-19 5.5 moveto 
1 -1 scale
(0.1) t 
GR
GR
GS
[0.75 0 0 0.75 245.74999 32.75] CT
0.149 GC
/Helvetica 13.333 F
GS
[1 0 0 1 0 0] CT
-26 5.5 moveto 
1 -1 scale
(0.15) t 
GR
GR
GS
[0 -0.75 0.75 0 216 81.5] CT
0.149 GC
/Helvetica 14.667 F
GS
[1 0 0 1 0 0] CT
0 0 moveto 
1 -1 scale
(c) t 
GR
GR
GS
[0 -0.75 0.75 0 221.25 75.5] CT
0.149 GC
/Helvetica 11.733 F
GS
[1 0 0 1 0 0] CT
0 0 moveto 
1 -1 scale
(d) t 
GR
GR
GS
[0.75 0 0 0.75 308.25 23] CT
/Helvetica-Bold 14.667 F
GS
[1 0 0 1 0 0] CT
0 0 moveto 
1 -1 scale
(c) t 
GR
GR
GS
[0.75 0 0 0.75 315 28.25] CT
/Helvetica-Bold 11.733 F
GS
[1 0 0 1 0 0] CT
0 0 moveto 
1 -1 scale
(d) t 
GR
GR
GS
[0.75 0 0 0.75 0 0.5] CT
[10 6] 0 setdash
2 LJ
1.333 LW
N
373.367 145.986 M
376.25 146.446 L
379.133 146.814 L
382.017 147.06 L
384.9 147.175 L
387.783 147.113 L
393.55 147.037 L
396.433 147.044 L
399.317 147.497 L
402.2 147.29 L
405.083 147.006 L
407.967 146.669 L
410.85 146.216 L
413.733 145.917 L
416.617 145.588 L
419.5 145.158 L
422.383 144.652 L
425.267 144.292 L
428.15 143.97 L
431.033 143.418 L
433.917 142.966 L
436.8 142.582 L
439.683 142.222 L
442.567 141.632 L
445.45 141.133 L
448.333 140.788 L
451.217 140.298 L
454.1 139.945 L
456.983 139.976 L
459.867 139.692 L
462.75 138.78 L
465.633 137.706 L
468.517 136.066 L
471.4 133.62 L
474.283 130.216 L
477.167 125.371 L
480.05 118.777 L
482.933 110.49 L
485.817 100.945 L
488.7 90.955 L
491.583 80.72 L
494.467 70.577 L
S
GR
GS
[0.75 0 0 0.75 0 0.5] CT
0 0 1 RC
1 LJ
2 LW
N
373.367 145.22 M
376.25 146.002 L
379.133 146.684 L
382.017 147.159 L
384.9 147.52 L
387.783 147.681 L
390.667 147.941 L
393.55 147.987 L
396.433 147.926 L
399.317 147.811 L
402.2 147.765 L
405.083 148.179 L
407.967 147.918 L
410.85 147.573 L
413.733 147.267 L
416.617 146.86 L
419.5 146.531 L
422.383 146.078 L
425.267 145.71 L
428.15 145.181 L
431.033 144.775 L
433.917 144.146 L
436.8 143.671 L
439.683 143.127 L
442.567 142.444 L
445.45 141.839 L
448.333 141.064 L
451.217 140.328 L
454.1 139.646 L
456.983 138.734 L
459.867 137.798 L
462.75 136.756 L
465.633 135.299 L
468.517 133.528 L
471.4 131.32 L
474.283 128.545 L
477.167 125.401 L
480.05 121.43 L
482.933 116.822 L
485.817 111.739 L
488.7 105.606 L
491.583 99.166 L
494.467 91.561 L
S
GR
GS
[0.75 0 0 0.75 0 0.5] CT
1 GC
N
333 353 M
506 353 L
506 238 L
333 238 L
cp
f
GR
GS
[0.75 0 0 0.75 0 0.5] CT
0.873 GC
1 LJ
0.667 LW
N
333 353 M
333 238 L
S
GR
GS
[0.75 0 0 0.75 0 0.5] CT
0.873 GC
1 LJ
0.667 LW
N
390.667 353 M
390.667 238 L
S
GR
GS
[0.75 0 0 0.75 0 0.5] CT
0.873 GC
1 LJ
0.667 LW
N
448.333 353 M
448.333 238 L
S
GR
GS
[0.75 0 0 0.75 0 0.5] CT
0.873 GC
1 LJ
0.667 LW
N
506 353 M
506 238 L
S
GR
GS
[0.75 0 0 0.75 0 0.5] CT
0.873 GC
1 LJ
0.667 LW
N
506 353 M
333 353 L
S
GR
GS
[0.75 0 0 0.75 0 0.5] CT
0.873 GC
1 LJ
0.667 LW
N
506 295.5 M
333 295.5 L
S
GR
GS
[0.75 0 0 0.75 0 0.5] CT
0.873 GC
1 LJ
0.667 LW
N
506 238 M
333 238 L
S
GR
GS
[0.75 0 0 0.75 0 0.5] CT
0.149 GC
2 setlinecap
1 LJ
0.667 LW
N
333 353 M
506 353 L
S
GR
GS
[0.75 0 0 0.75 0 0.5] CT
0.149 GC
2 setlinecap
1 LJ
0.667 LW
N
333 238 M
506 238 L
S
GR
GS
[0.75 0 0 0.75 0 0.5] CT
0.149 GC
2 setlinecap
1 LJ
0.667 LW
N
333 353 M
333 351.27 L
S
GR
GS
[0.75 0 0 0.75 0 0.5] CT
0.149 GC
2 setlinecap
1 LJ
0.667 LW
N
390.667 353 M
390.667 351.27 L
S
GR
GS
[0.75 0 0 0.75 0 0.5] CT
0.149 GC
2 setlinecap
1 LJ
0.667 LW
N
448.333 353 M
448.333 351.27 L
S
GR
GS
[0.75 0 0 0.75 0 0.5] CT
0.149 GC
2 setlinecap
1 LJ
0.667 LW
N
506 353 M
506 351.27 L
S
GR
GS
[0.75 0 0 0.75 0 0.5] CT
0.149 GC
2 setlinecap
1 LJ
0.667 LW
N
333 238 M
333 239.73 L
S
GR
GS
[0.75 0 0 0.75 0 0.5] CT
0.149 GC
2 setlinecap
1 LJ
0.667 LW
N
390.667 238 M
390.667 239.73 L
S
GR
GS
[0.75 0 0 0.75 0 0.5] CT
0.149 GC
2 setlinecap
1 LJ
0.667 LW
N
448.333 238 M
448.333 239.73 L
S
GR
GS
[0.75 0 0 0.75 0 0.5] CT
0.149 GC
2 setlinecap
1 LJ
0.667 LW
N
506 238 M
506 239.73 L
S
GR
GS
[0.75 0 0 0.75 249.75 269.25001] CT
0.149 GC
/Helvetica 13.333 F
GS
[1 0 0 1 0 0] CT
-9.5 14 moveto 
1 -1 scale
(-10) t 
GR
GR
GS
[0.75 0 0 0.75 292.99999 269.25001] CT
0.149 GC
/Helvetica 13.333 F
GS
[1 0 0 1 0 0] CT
-4 14 moveto 
1 -1 scale
(0) t 
GR
GR
GS
[0.75 0 0 0.75 336.25001 269.25001] CT
0.149 GC
/Helvetica 13.333 F
GS
[1 0 0 1 0 0] CT
-7.5 14 moveto 
1 -1 scale
(10) t 
GR
GR
GS
[0.75 0 0 0.75 379.5 269.25001] CT
0.149 GC
/Helvetica 13.333 F
GS
[1 0 0 1 0 0] CT
-7.5 14 moveto 
1 -1 scale
(20) t 
GR
GR
GS
[0.75 0 0 0.75 303.75 295.25] CT
0.149 GC
N
f368136476
f
GR
GS
[0.75 0 0 0.75 311.25 295.25] CT
0.149 GC
/Helvetica 14.667 F
GS
[1 0 0 1 0 0] CT
0 0 moveto 
1 -1 scale
( [\260]) t 
GR
GR
GS
[0.75 0 0 0.75 0 0.5] CT
0.149 GC
2 setlinecap
1 LJ
0.667 LW
N
333 353 M
333 238 L
S
GR
GS
[0.75 0 0 0.75 0 0.5] CT
0.149 GC
2 setlinecap
1 LJ
0.667 LW
N
506 353 M
506 238 L
S
GR
GS
[0.75 0 0 0.75 0 0.5] CT
0.149 GC
2 setlinecap
1 LJ
0.667 LW
N
333 353 M
334.73 353 L
S
GR
GS
[0.75 0 0 0.75 0 0.5] CT
0.149 GC
2 setlinecap
1 LJ
0.667 LW
N
333 295.5 M
334.73 295.5 L
S
GR
GS
[0.75 0 0 0.75 0 0.5] CT
0.149 GC
2 setlinecap
1 LJ
0.667 LW
N
333 238 M
334.73 238 L
S
GR
GS
[0.75 0 0 0.75 0 0.5] CT
0.149 GC
2 setlinecap
1 LJ
0.667 LW
N
506 353 M
504.27 353 L
S
GR
GS
[0.75 0 0 0.75 0 0.5] CT
0.149 GC
2 setlinecap
1 LJ
0.667 LW
N
506 295.5 M
504.27 295.5 L
S
GR
GS
[0.75 0 0 0.75 0 0.5] CT
0.149 GC
2 setlinecap
1 LJ
0.667 LW
N
506 238 M
504.27 238 L
S
GR
GS
[0.75 0 0 0.75 245.74999 265.25] CT
0.149 GC
/Helvetica 13.333 F
GS
[1 0 0 1 0 0] CT
-23 5.5 moveto 
1 -1 scale
(-0.2) t 
GR
GR
GS
[0.75 0 0 0.75 245.74999 222.125] CT
0.149 GC
/Helvetica 13.333 F
GS
[1 0 0 1 0 0] CT
-30 5.5 moveto 
1 -1 scale
(-0.15) t 
GR
GR
GS
[0.75 0 0 0.75 245.74999 179] CT
0.149 GC
/Helvetica 13.333 F
GS
[1 0 0 1 0 0] CT
-23 5.5 moveto 
1 -1 scale
(-0.1) t 
GR
GR
GS
[0 -0.75 0.75 0 213 228.5] CT
0.149 GC
/Helvetica 14.667 F
GS
[1 0 0 1 0 0] CT
0 0 moveto 
1 -1 scale
(c) t 
GR
GR
GS
[0 -0.75 0.75 0 218.25 222.5] CT
0.149 GC
/Helvetica 11.733 F
GS
[1 0 0 1 0 0] CT
0 0 moveto 
1 -1 scale
(m) t 
GR
GR
GS
[0.75 0 0 0.75 307.5 169.25] CT
/Helvetica-Bold 14.667 F
GS
[1 0 0 1 0 0] CT
0 0 moveto 
1 -1 scale
(c) t 
GR
GR
GS
[0.75 0 0 0.75 314.25 174.5] CT
/Helvetica-Bold 11.733 F
GS
[1 0 0 1 0 0] CT
0 0 moveto 
1 -1 scale
(m) t 
GR
GR
GS
[0.75 0 0 0.75 0 0.5] CT
[10 6] 0 setdash
2 LJ
1.333 LW
N
373.367 314.935 M
376.25 315.395 L
379.133 316.085 L
382.017 316.315 L
384.9 316.66 L
387.783 317.35 L
393.55 317.695 L
396.433 318.27 L
399.317 314.015 L
402.2 313.785 L
405.083 313.785 L
407.967 314.13 L
410.85 314.13 L
413.733 313.67 L
416.617 313.67 L
419.5 314.015 L
422.383 313.555 L
425.267 312.75 L
428.15 312.52 L
431.033 313.095 L
433.917 311.37 L
436.8 310.22 L
439.683 309.99 L
442.567 309.185 L
445.45 306.655 L
448.333 305.62 L
451.217 304.47 L
454.1 299.87 L
456.983 294.235 L
459.867 286.645 L
462.75 278.94 L
465.633 272.73 L
468.517 266.29 L
471.4 260.31 L
474.283 255.365 L
477.167 251.455 L
480.05 249.155 L
482.933 248.465 L
485.817 249.155 L
488.7 250.88 L
491.583 253.755 L
494.467 257.435 L
S
GR
GS
[0.75 0 0 0.75 0 0.5] CT
0 0 1 RC
1 LJ
2 LW
N
373.367 299.755 M
376.25 300.675 L
379.133 301.595 L
382.017 302.17 L
384.9 302.86 L
387.783 303.32 L
390.667 304.125 L
393.55 304.7 L
396.433 304.815 L
399.317 304.93 L
402.2 304.93 L
405.083 302.745 L
407.967 302.745 L
410.85 302.63 L
413.733 302.4 L
416.617 302.17 L
419.5 301.825 L
422.383 301.48 L
425.267 300.905 L
428.15 300.33 L
431.033 299.525 L
433.917 298.95 L
436.8 297.8 L
439.683 296.765 L
442.567 295.5 L
445.45 293.89 L
448.333 292.74 L
451.217 290.21 L
454.1 287.45 L
456.983 284.46 L
459.867 279.285 L
462.75 275.605 L
465.633 271.12 L
468.517 266.52 L
471.4 262.725 L
474.283 259.505 L
477.167 256.745 L
480.05 254.56 L
482.933 252.835 L
485.817 251.685 L
488.7 251.455 L
491.583 251.57 L
494.467 252.605 L
S
GR
%%Trailer
%%Pages: 1
%%EOF
