 1.0019491     0.0029745
 0.9946369     0.0042925
 0.9822162     0.0065858
 0.9680641     0.0093358
 0.9522805     0.0125119
 0.9352274     0.0161024
 0.9171705     0.0200304
 0.8984745     0.0242164
 0.8792917     0.0286181
 0.8597566     0.0331802
 0.8399607     0.0378560
 0.8200157     0.0425895
 0.8000666     0.0473179
 0.7802449     0.0519828
 0.7605639     0.0565350
 0.7410074     0.0609974
 0.7216593     0.0652840
 0.7023605     0.0694562
 0.6833201     0.0734237
 0.6642750     0.0772342
 0.6453867     0.0808418
 0.6265639     0.0842940
 0.6080376     0.0874853
 0.5895164     0.0904736
 0.5714824     0.0932611
 0.5538849     0.0956881
 0.5368112     0.0979502
 0.5205813     0.0998288
 0.5052781     0.1015310
 0.4902353     0.1036843
 0.4741650     0.1056106
 0.4568708     0.1074555
 0.4390398     0.1092304
 0.4209207     0.1108393
 0.4029007     0.1122258
 0.3847230     0.1133100
 0.3665923     0.1142316
 0.3487910     0.1148308
 0.3309095     0.1151262
 0.3132952     0.1152117
 0.2960029     0.1149067
 0.2787064     0.1143126
 0.2617851     0.1134105
 0.2450779     0.1121642
 0.2286847     0.1105812
 0.2126082     0.1086427
 0.1968448     0.1063309
 0.1813969     0.1036583
 0.1663243     0.1006342
 0.1516735     0.0972590
 0.1374736     0.0935466
 0.1238183     0.0895511
 0.1108323     0.0853002
 0.0985499     0.0808355
 0.0870872     0.0762535
 0.0765464     0.0716219
 0.0669288     0.0669864
 0.0582306     0.0624474
 0.0504834     0.0580809
 0.0436389     0.0538790
 0.0375855     0.0498484
 0.0322216     0.0460102
 0.0274735     0.0423658
 0.0232807     0.0389135
 0.0195879     0.0356442
 0.0163421     0.0325290
 0.0134840     0.0295340
 0.0109601     0.0266281
 0.0087353     0.0237928
 0.0067906     0.0210275
 0.0051103     0.0183415
 0.0036776     0.0157467
 0.0024886     0.0132522
 0.0015415     0.0108524
 0.0008269     0.0085295
 0.0003371     0.0062613
 0.0000697     0.0040236
 0.0000281     0.0017925
 0.0002081    -0.0004401
 0.0006093    -0.0026702
 0.0012397    -0.0048885
 0.0021149    -0.0070785
 0.0032574    -0.0092146
 0.0046950    -0.0112581
 0.0064446    -0.0131803
 0.0085052    -0.0149747
 0.0108713    -0.0166356
 0.0135309    -0.0181569
 0.0164628    -0.0195319
 0.0196598    -0.0207551
 0.0231544    -0.0218245
 0.0269885    -0.0227417
 0.0312103    -0.0235159
 0.0358787    -0.0241527
 0.0410701    -0.0246467
 0.0468730    -0.0249997
 0.0533994    -0.0251986
 0.0607987    -0.0252133
 0.0692649    -0.0250088
 0.0790079    -0.0245496
 0.0902489    -0.0237960
 0.1032220    -0.0227198
 0.1180536    -0.0213287
 0.1346573    -0.0196590
 0.1526955    -0.0177857
 0.1717195    -0.0157641
 0.1912911    -0.0137136
 0.2111390    -0.0116853
 0.2310347    -0.0097185
 0.2509206    -0.0078420
 0.2707238    -0.0060352
 0.2901214    -0.0043439
 0.3094225    -0.0029318
 0.3286702    -0.0015322
 0.3477915    -0.0003142
 0.3671922     0.0008147
 0.3863918     0.0018841
 0.4057920     0.0027640
 0.4251381     0.0036600
 0.4444235     0.0043951
 0.4638776     0.0050203
 0.4830914     0.0056108
 0.5016965     0.0061293
 0.5197941     0.0067983
 0.5382977     0.0075985
 0.5571494     0.0083037
 0.5760467     0.0088622
 0.5949677     0.0093280
 0.6142609     0.0096075
 0.6335080     0.0098358
 0.6526134     0.0098917
 0.6718025     0.0098635
 0.6914273     0.0096808
 0.7111222     0.0094272
 0.7309878     0.0090206
 0.7509182     0.0085447
 0.7708976     0.0079462
 0.7909688     0.0072533
 0.8110984     0.0064693
 0.8312923     0.0056054
 0.8515263     0.0046686
 0.8717707     0.0036718
 0.8919384     0.0026326
 0.9118613     0.0015772
 0.9312073     0.0005405
 0.9494867    -0.0004357
 0.9662690    -0.0013027
 0.9811166    -0.0020564
 0.9938736    -0.0026567
 1.0012969    -0.0029745
